<?xml version="1.0" encoding="UTF-8"?>
<svg width="1366px" height="642px" viewBox="0 0 1366 642" version="1.1" xmlns="http://www.w3.org/2000/svg" xmlns:xlink="http://www.w3.org/1999/xlink">
    <!-- Generator: sketchtool 62 (101010) - https://sketch.com -->
    <title>C91AF31A-49C0-4F46-A731-0060F2784D8C</title>
    <desc>Created with sketchtool.</desc>
    <defs>
        <linearGradient x1="50%" y1="-33.1716405%" x2="50%" y2="67.5072221%" id="linearGradient-1">
            <stop stop-color="#F5F5F5" offset="0%"></stop>
            <stop stop-color="#FFFFFF" offset="100%"></stop>
        </linearGradient>
        <rect id="path-2" x="0" y="0" width="1366" height="642"></rect>
        <linearGradient x1="66.8058665%" y1="58.2630925%" x2="65.0396272%" y2="51.2583084%" id="linearGradient-4">
            <stop stop-color="#9DE4FF" offset="0%"></stop>
            <stop stop-color="#FFFFFF" offset="100%"></stop>
        </linearGradient>
    </defs>
    <g id="home" stroke="none" stroke-width="1" fill="none" fill-rule="evenodd">
        <g id="w_i_home_c1" transform="translate(0.000000, -60.000000)">
            <g id="bg_banner_c-2" transform="translate(0.000000, 60.000000)">
                <g id="bg_banner_c">
                    <mask id="mask-3" fill="white">
                        <use xlink:href="#path-2"></use>
                    </mask>
                    <use id="Mask" fill="url(#linearGradient-1)" xlink:href="#path-2"></use>
                    <path d="M1603,657 L-499,657 L-499,476.702251 C-404.925051,465.923017 -273.120745,498.341815 -200.323409,521.102657 C-6.98446214,581.566422 227.274813,563.449023 326.360724,415.705581 C420.127962,275.938526 495.406839,181.161655 732.106783,130.490301 C954.086223,82.9946171 1147.86951,114.213499 1158.37665,-81 L1603,-81 L1603,657 Z" id="Fill-1" fill="url(#linearGradient-4)" mask="url(#mask-3)" transform="translate(552.000000, 288.000000) scale(-1, 1) translate(-552.000000, -288.000000) "></path>
                </g>
            </g>
        </g>
    </g>
</svg>