<?xml version="1.0" encoding="UTF-8"?>
<svg width="382px" height="226px" viewBox="0 0 382 226" version="1.1" xmlns="http://www.w3.org/2000/svg" xmlns:xlink="http://www.w3.org/1999/xlink">
    <!-- Generator: sketchtool 62 (101010) - https://sketch.com -->
    <title>F85D495D-5333-4E07-8D1A-65D8741C06BF</title>
    <desc>Created with sketchtool.</desc>
    <defs>
        <polygon id="path-1" points="0.0894363058 0.253915046 76.7750581 0.253915046 76.7750581 91 0.0894363058 91"></polygon>
        <polygon id="path-3" points="0.463359888 0.864985923 38.7379 0.864985923 38.7379 92 0.463359888 92"></polygon>
        <path d="M21.007,0.286 C15.48,0.286 10.107,1.671 6.261,4.388 L6.261,4.388 C-1.266,9.707 -1.082,17.761 4.054,21.323 L4.054,21.323 C11.885,26.068 27.071,22.577 27.071,22.577 L27.071,22.577 C32.888,23.052 32.715,31.549 33.477,35.812 L33.477,35.812 C33.477,35.812 35.626,34.562 36.002,34.483 L36.002,34.483 C36.377,34.403 37.303,34.32 37.5,37.602 L37.5,37.602 C37.698,40.885 33.679,43.713 33.679,43.713 L33.679,43.713 C33.691,45.715 34.125,49.221 34.384,52.427 L34.384,52.427 C35.084,52.916 34.93,52.619 36.805,54.354 L36.805,54.354 C53.922,57.109 59.07,54.015 68.098,76.459 L68.098,76.459 C69.058,75.258 75.246,67.186 70.741,61.411 L70.741,61.411 C74.613,62.405 77.038,64.382 76.966,63.142 L76.966,63.142 C75.772,42.736 57.394,44.348 50.521,28.65 L50.521,28.65 C47.566,21.899 44.978,13.889 42.486,10.078 L42.486,10.078 C38.181,3.491 29.417,0.286 21.01,0.286 L21.01,0.286 C21.009,0.286 21.008,0.286 21.007,0.286" id="path-5"></path>
        <linearGradient x1="48.97216%" y1="98.4173407%" x2="48.97216%" y2="10.4769127%" id="linearGradient-7">
            <stop stop-color="#905050" offset="0%"></stop>
            <stop stop-color="#3B1111" offset="100%"></stop>
        </linearGradient>
        <polygon id="path-8" points="0.0843369829 0.64044593 77.797804 0.64044593 77.797804 50 0.0843369829 50"></polygon>
        <path d="M4.843,0.648 C2.467,0.648 0,2.652 0.524,4.969 L0.524,4.969 L9.729,45.681 C10.246,47.971 11.639,49.954 13.965,50 L13.965,50 L75.733,50 C78.081,49.952 80.483,47.971 79.966,45.681 L79.966,45.681 L70.761,4.969 C70.237,2.652 68.818,0.648 66.442,0.648 L66.442,0.648 L4.843,0.648 Z" id="path-10"></path>
        <linearGradient x1="52.9793346%" y1="64.0617172%" x2="38.5777819%" y2="-3.9043108%" id="linearGradient-12">
            <stop stop-color="#FDFDFD" offset="0%"></stop>
            <stop stop-color="#2390FF" offset="100%"></stop>
        </linearGradient>
        <polygon id="path-13" points="0.4074 0.9663 35.9704 0.9663 35.9704 5 0.4074 5"></polygon>
    </defs>
    <g id="BOC-|-BOP" stroke="none" stroke-width="1" fill="none" fill-rule="evenodd">
        <g id="w_e_BOC_Drafting_CategorySelection" transform="translate(-902.000000, -199.000000)">
            <g id="Paralax-1" transform="translate(0.000000, 60.000000)">
                <g id="Dampak-Sosial" transform="translate(903.000000, 140.000000)">
                    <g id="img_BOC_DampakSosial-2">
                        <g id="img_BOC_DampakSosial">
                            <g id="Group-62" transform="translate(110.000000, 42.000000)">
                                <g id="Group-43" transform="translate(7.000000, 0.464000)">
                                    <path d="M94.7298,99.1294 C94.7298,99.1294 109.1808,92.5554 107.0358,82.3744 C104.8928,72.1914 93.1418,73.2634 94.7298,65.2254 C96.3178,57.1864 104.0348,44.6694 96.5318,35.5594 C89.0288,26.4484 76.5508,31.9094 74.9868,17.7824 C73.7248,6.3974 68.4648,-1.6656 58.2718,0.6984 C48.8368,2.8874 41.8018,10.1924 41.6268,27.5674 C41.4368,46.0664 28.4098,40.8694 28.2478,54.4984 C28.0848,68.2244 39.0188,68.2244 43.2898,77.4334 C45.3058,81.7824 40.0458,97.0684 55.5918,99.1294 L94.7298,99.1294 Z" id="Fill-1" fill="#BFC7F8"></path>
                                    <path d="M59.8519,8.1001 C59.8519,8.1021 59.8159,8.4121 59.7619,9.0181 C59.5969,10.8401 59.2659,15.2771 59.2659,21.4621 C59.2609,39.5561 62.1159,72.6071 80.1269,98.9881 C80.1589,99.0341 80.1839,99.0801 80.2049,99.1291 L78.3189,99.1291 C60.4729,72.4191 57.6929,39.5461 57.6879,21.4621 C57.6879,13.1391 58.2819,7.9461 58.2849,7.9201 C58.3329,7.4891 58.7239,7.1781 59.1589,7.2271 C59.5899,7.2761 59.9009,7.6691 59.8519,8.1001" id="Fill-3" fill="#FFFFFF"></path>
                                    <path d="M77.3626,99.1294 C77.3626,99.1294 79.6356,86.5654 71.1076,81.4494 C62.5826,76.3334 53.8726,72.3534 54.8176,64.1094 C55.7626,55.8664 53.4376,46.1394 39.7736,45.9574 C31.3276,45.8464 34.4986,36.9404 25.9166,35.1654 C20.6996,34.0854 17.2596,39.5304 16.5936,44.8774 C15.8346,50.9674 19.2816,56.9544 15.3276,61.9134 C10.1966,68.3404 8.1126,80.3234 19.1406,83.7334 C30.1686,87.1464 20.3406,97.5854 35.3586,99.1294 L39.9746,99.1294 L77.3626,99.1294 Z" id="Fill-5" fill="#E2E7FD"></path>
                                    <path d="M26.4886,41.1343 C26.7766,49.1383 30.3276,60.5303 36.4016,71.4003 C42.4706,82.2793 51.0606,92.6473 61.3186,98.7563 C61.4696,98.8463 61.5806,98.9783 61.6426,99.1293 L58.9326,99.1293 C49.0486,92.7323 40.8876,82.6683 35.0246,72.1703 C28.8556,61.1093 25.2276,49.5823 24.9116,41.1933 C24.8966,40.7583 25.2346,40.3913 25.6726,40.3748804 C26.1056,40.3613 26.4736,40.6993 26.4886,41.1343" id="Fill-7" fill="#FFFFFF"></path>
                                    <path d="M84.7845,85.1128 C78.9195,97.9858 71.6445,112.7368 54.8565,115.2388 C41.2395,117.2668 21.3115,91.6338 19.3525,87.4538 C17.3935,83.2718 24.8355,72.3508 27.2365,73.6148 C29.6385,74.8788 49.3765,90.1198 51.1795,90.0028 C53.2865,89.8678 60.4725,67.0088 73.5125,59.4848 C75.5465,58.3118 87.3065,79.5758 84.7845,85.1128" id="Fill-9" fill="#1943AA"></path>
                                    <path d="M81.6136,12.8462 C85.1036,38.3102 67.9926,46.1682 84.7466,69.7172 C84.7466,69.7172 95.0086,58.4222 99.4026,57.6242 C103.7986,56.8262 104.3826,43.0082 104.3826,42.2992 C104.3826,41.5902 100.4706,14.0432 100.4706,14.0432 L81.6136,12.8462 Z" id="Fill-11" fill="#602C2C"></path>
                                    <g id="Group-15" transform="translate(62.000000, 53.000000)">
                                        <mask id="mask-2" fill="white">
                                            <use xlink:href="#path-1"></use>
                                        </mask>
                                        <g id="Clip-14"></g>
                                        <path d="M55.2913,0.3628 C63.5733,0.3628 71.8963,4.5658 75.5213,9.9698 C80.8503,17.9148 67.2953,51.2318 70.0463,91.0008 L1.9773,91.0008 C-0.8867,66.9488 -1.0077,45.2028 5.2643,11.9728 C13.9403,-1.6842 41.9533,0.3628 55.2913,0.3628" id="Fill-13" fill="#1943AA" mask="url(#mask-2)"></path>
                                    </g>
                                    <path d="M135.3675,93.8716 C134.8645,96.9586 134.3575,100.2136 133.8875,103.6176 C131.4025,105.7756 128.1725,108.1986 127.5685,108.1316 C126.9655,108.0646 113.3135,107.5586 113.3135,107.5586 C113.3135,107.5586 124.8645,101.0456 124.6195,94.7376 C124.3735,88.4296 123.4675,77.4816 123.4675,77.4816 C123.4675,77.4816 133.5495,87.1596 133.8775,88.3886 C134.0305,88.9626 134.7195,91.3416 135.3675,93.8716" id="Fill-16" fill="#0E338E"></path>
                                    <path d="M132.6185,114.3149 C132.3685,116.9059 132.1565,119.5559 131.9975,122.2629 C128.8205,123.3299 124.4955,124.4799 119.8275,124.8439 C110.4065,125.5829 102.5215,123.1349 102.541462,122.7149 L126.4645,114.1129 L132.6185,114.3149 Z" id="Fill-18" fill="#0E338E"></path>
                                    <g id="Group-22" transform="translate(78.000000, 52.000000)">
                                        <mask id="mask-4" fill="white">
                                            <use xlink:href="#path-3"></use>
                                        </mask>
                                        <g id="Clip-21"></g>
                                        <path d="M13.0599,1.9829 C5.0619,6.6019 -3.3451,51.7449 2.3099,92.0009 L32.0349,92.0009 C25.8479,49.3509 35.0889,11.3039 38.7379,1.3609 C30.3709,0.8089 23.3039,0.3879 13.0599,1.9829" id="Fill-20" fill="#FFFFFF" mask="url(#mask-4)"></path>
                                    </g>
                                    <path d="M108.179,124.3081 C108.124,123.1101 108.08,121.9191 108.046,120.7361 L102.540972,122.7151 C102.532,122.9371 104.723,123.7231 108.179,124.3081" id="Fill-23" fill="#C8C8C9"></path>
                                    <path d="M85.931,44.1304 C88.552,47.2784 91.577,49.8194 94.688,50.5094 L94.688,53.8994 L94.082,54.7164 C91.868,58.5674 93.072,66.3064 96.74,68.1914 C102.478,66.1334 110.241,61.0574 111.797,53.9264 L110.775,52.9794 L109.376,51.9994 L108.693,43.5504 C109.126,43.4234 111.895,40.8654 112.777,40.3514 C113.659,39.8384 114.628,37.6834 114.271,35.7284 C113.913,33.7734 111.074,35.0954 111.074,35.0954 L111.073,35.0954 C113.537,29.3004 116.693,24.3024 110.341,21.0814 C103.991,17.8594 91.181,18.1024 91.181,18.1024 L83.243,17.2664 C84.768,19.5834 84.508,27.2924 83.853,33.0114 C83.265,38.1404 82.411,39.9034 85.931,44.1304" id="Fill-25" fill="#F7CCCF"></path>
                                    <path d="M105.4691,45.3745 C103.5841,51.4875 101.6691,55.5335 94.6881,56.3085 L94.6881,50.5095 C97.1261,50.3395 100.3631,49.5155 105.4691,45.3745" id="Fill-27" fill="#E98385"></path>
                                    <path d="M122.4779,75.1264 C119.4539,68.9024 120.0329,63.3264 125.8329,59.4594 C131.6339,55.5924 136.5819,60.3094 139.6059,66.5334 C145.5419,78.7484 149.8909,105.9824 143.6059,113.7364 C139.7809,118.4554 121.2509,121.8224 110.3549,122.8504 C106.6279,123.2014 102.2529,123.2744 101.2119,122.9884 C97.4159,121.9424 95.1999,113.8684 96.9819,110.5574 C97.6759,109.2694 101.7879,108.8204 103.3789,108.5074 C111.1339,106.9814 124.3969,102.1254 126.6429,100.9144 C130.7489,98.7004 124.5999,79.4894 122.4779,75.1264" id="Fill-29" fill="#1943AA"></path>
                                    <path d="M100.6312,111.2886 C103.7572,112.2946 108.3332,122.3696 101.1912,121.7916 C98.2942,121.5566 97.4082,121.6976 97.4082,121.6976 C93.7802,119.1016 93.0492,115.1196 93.1802,112.2586 L100.6312,111.2886 Z" id="Fill-31" fill="#FFFFFF"></path>
                                    <path d="M26.555,75.0942 C27.184,79.0442 23.5,85.4172 20.701,86.5482 C20.388,85.9922 18.516,83.5802 17.277,81.7282 C14.614,77.7472 20.9,69.4292 22.742,71.2752 L26.555,75.0942 Z" id="Fill-33" fill="#FFFFFF"></path>
                                    <path d="M19.1458,68.8423 C18.7528,67.0273 17.1038,59.8513 15.7648,58.6453 C15.0818,58.0293 14.9188,58.3083 14.6168,58.6983 C14.3508,59.0403 14.1248,59.9703 14.2008,60.6063 C14.3578,61.9373 14.4608,63.1493 14.6628,63.8653 C10.6138,61.7473 6.7368,56.7793 3.7768,53.3793 C2.5738,51.9963 0.6608,52.1453 1.8178,54.6123 C2.7638,56.6293 6.5048,61.1493 6.5048,61.1493 L1.3938,57.8553 C-0.0232,57.0873 -0.0152,58.8323 0.6608,59.5653 C1.7708,60.7673 5.1848,63.9823 5.1848,63.9823 L1.4608,62.6253 C0.0358,62.1083 0.7788,63.8623 1.1588,64.1703 C2.0308,64.8803 5.1248,66.8533 5.1248,66.8533 L3.4148,66.2883 C1.4788,65.6483 2.8958,68.1383 3.4568,68.3143 C3.5748,68.3513 10.2618,72.5863 11.4258,73.2843 C14.3328,75.0273 15.7098,77.9083 17.7718,80.3283 C18.8878,79.4733 21.6958,76.2083 22.0948,72.1933 L19.1458,68.8423 Z" id="Fill-35" fill="#F7CCCF"></path>
                                    <path d="M94.7445,113.1499 L91.5165,113.5679 L84.9335,111.0999 C84.2395,110.6169 79.5035,108.5329 80.5135,110.4129 C81.2235,111.7339 83.7175,114.1569 83.6235,114.2699 C82.3995,115.7589 72.7145,116.5189 72.5955,116.6529 C70.9215,118.5109 77.0985,118.3879 78.1465,118.4149 C78.4225,118.4209 73.9145,119.4479 74.0715,119.6559 C74.2625,119.9089 74.7395,120.5989 75.8985,120.5999 C77.3175,120.6009 79.7465,120.2099 79.9825,120.4589 C80.2285,120.7169 75.8485,121.6779 76.0955,121.9009 C76.2855,122.0739 76.6625,122.4389 77.5535,122.4159 C79.0225,122.3769 81.2465,121.8729 81.5665,122.0769 C81.8965,122.2869 78.7195,122.7879 79.0385,122.9539 C79.2865,123.0839 79.2665,123.5709 79.5385,123.5869 C86.8355,123.9799 87.4045,120.3019 95.7495,120.9789 C100.3905,121.3539 96.1785,114.1469 94.7445,113.1499" id="Fill-37" fill="#F7CCCF"></path>
                                    <path d="M88.7318,38.8891 C87.8748,40.2621 90.1508,42.2911 91.4038,42.6141 C94.3248,43.3651 97.5678,42.3211 97.9178,39.2121 C96.4418,38.8271 94.0588,39.7331 91.5968,39.3671 C89.7088,39.0851 88.7318,38.8891 88.7318,38.8891" id="Fill-39" fill="#FFFFFF"></path>
                                    <path d="M117.6204,24.4468 C119.4434,24.4468 120.9204,26.2908 120.9204,28.5638 C120.9204,30.8378 119.4434,32.6798 117.6204,32.6798 C115.7984,32.6798 114.3214,30.8378 114.3214,28.5638 C114.3214,26.2908 115.7984,24.4468 117.6204,24.4468" id="Fill-41" fill="#FF89A2"></path>
                                </g>
                                <g id="Group-46" transform="translate(82.000000, 0.464000)">
                                    <mask id="mask-6" fill="white">
                                        <use xlink:href="#path-5"></use>
                                    </mask>
                                    <g id="Clip-45"></g>
                                    <path d="M21.007,0.286 C15.48,0.286 10.107,1.671 6.261,4.388 L6.261,4.388 C-1.266,9.707 -1.082,17.761 4.054,21.323 L4.054,21.323 C11.885,26.068 27.071,22.577 27.071,22.577 L27.071,22.577 C32.888,23.052 32.715,31.549 33.477,35.812 L33.477,35.812 C33.477,35.812 35.626,34.562 36.002,34.483 L36.002,34.483 C36.377,34.403 37.303,34.32 37.5,37.602 L37.5,37.602 C37.698,40.885 33.679,43.713 33.679,43.713 L33.679,43.713 C33.691,45.715 34.125,49.221 34.384,52.427 L34.384,52.427 C35.084,52.916 34.93,52.619 36.805,54.354 L36.805,54.354 C53.922,57.109 59.07,54.015 68.098,76.459 L68.098,76.459 C69.058,75.258 75.246,67.186 70.741,61.411 L70.741,61.411 C74.613,62.405 77.038,64.382 76.966,63.142 L76.966,63.142 C75.772,42.736 57.394,44.348 50.521,28.65 L50.521,28.65 C47.566,21.899 44.978,13.889 42.486,10.078 L42.486,10.078 C38.181,3.491 29.417,0.286 21.01,0.286 L21.01,0.286 C21.009,0.286 21.008,0.286 21.007,0.286" id="Fill-44" fill="url(#linearGradient-7)" mask="url(#mask-6)"></path>
                                </g>
                                <g id="Group-52" transform="translate(5.000000, 94.464000)">
                                    <path d="M67.6536,30.3764 C67.6536,30.3764 69.4026,32.8004 69.8016,36.0544 C70.2016,39.3084 69.4606,41.0034 69.4606,41.0034 C60.8776,41.6924 43.6406,41.0444 43.6745498,41.0394 C44.2546,40.9524 42.8716,39.7164 44.7186,38.7664 C46.0476,38.0834 50.4226,37.8624 51.9606,36.8404 C58.7856,32.3044 63.3776,33.1934 67.6536,30.3764" id="Fill-47" fill="#E89292"></path>
                                    <g id="Group-51">
                                        <mask id="mask-9" fill="white">
                                            <use xlink:href="#path-8"></use>
                                        </mask>
                                        <g id="Clip-50"></g>
                                        <path d="M64.2025,0.6489 L4.4625,4.7369 C2.0925,4.8989 -0.3235,6.7269 0.1425,9.0559 L7.4895,45.6809 C7.9575,48.0089 9.4335,50.0009 11.8085,50.0009 L73.4075,50.0009 C75.7835,50.0009 78.2515,47.9989 77.7265,45.6809 L68.5215,4.9679 C67.9985,2.6519 66.5725,0.4879 64.2025,0.6489" id="Fill-49" fill="#008EF4" mask="url(#mask-9)"></path>
                                    </g>
                                </g>
                                <g id="Group-55" transform="translate(0.000000, 94.464000)">
                                    <mask id="mask-11" fill="white">
                                        <use xlink:href="#path-10"></use>
                                    </mask>
                                    <g id="Clip-54"></g>
                                    <path d="M4.843,0.648 C2.467,0.648 0,2.652 0.524,4.969 L0.524,4.969 L9.729,45.681 C10.246,47.971 11.639,49.954 13.965,50 L13.965,50 L75.733,50 C78.081,49.952 80.483,47.971 79.966,45.681 L79.966,45.681 L70.761,4.969 C70.237,2.652 68.818,0.648 66.442,0.648 L66.442,0.648 L4.843,0.648 Z" id="Fill-53" fill="url(#linearGradient-12)" mask="url(#mask-11)"></path>
                                </g>
                                <g id="Group-61" transform="translate(36.000000, 115.464000)">
                                    <path d="M2.9447,0.2798 C1.0837,0.8788 0.1567,3.1748 0.8747,5.4088 C1.5917,7.6418 3.6827,8.9678 5.5457,8.3688 C7.4067,7.7708 8.3337,5.4748 7.6157,3.2418 C6.8967,1.0078 4.8057,-0.3192 2.9447,0.2798" id="Fill-56" fill="#EEF4F8"></path>
                                    <g id="Group-60" transform="translate(42.000000, 24.000000)">
                                        <mask id="mask-14" fill="white">
                                            <use xlink:href="#path-13"></use>
                                        </mask>
                                        <g id="Clip-59"></g>
                                        <path d="M33.9534,0.9663 L2.6744,0.9663 L0.4074,5.0003 L35.9704,5.0003 L35.9704,2.9833 C35.9704,1.8733 35.0624,0.9663 33.9534,0.9663" id="Fill-58" fill="#008EF4" mask="url(#mask-14)"></path>
                                    </g>
                                </g>
                            </g>
                        </g>
                    </g>
                </g>
            </g>
        </g>
    </g>
</svg>