<?xml version="1.0" encoding="UTF-8"?>
<svg width="382px" height="226px" viewBox="0 0 382 226" version="1.1" xmlns="http://www.w3.org/2000/svg" xmlns:xlink="http://www.w3.org/1999/xlink">
    <!-- Generator: sketchtool 62 (101010) - https://sketch.com -->
    <title>3B5092A1-DF5D-4B49-B2F7-9496FDFEB5BC</title>
    <desc>Created with sketchtool.</desc>
    <defs>
        <path d="M34.121,37.613 C35.922,40.358 37.71,43.063 39.485,45.731 L39.485,45.731 C31.669,39.275 18.874,33.586 0.785,40.531 L0.785,40.531 L0.785,40.531 C17.988,54.516 25.705,60.482 47.025,56.945 L47.025,56.945 C48.751,59.484 50.461,61.985 52.158,64.446 L52.158,64.446 C42.882,60.429 25.056,56.492 8.308,74.19 L8.308,74.19 C29.368,79.258 38.951,81.333 55.908,69.861 L55.908,69.861 C60.523,76.489 65.022,82.825 69.393,88.872 L69.393,88.872 C58.623,82.777 38.321,76.232 16.149,94.466 L16.149,94.466 C40.927,103.81 52.093,107.722 74.63,96.063 L74.63,96.063 C78.031,100.7 81.343,105.15 84.566,109.419 L84.566,109.419 C74.446,106.005 50.352,102.27 26.879,131.395 L26.879,131.395 C53.384,132.931 65.138,133.297 87.526,113.323 L87.526,113.323 C94.933,123.05 101.824,131.774 108.106,139.508 L108.106,139.508 L108.112,139.508 L113.058,138.606 C107.917,132.311 102.348,125.324 96.4,117.639 L96.4,117.639 C122.338,102.338 125.55,91.024 132.146,65.268 L132.146,65.268 C96.598,79.048 93.383,103.802 93.716,114.156 L93.716,114.156 C90.833,110.405 87.869,106.492 84.825,102.422 L84.825,102.422 C104.104,83.753 103.786,72 102.363,44.925 L102.363,44.925 C74.588,62.899 78.923,88.499 82.135,98.809 L82.135,98.809 C77.167,92.114 72.002,85.009 66.664,77.49 L66.664,77.49 C83.087,64.677 84.025,54.942 85.594,33.167 L85.594,33.167 C63.363,43.895 61.956,62.411 63.053,72.379 L63.053,72.379 C60.904,69.323 58.726,66.202 56.527,63.012 L56.527,63.012 C66.606,43.508 63.272,34.359 55.115,13.588 L55.115,13.588 C43.952,27.536 44.392,40.455 47.491,49.762 L47.491,49.762 C44.128,44.768 40.713,39.63 37.251,34.346 L37.251,34.346 C36.211,25.167 30.899,5.048 4.522,0.436 L4.522,0.436 C11.887,20.693 15.449,29.841 34.121,37.613" id="path-1"></path>
        <linearGradient x1="55.7353665%" y1="66.7026698%" x2="6.04374351%" y2="-132.21931%" id="linearGradient-3">
            <stop stop-color="#9AD1EF" offset="0%"></stop>
            <stop stop-color="#FFFFFF" offset="100%"></stop>
        </linearGradient>
        <path d="M14.449,0.031 L14.312,0.031 L14.31,0.031 L14.173,0.031 L14.171,0.031 L14.033,0.031 L14.029,0.031 L13.892,0.031 L13.891,0.031 L13.753,0.031 L13.751,0.031 L13.613,0.031 L13.611,0.031 L13.474,0.031 L13.471,0.031 L13.334,0.031 L13.332,0.031 L13.195,0.031 L13.191,0.031 L13.054,0.031 L13.052,0.031 L12.914,0.031 L12.911,0.031 L12.775,0.031 L12.773,0.031 L12.635,0.031 L12.633,0.031 L12.496,0.031 L12.492,0.031 L12.356,0.031 L12.352,0.031 L12.216,0.031 L12.213,0.031 L12.075,0.031 L12.074,0.031 L11.936,0.031 L11.934,0.031 L11.797,0.031 L11.794,0.031 L11.657,0.031 L11.654,0.031 L11.516,0.031 L11.515,0.031 L11.377,0.031 L11.374,0.031 L11.237,0.031 L11.235,0.031 L11.098,0.031 L11.095,0.031 L10.958,0.031 L10.956,0.031 L10.818,0.031 L10.815,0.031 L10.678,0.031 L10.676,0.031 L10.538,0.031 L10.535,0.031 L10.399,0.031 L10.396,0.031 L10.259,0.031 L10.256,0.031 L10.12,0.031 L10.116,0.031 L9.978,0.031 L9.977,0.031 L9.839,0.031 L9.837,0.031 L9.699,0.031 L9.698,0.031 L9.561,0.031 L9.557,0.031 L9.421,0.031 L9.418,0.031 L9.281,0.031 L9.277,0.031 L9.14,0.031 L9.138,0.031 L9.001,0.031 L8.998,0.031 L8.861,0.031 L8.859,0.031 L8.721,0.031 L8.719,0.031 L8.581,0.031 L8.58,0.031 L8.442,0.031 L8.439,0.031 L8.302,0.031 L8.299,0.031 L8.162,0.031 L8.16,0.031 L8.023,0.031 L8.02,0.031 L7.883,0.031 L7.88,0.031 L7.743,0.031 L7.74,0.031 L7.604,0.031 L7.601,0.031 L7.463,0.031 L7.461,0.031 L7.323,0.031 L7.321,0.031 L7.184,0.031 L7.181,0.031 L7.044,0.031 L7.042,0.031 L6.905,0.031 L6.901,0.031 L6.765,0.031 L6.762,0.031 L6.625,0.031 L6.622,0.031 L6.484,0.031 L6.483,0.031 L6.345,0.031 L5.504,0.031 C5.022,10.147 5.847,22.37 0.734,26.763 L0.734,26.763 C0.401,27.05 0.49,28.125 0.426,28.507 L0.426,28.507 L20.457,28.507 C20.394,28.125 20.393,27.05 20.06,26.763 L20.06,26.763 C14.947,22.37 15.772,10.147 15.291,0.031 L15.291,0.031 L14.449,0.031 Z" id="path-4"></path>
        <linearGradient x1="48.63836%" y1="80.4041628%" x2="52.2719555%" y2="-2.57273669%" id="linearGradient-6">
            <stop stop-color="#FFBF44" offset="0%"></stop>
            <stop stop-color="#E96200" offset="100%"></stop>
        </linearGradient>
        <path d="M14.786,0.37 C12.987,0.37 11.169,0.825 9.448,1.674 L9.448,1.674 C7.533,2.62 5.74,4.072 4.247,5.939 L4.247,5.939 C2.768,7.789 1.586,10.043 0.88,12.608 L0.88,12.608 C-1.074,19.71 0.578,29.212 9.759,38.944 L9.759,38.944 C13.11,42.497 19.112,46.875 23.627,50.169 L23.627,50.169 C25.144,51.275 26.501,52.265 27.266,52.85 L27.266,52.85 C27.481,53.016 27.757,53.221 28.044,53.434 L28.044,53.434 C29.573,54.573 31.532,56.033 32.119,57.896 L32.119,57.896 C32.405,58.803 32.029,60.947 31.46,62.055 L31.46,62.055 C30.745,63.452 31.2,65.219 32.474,66.002 L32.474,66.002 C33.749,66.785 35.361,66.287 36.075,64.89 L36.075,64.89 C40.185,56.881 34.942,51.582 31.005,48.647 L31.005,48.647 C30.771,48.474 30.546,48.306 30.288,48.109 L30.288,48.109 C29.082,47.187 27.885,46.314 26.545,45.338 L26.545,45.338 C22.172,42.146 16.358,37.905 13.422,34.794 L13.422,34.794 C5.953,26.874 4.495,19.556 5.951,14.264 L5.951,14.264 C6.432,12.516 7.228,10.991 8.221,9.751 L8.221,9.751 C9.199,8.528 10.371,7.578 11.621,6.961 L11.621,6.961 C14.127,5.723 16.942,5.903 18.937,8.074 L18.937,8.074 C19.794,9.006 20.223,9.963 20.352,10.847 L20.352,10.847 C20.447,11.491 20.389,12.108 20.23,12.649 L20.23,12.649 C20.082,13.151 19.854,13.571 19.589,13.864 L19.589,13.864 C19.447,14.021 19.339,14.114 19.287,14.124 L19.287,14.124 C17.846,14.374 16.865,15.857 17.093,17.435 L17.093,17.435 C17.322,19.015 18.675,20.091 20.115,19.841 L20.115,19.841 C21.303,19.63 22.422,18.955 23.336,17.947 L23.336,17.947 C24.165,17.031 24.851,15.811 25.26,14.418 L25.26,14.418 C25.658,13.067 25.801,11.531 25.568,9.94 L25.568,9.94 C25.272,7.927 24.387,5.843 22.663,3.968 L22.663,3.968 C20.388,1.493 17.613,0.37 14.789,0.37 L14.789,0.37 C14.788,0.37 14.787,0.37 14.786,0.37" id="path-7"></path>
        <linearGradient x1="49.3215844%" y1="64.9544502%" x2="54.8266194%" y2="-1.13154531%" id="linearGradient-9">
            <stop stop-color="#FFBF44" offset="0%"></stop>
            <stop stop-color="#E96200" offset="100%"></stop>
        </linearGradient>
        <path d="M15.152,3.968 C13.427,5.843 12.542,7.927 12.248,9.94 L12.248,9.94 C12.013,11.531 12.157,13.067 12.554,14.418 L12.554,14.418 C12.964,15.811 13.65,17.031 14.48,17.947 L14.48,17.947 C15.393,18.955 16.511,19.63 17.7,19.841 L17.7,19.841 C19.14,20.091 20.493,19.015 20.722,17.435 L20.722,17.435 C20.951,15.857 19.968,14.374 18.528,14.124 L18.528,14.124 C18.476,14.114 18.368,14.021 18.225,13.864 L18.225,13.864 C17.96,13.571 17.731,13.151 17.585,12.649 L17.585,12.649 C17.425,12.108 17.369,11.491 17.463,10.847 L17.463,10.847 C17.592,9.963 18.021,9.006 18.877,8.074 L18.877,8.074 C20.873,5.903 23.687,5.723 26.194,6.961 L26.194,6.961 C27.443,7.578 28.615,8.528 29.594,9.751 L29.594,9.751 C30.586,10.991 31.383,12.516 31.863,14.264 L31.863,14.264 C33.319,19.556 31.861,26.874 24.392,34.794 L24.392,34.794 C21.457,37.905 15.642,42.146 11.268,45.338 L11.268,45.338 C9.93,46.314 8.732,47.187 7.526,48.109 L7.526,48.109 C7.269,48.306 7.043,48.474 6.811,48.647 L6.811,48.647 C2.873,51.582 -2.224,56.754 1.886,64.763 L1.886,64.763 C2.6,66.16 4.213,66.657 5.488,65.875 L5.488,65.875 C6.762,65.092 7.216,63.324 6.501,61.928 L6.501,61.928 C6.04,61.029 5.444,59.186 5.57,58.422 L5.57,58.422 C5.92,56.303 8.102,54.677 9.771,53.434 L9.771,53.434 C10.058,53.221 10.333,53.016 10.548,52.85 L10.548,52.85 C11.313,52.265 12.671,51.275 14.188,50.169 L14.188,50.169 C18.702,46.875 24.705,42.497 28.056,38.944 L28.056,38.944 C37.236,29.212 38.889,19.71 36.935,12.608 L36.935,12.608 C36.229,10.043 35.047,7.789 33.569,5.939 L33.569,5.939 C32.075,4.072 30.282,2.62 28.367,1.674 L28.367,1.674 C26.647,0.825 24.828,0.369999333 23.03,0.369999333 L23.03,0.369999333 C20.204,0.369 17.427,1.492 15.152,3.968" id="path-10"></path>
        <linearGradient x1="50.6516496%" y1="64.929819%" x2="41.2073528%" y2="-51.6385878%" id="linearGradient-12">
            <stop stop-color="#FFBF44" offset="0%"></stop>
            <stop stop-color="#E96200" offset="100%"></stop>
        </linearGradient>
        <path d="M1.741,0.306 C1.215,0.306 0.785,0.736 0.785,1.262 L0.785,1.262 L0.785,2.221 C0.785,40.919 16.733,72.29 36.408,72.29 L36.408,72.29 C56.082,72.29 72.03,40.919 72.03,2.221 L72.03,2.221 L72.021,2.221 L72.021,1.262 C72.021,0.736 71.59,0.306 71.063,0.306 L71.063,0.306 L1.741,0.306 Z" id="path-13"></path>
        <linearGradient x1="49.8754232%" y1="72.1714498%" x2="50.2970462%" y2="-3.16044288%" id="linearGradient-15">
            <stop stop-color="#FFBF44" offset="0%"></stop>
            <stop stop-color="#E96200" offset="100%"></stop>
        </linearGradient>
        <path d="M32.917,0.306 C32.602,23.084 24.907,62.276 0.1,70.369 L0.1,70.369 C2.765,71.622 5.547,72.29 8.408,72.29 L8.408,72.29 C28.082,72.29 44.03,40.919 44.03,2.221 L44.03,2.221 L44.021,2.221 L44.021,1.262 C44.021,0.736 43.59,0.306 43.063,0.306 L43.063,0.306 L32.917,0.306 Z" id="path-16"></path>
        <linearGradient x1="48.7981313%" y1="64.8316022%" x2="58.2677006%" y2="-52.0612699%" id="linearGradient-18">
            <stop stop-color="#FFBF44" offset="0%"></stop>
            <stop stop-color="#E96200" offset="100%"></stop>
        </linearGradient>
        <polygon id="path-19" points="14.927 14.421 0.231 14.391 12.137 23.007 7.57 36.972 19.441 28.312 31.311 36.972 26.744 23.007 38.649 14.391 23.954 14.421 19.441 0.437"></polygon>
        <linearGradient x1="53.5695653%" y1="84.1390302%" x2="41.1226212%" y2="-34.9115986%" id="linearGradient-21">
            <stop stop-color="#030000" offset="0%"></stop>
            <stop stop-color="#020000" offset="100%"></stop>
        </linearGradient>
        <polygon id="path-22" points="0 166 217.309 166 217.309 0.989 0 0.989"></polygon>
        <path d="M5.439,0.605 C2.98,0.605 0.968,2.618 0.968,5.077 L0.968,5.077 L0.968,15.255 L51.915,15.255 L51.915,5.077 C51.915,2.618 49.904,0.605 47.444,0.605 L47.444,0.605 L5.439,0.605 Z" id="path-24"></path>
        <linearGradient x1="49.8894041%" y1="52.5229251%" x2="50.3587479%" y2="41.8444063%" id="linearGradient-26">
            <stop stop-color="#FFBF44" offset="0%"></stop>
            <stop stop-color="#E96200" offset="100%"></stop>
        </linearGradient>
        <polygon id="path-27" points="26.627 0.933 20.272 23.396 0.065 33.93 19.465 46.916 23.238 69.389 41.584 54.951 64.124 58.307 56.06 36.398 66.218 15.999 42.89 16.896 26.628 0.933"></polygon>
        <linearGradient x1="68.6750596%" y1="109.270339%" x2="45.7241701%" y2="18.6359555%" id="linearGradient-29">
            <stop stop-color="#FFBF44" offset="0%"></stop>
            <stop stop-color="#E96200" offset="100%"></stop>
        </linearGradient>
    </defs>
    <g id="BOC-|-BOP" stroke="none" stroke-width="1" fill="none" fill-rule="evenodd">
        <g id="w_i_BOP" transform="translate(-492.000000, -199.000000)">
            <g id="Paralax-1" transform="translate(0.000000, 60.000000)">
                <g id="Aman-Copy" transform="translate(493.000000, 140.000000)">
                    <g id="img_BOP_flexible-2">
                        <g id="img_BOP_flexible">
                            <g id="Group-49" transform="translate(81.000000, 29.000000)">
                                <path d="M208.8244,69.6163 C212.9614,40.4523 185.5914,12.9173 162.9354,14.4883 C140.2804,16.0593 55.6284,37.4643 45.1544,90.2823 C37.7764,127.4903 101.5854,161.2443 131.5294,154.1053 C161.4724,146.9673 203.6304,106.2373 208.8244,69.6163" id="Fill-1" fill="#E3EEFF"></path>
                                <g id="Group-5" transform="translate(4.000000, 15.011000)">
                                    <mask id="mask-2" fill="white">
                                        <use xlink:href="#path-1"></use>
                                    </mask>
                                    <g id="Clip-4"></g>
                                    <path d="M34.121,37.613 C35.922,40.358 37.71,43.063 39.485,45.731 L39.485,45.731 C31.669,39.275 18.874,33.586 0.785,40.531 L0.785,40.531 L0.785,40.531 C17.988,54.516 25.705,60.482 47.025,56.945 L47.025,56.945 C48.751,59.484 50.461,61.985 52.158,64.446 L52.158,64.446 C42.882,60.429 25.056,56.492 8.308,74.19 L8.308,74.19 C29.368,79.258 38.951,81.333 55.908,69.861 L55.908,69.861 C60.523,76.489 65.022,82.825 69.393,88.872 L69.393,88.872 C58.623,82.777 38.321,76.232 16.149,94.466 L16.149,94.466 C40.927,103.81 52.093,107.722 74.63,96.063 L74.63,96.063 C78.031,100.7 81.343,105.15 84.566,109.419 L84.566,109.419 C74.446,106.005 50.352,102.27 26.879,131.395 L26.879,131.395 C53.384,132.931 65.138,133.297 87.526,113.323 L87.526,113.323 C94.933,123.05 101.824,131.774 108.106,139.508 L108.106,139.508 L108.112,139.508 L113.058,138.606 C107.917,132.311 102.348,125.324 96.4,117.639 L96.4,117.639 C122.338,102.338 125.55,91.024 132.146,65.268 L132.146,65.268 C96.598,79.048 93.383,103.802 93.716,114.156 L93.716,114.156 C90.833,110.405 87.869,106.492 84.825,102.422 L84.825,102.422 C104.104,83.753 103.786,72 102.363,44.925 L102.363,44.925 C74.588,62.899 78.923,88.499 82.135,98.809 L82.135,98.809 C77.167,92.114 72.002,85.009 66.664,77.49 L66.664,77.49 C83.087,64.677 84.025,54.942 85.594,33.167 L85.594,33.167 C63.363,43.895 61.956,62.411 63.053,72.379 L63.053,72.379 C60.904,69.323 58.726,66.202 56.527,63.012 L56.527,63.012 C66.606,43.508 63.272,34.359 55.115,13.588 L55.115,13.588 C43.952,27.536 44.392,40.455 47.491,49.762 L47.491,49.762 C44.128,44.768 40.713,39.63 37.251,34.346 L37.251,34.346 C36.211,25.167 30.899,5.048 4.522,0.436 L4.522,0.436 C11.887,20.693 15.449,29.841 34.121,37.613" id="Fill-3" fill="url(#linearGradient-3)" mask="url(#mask-2)"></path>
                                </g>
                                <g id="Group-8" transform="translate(117.000000, 112.011000)">
                                    <mask id="mask-5" fill="white">
                                        <use xlink:href="#path-4"></use>
                                    </mask>
                                    <g id="Clip-7"></g>
                                    <path d="M14.449,0.031 L14.312,0.031 L14.31,0.031 L14.173,0.031 L14.171,0.031 L14.033,0.031 L14.029,0.031 L13.892,0.031 L13.891,0.031 L13.753,0.031 L13.751,0.031 L13.613,0.031 L13.611,0.031 L13.474,0.031 L13.471,0.031 L13.334,0.031 L13.332,0.031 L13.195,0.031 L13.191,0.031 L13.054,0.031 L13.052,0.031 L12.914,0.031 L12.911,0.031 L12.775,0.031 L12.773,0.031 L12.635,0.031 L12.633,0.031 L12.496,0.031 L12.492,0.031 L12.356,0.031 L12.352,0.031 L12.216,0.031 L12.213,0.031 L12.075,0.031 L12.074,0.031 L11.936,0.031 L11.934,0.031 L11.797,0.031 L11.794,0.031 L11.657,0.031 L11.654,0.031 L11.516,0.031 L11.515,0.031 L11.377,0.031 L11.374,0.031 L11.237,0.031 L11.235,0.031 L11.098,0.031 L11.095,0.031 L10.958,0.031 L10.956,0.031 L10.818,0.031 L10.815,0.031 L10.678,0.031 L10.676,0.031 L10.538,0.031 L10.535,0.031 L10.399,0.031 L10.396,0.031 L10.259,0.031 L10.256,0.031 L10.12,0.031 L10.116,0.031 L9.978,0.031 L9.977,0.031 L9.839,0.031 L9.837,0.031 L9.699,0.031 L9.698,0.031 L9.561,0.031 L9.557,0.031 L9.421,0.031 L9.418,0.031 L9.281,0.031 L9.277,0.031 L9.14,0.031 L9.138,0.031 L9.001,0.031 L8.998,0.031 L8.861,0.031 L8.859,0.031 L8.721,0.031 L8.719,0.031 L8.581,0.031 L8.58,0.031 L8.442,0.031 L8.439,0.031 L8.302,0.031 L8.299,0.031 L8.162,0.031 L8.16,0.031 L8.023,0.031 L8.02,0.031 L7.883,0.031 L7.88,0.031 L7.743,0.031 L7.74,0.031 L7.604,0.031 L7.601,0.031 L7.463,0.031 L7.461,0.031 L7.323,0.031 L7.321,0.031 L7.184,0.031 L7.181,0.031 L7.044,0.031 L7.042,0.031 L6.905,0.031 L6.901,0.031 L6.765,0.031 L6.762,0.031 L6.625,0.031 L6.622,0.031 L6.484,0.031 L6.483,0.031 L6.345,0.031 L5.504,0.031 C5.022,10.147 5.847,22.37 0.734,26.763 L0.734,26.763 C0.401,27.05 0.49,28.125 0.426,28.507 L0.426,28.507 L20.457,28.507 C20.394,28.125 20.393,27.05 20.06,26.763 L20.06,26.763 C14.947,22.37 15.772,10.147 15.291,0.031 L15.291,0.031 L14.449,0.031 Z" id="Fill-6" fill="url(#linearGradient-6)" mask="url(#mask-5)"></path>
                                </g>
                                <path d="M131.4494,112.0421 L131.3114,112.0421 L131.3094,112.0421 L131.1734,112.0421 L131.1704,112.0421 L131.0324,112.0421 L131.0294,112.0421 L130.8924,112.0421 L130.8904,112.0421 L130.7534,112.0421 L130.7504,112.0421 L130.6134,112.0421 L130.6104,112.0421 L130.4734,112.0421 L130.4704,112.0421 L130.3344,112.0421 L130.3314,112.0421 L130.1944,112.0421 L130.1914,112.0421 L130.0544,112.0421 L130.0524,112.0421 L129.9144,112.0421 L129.9114,112.0421 L129.7744,112.0421 L129.7724,112.0421 L129.6354,112.0421 L129.6334,112.0421 L129.4954,112.0421 L129.4924,112.0421 L129.3554,112.0421 L129.3524,112.0421 L129.2154,112.0421 L129.2134,112.0421 L129.0754,112.0421 L129.0734,112.0421 L128.9354,112.0421 L128.9334,112.0421 L128.7974,112.0421 L128.7944,112.0421 L128.6564,112.0421 L128.6544,112.0421 L128.5164,112.0421 L128.5144,112.0421 L128.3774,112.0421 L128.3744,112.0421 L128.2374,112.0421 L128.2344,112.0421 L128.0974,112.0421 L128.0954,112.0421 L127.9574,112.0421 L127.9554,112.0421 L127.8174,112.0421 L127.8154,112.0421 L127.6784,112.0421 L127.6764,112.0421 L127.5384,112.0421 L127.5354,112.0421 L127.3984,112.0421 L127.3954,112.0421 L127.2594,112.0421 L127.2564,112.0421 L127.1194,112.0421 L127.1164,112.0421 L126.9794,112.0421 L126.9764,112.0421 L126.8394,112.0421 L126.8374,112.0421 L126.6994,112.0421 L126.6974,112.0421 L126.5604,112.0421 L126.5564,112.0421 L126.4214,112.0421 L126.4174,112.0421 L126.2804,112.0421 L126.2774,112.0421 L126.1404,112.0421 L126.1374,112.0421 L126.0014,112.0421 L125.9984,112.0421 L125.8614,112.0421 L125.8584,112.0421 L125.7204,112.0421 L125.7194,112.0421 L125.5814,112.0421 L125.5794,112.0421 L125.4414,112.0421 L125.4394,112.0421 L125.3024,112.0421 L125.2994,112.0421 L125.1624,112.0421 L125.1604,112.0421 L125.0224,112.0421 L125.0194,112.0421 L124.8834,112.0421 L124.8804,112.0421 L124.7434,112.0421 L124.7404,112.0421 L124.6034,112.0421 L124.6004,112.0421 L124.4634,112.0421 L124.4614,112.0421 L124.3234,112.0421 L124.3204,112.0421 L124.1834,112.0421 L124.1804,112.0421 L124.0444,112.0421 L124.0414,112.0421 L123.9044,112.0421 L123.9014,112.0421 L123.7644,112.0421 L123.7624,112.0421 L123.6254,112.0421 L123.6224,112.0421 L123.4844,112.0421 L123.4824,112.0421 L123.3454,112.0421 L122.5354,112.0421 L122.5024,112.0691 C122.4344,113.5041 122.3924,114.9801 122.3564,116.4701 C123.1514,117.6371 124.4594,118.7961 126.6064,119.3331 C128.6904,119.8541 130.7754,119.8611 132.5154,119.6861 C132.4484,117.1081 132.4084,114.5131 132.2914,112.0421 L131.4494,112.0421 Z" id="Fill-9" fill="#C65708"></path>
                                <g id="Group-13" transform="translate(68.000000, 36.011000)">
                                    <mask id="mask-8" fill="white">
                                        <use xlink:href="#path-7"></use>
                                    </mask>
                                    <g id="Clip-12"></g>
                                    <path d="M14.786,0.37 C12.987,0.37 11.169,0.825 9.448,1.674 L9.448,1.674 C7.533,2.62 5.74,4.072 4.247,5.939 L4.247,5.939 C2.768,7.789 1.586,10.043 0.88,12.608 L0.88,12.608 C-1.074,19.71 0.578,29.212 9.759,38.944 L9.759,38.944 C13.11,42.497 19.112,46.875 23.627,50.169 L23.627,50.169 C25.144,51.275 26.501,52.265 27.266,52.85 L27.266,52.85 C27.481,53.016 27.757,53.221 28.044,53.434 L28.044,53.434 C29.573,54.573 31.532,56.033 32.119,57.896 L32.119,57.896 C32.405,58.803 32.029,60.947 31.46,62.055 L31.46,62.055 C30.745,63.452 31.2,65.219 32.474,66.002 L32.474,66.002 C33.749,66.785 35.361,66.287 36.075,64.89 L36.075,64.89 C40.185,56.881 34.942,51.582 31.005,48.647 L31.005,48.647 C30.771,48.474 30.546,48.306 30.288,48.109 L30.288,48.109 C29.082,47.187 27.885,46.314 26.545,45.338 L26.545,45.338 C22.172,42.146 16.358,37.905 13.422,34.794 L13.422,34.794 C5.953,26.874 4.495,19.556 5.951,14.264 L5.951,14.264 C6.432,12.516 7.228,10.991 8.221,9.751 L8.221,9.751 C9.199,8.528 10.371,7.578 11.621,6.961 L11.621,6.961 C14.127,5.723 16.942,5.903 18.937,8.074 L18.937,8.074 C19.794,9.006 20.223,9.963 20.352,10.847 L20.352,10.847 C20.447,11.491 20.389,12.108 20.23,12.649 L20.23,12.649 C20.082,13.151 19.854,13.571 19.589,13.864 L19.589,13.864 C19.447,14.021 19.339,14.114 19.287,14.124 L19.287,14.124 C17.846,14.374 16.865,15.857 17.093,17.435 L17.093,17.435 C17.322,19.015 18.675,20.091 20.115,19.841 L20.115,19.841 C21.303,19.63 22.422,18.955 23.336,17.947 L23.336,17.947 C24.165,17.031 24.851,15.811 25.26,14.418 L25.26,14.418 C25.658,13.067 25.801,11.531 25.568,9.94 L25.568,9.94 C25.272,7.927 24.387,5.843 22.663,3.968 L22.663,3.968 C20.388,1.493 17.613,0.37 14.789,0.37 L14.789,0.37 C14.788,0.37 14.787,0.37 14.786,0.37" id="Fill-11" fill="url(#linearGradient-9)" mask="url(#mask-8)"></path>
                                </g>
                                <g id="Group-16" transform="translate(149.000000, 36.011000)">
                                    <mask id="mask-11" fill="white">
                                        <use xlink:href="#path-10"></use>
                                    </mask>
                                    <g id="Clip-15"></g>
                                    <path d="M15.152,3.968 C13.427,5.843 12.542,7.927 12.248,9.94 L12.248,9.94 C12.013,11.531 12.157,13.067 12.554,14.418 L12.554,14.418 C12.964,15.811 13.65,17.031 14.48,17.947 L14.48,17.947 C15.393,18.955 16.511,19.63 17.7,19.841 L17.7,19.841 C19.14,20.091 20.493,19.015 20.722,17.435 L20.722,17.435 C20.951,15.857 19.968,14.374 18.528,14.124 L18.528,14.124 C18.476,14.114 18.368,14.021 18.225,13.864 L18.225,13.864 C17.96,13.571 17.731,13.151 17.585,12.649 L17.585,12.649 C17.425,12.108 17.369,11.491 17.463,10.847 L17.463,10.847 C17.592,9.963 18.021,9.006 18.877,8.074 L18.877,8.074 C20.873,5.903 23.687,5.723 26.194,6.961 L26.194,6.961 C27.443,7.578 28.615,8.528 29.594,9.751 L29.594,9.751 C30.586,10.991 31.383,12.516 31.863,14.264 L31.863,14.264 C33.319,19.556 31.861,26.874 24.392,34.794 L24.392,34.794 C21.457,37.905 15.642,42.146 11.268,45.338 L11.268,45.338 C9.93,46.314 8.732,47.187 7.526,48.109 L7.526,48.109 C7.269,48.306 7.043,48.474 6.811,48.647 L6.811,48.647 C2.873,51.582 -2.224,56.754 1.886,64.763 L1.886,64.763 C2.6,66.16 4.213,66.657 5.488,65.875 L5.488,65.875 C6.762,65.092 7.216,63.324 6.501,61.928 L6.501,61.928 C6.04,61.029 5.444,59.186 5.57,58.422 L5.57,58.422 C5.92,56.303 8.102,54.677 9.771,53.434 L9.771,53.434 C10.058,53.221 10.333,53.016 10.548,52.85 L10.548,52.85 C11.313,52.265 12.671,51.275 14.188,50.169 L14.188,50.169 C18.702,46.875 24.705,42.497 28.056,38.944 L28.056,38.944 C37.236,29.212 38.889,19.71 36.935,12.608 L36.935,12.608 C36.229,10.043 35.047,7.789 33.569,5.939 L33.569,5.939 C32.075,4.072 30.282,2.62 28.367,1.674 L28.367,1.674 C26.647,0.825 24.828,0.369999333 23.03,0.369999333 L23.03,0.369999333 C20.204,0.369 17.427,1.492 15.152,3.968" id="Fill-14" fill="url(#linearGradient-12)" mask="url(#mask-11)"></path>
                                </g>
                                <g id="Group-19" transform="translate(91.000000, 42.011000)">
                                    <mask id="mask-14" fill="white">
                                        <use xlink:href="#path-13"></use>
                                    </mask>
                                    <g id="Clip-18"></g>
                                    <path d="M1.741,0.306 C1.215,0.306 0.785,0.736 0.785,1.262 L0.785,1.262 L0.785,2.221 C0.785,40.919 16.733,72.29 36.408,72.29 L36.408,72.29 C56.082,72.29 72.03,40.919 72.03,2.221 L72.03,2.221 L72.021,2.221 L72.021,1.262 C72.021,0.736 71.59,0.306 71.063,0.306 L71.063,0.306 L1.741,0.306 Z" id="Fill-17" fill="url(#linearGradient-15)" mask="url(#mask-14)"></path>
                                </g>
                                <g id="Group-22" transform="translate(119.000000, 42.011000)">
                                    <mask id="mask-17" fill="white">
                                        <use xlink:href="#path-16"></use>
                                    </mask>
                                    <g id="Clip-21"></g>
                                    <path d="M32.917,0.306 C32.602,23.084 24.907,62.276 0.1,70.369 L0.1,70.369 C2.765,71.622 5.547,72.29 8.408,72.29 L8.408,72.29 C28.082,72.29 44.03,40.919 44.03,2.221 L44.03,2.221 L44.021,2.221 L44.021,1.262 C44.021,0.736 43.59,0.306 43.063,0.306 L43.063,0.306 L32.917,0.306 Z" id="Fill-20" fill="url(#linearGradient-18)" mask="url(#mask-17)"></path>
                                </g>
                                <g id="Group-27" transform="translate(106.000000, 140.011000)" fill="#C65708">
                                    <path d="M2.4299,0.5077 L40.4529,0.5077 C41.5799,0.5077 42.5019,1.4297 42.5019,2.5567 L42.5019,4.6067 L0.3809,4.6067 L0.3809,2.5567 C0.3809,1.4297 1.3029,0.5077 2.4299,0.5077" id="Fill-23"></path>
                                    <path d="M14.386,0.5077 L40.453,0.5077 C41.579,0.5077 42.502,1.4307 42.502,2.5567 L42.502,4.6067 L25.182,4.6067 C19.505,3.6117 14.386,0.5077 14.386,0.5077" id="Fill-25"></path>
                                </g>
                                <g id="Group-30" transform="translate(108.000000, 48.011000)">
                                    <mask id="mask-20" fill="white">
                                        <use xlink:href="#path-19"></use>
                                    </mask>
                                    <g id="Clip-29"></g>
                                    <polygon id="Fill-28" fill="url(#linearGradient-21)" mask="url(#mask-20)" points="14.927 14.421 0.231 14.391 12.137 23.007 7.57 36.972 19.441 28.312 31.311 36.972 26.744 23.007 38.649 14.391 23.954 14.421 19.441 0.437"></polygon>
                                </g>
                                <g id="Group-40" transform="translate(0.000000, 0.011000)">
                                    <path d="M116.2287,138.3866 L138.6547,138.3866 C139.2387,138.3866 139.7147,138.8646 139.7147,139.4476 L139.7147,140.5076 L115.1677,140.5076 L115.1677,139.4476 C115.1677,138.8646 115.6457,138.3866 116.2287,138.3866" id="Fill-31" fill="#EA6200"></path>
                                    <mask id="mask-23" fill="white">
                                        <use xlink:href="#path-22"></use>
                                    </mask>
                                    <g id="Clip-34"></g>
                                    <polygon id="Fill-33" fill="#F59727" mask="url(#mask-23)" points="89.905 40.891 163.968 40.891 163.968 34.302 89.905 34.302"></polygon>
                                    <polygon id="Fill-35" fill="#FCB53D" mask="url(#mask-23)" points="89.905 40.89 99.291 40.89 99.291 34.301 89.905 34.301"></polygon>
                                    <polygon id="Fill-36" fill="#FDBB41" mask="url(#mask-23)" points="96.728 40.848 106.226 40.848 106.226 34.26 96.728 34.26"></polygon>
                                    <polygon id="Fill-37" fill="#FCB53D" mask="url(#mask-23)" points="106.226 40.891 151.929 40.891 151.929 34.302 106.226 34.302"></polygon>
                                    <polygon id="Fill-38" fill="#F59727" mask="url(#mask-23)" points="151.929 40.891 157.298 40.891 157.298 34.302 151.929 34.302"></polygon>
                                    <polygon id="Fill-39" fill="#EA6200" mask="url(#mask-23)" points="90.797 42.305 163.011 42.305 163.011 40.89 90.797 40.89"></polygon>
                                </g>
                                <g id="Group-43" transform="translate(101.000000, 144.011000)">
                                    <mask id="mask-25" fill="white">
                                        <use xlink:href="#path-24"></use>
                                    </mask>
                                    <g id="Clip-42"></g>
                                    <path d="M5.439,0.605 C2.98,0.605 0.968,2.618 0.968,5.077 L0.968,5.077 L0.968,15.255 L51.915,15.255 L51.915,5.077 C51.915,2.618 49.904,0.605 47.444,0.605 L47.444,0.605 L5.439,0.605 Z" id="Fill-41" fill="url(#linearGradient-26)" mask="url(#mask-25)"></path>
                                </g>
                                <polygon id="Fill-44" fill="#DD6909" points="171.4778 87.9728 187.7398 103.9358 208.5098 103.1368 211.0678 103.0388 200.9118 123.4378 208.0888 142.9458 208.9728 145.3478 205.1238 146.3188 186.4338 141.9918 170.0988 154.8458 168.0878 156.4288 164.2388 157.3998 164.3148 133.9558 147.0408 122.3928 144.9148 120.9698 165.1218 110.4358 167.6268 88.9438"></polygon>
                                <g id="Group-48" transform="translate(141.000000, 88.011000)">
                                    <mask id="mask-28" fill="white">
                                        <use xlink:href="#path-27"></use>
                                    </mask>
                                    <g id="Clip-47"></g>
                                    <polygon id="Fill-46" fill="url(#linearGradient-29)" mask="url(#mask-28)" points="26.627 0.933 20.272 23.396 0.065 33.93 19.465 46.916 23.238 69.389 41.584 54.951 64.124 58.307 56.06 36.398 66.218 15.999 42.89 16.896 26.628 0.933"></polygon>
                                </g>
                            </g>
                        </g>
                    </g>
                </g>
            </g>
        </g>
    </g>
</svg>