<?xml version="1.0" encoding="UTF-8"?>
<svg width="48px" height="48px" viewBox="0 0 48 48" version="1.1" xmlns="http://www.w3.org/2000/svg" xmlns:xlink="http://www.w3.org/1999/xlink">
    <!-- Generator: sketchtool 62 (101010) - https://sketch.com -->
    <title>3AEF02D9-A466-40F3-A0CF-B9C1147AC863</title>
    <desc>Created with sketchtool.</desc>
    <g id="BOC-|-BOP" stroke="none" stroke-width="1" fill="none" fill-rule="evenodd">
        <g id="w_i_BOC_Drafting_CategorySelection" transform="translate(-659.000000, -552.000000)" fill="#46B29E">
            <g id="Paralax-1" transform="translate(0.000000, 60.000000)">
                <g id="ic_swipe_arrowUp-2" transform="translate(659.000000, 492.000000)">
                    <g id="ic_swipe_arrowUp" transform="translate(24.000000, 24.000000) scale(1, -1) translate(-24.000000, -24.000000) ">
                        <path d="M24.2346667,0.426666667 C11.2743845,0.426666667 0.768,10.9330512 0.768,23.8933333 C0.768,36.8536155 11.2743845,47.36 24.2346667,47.36 C37.1949488,47.36 47.7013333,36.8536155 47.7013333,23.8933333 C47.7013333,10.9330512 37.1949488,0.426666667 24.2346667,0.426666667 L24.2346667,0.426666667 Z M24.2346667,44.16 C13.0416957,44.16 3.968,35.0863043 3.968,23.8933333 C3.968,12.7003624 13.0416957,3.62666667 24.2346667,3.62666667 C35.4276376,3.62666667 44.5013333,12.7003624 44.5013333,23.8933333 C44.5013333,29.2683875 42.3661014,34.4232935 38.5653641,38.2240308 C34.7646268,42.024768 29.6097209,44.16 24.2346667,44.16 Z" id="Shape"></path>
                        <path d="M25.9306667,17.4933333 L25.9306667,17.4933333 L25.9306667,17.4933333 C25.8601388,17.4407375 25.7851927,17.3943423 25.7066667,17.3546667 C25.6236387,17.2891015 25.5343126,17.2319328 25.44,17.184 C25.3428,17.1528644 25.2427567,17.1314265 25.1413333,17.12 C24.9474091,17.0557265 24.7379242,17.0557265 24.544,17.12 C24.4425766,17.1314265 24.3425333,17.1528644 24.2453333,17.184 C24.1510207,17.2319328 24.0616946,17.2891015 23.9786667,17.3546667 C23.9001406,17.3943423 23.8251945,17.4407375 23.7546667,17.4933333 L23.7546667,17.4933333 L23.7546667,17.4933333 L15.7546667,26.0266667 C15.1641291,26.6735188 15.2034491,27.6749629 15.8428856,28.2735222 C16.4823221,28.8720815 17.4841787,28.8452548 18.0906667,28.2133333 L24.928,20.928 L31.7653333,28.2133333 C32.3718213,28.8452548 33.3736779,28.8720815 34.0131144,28.2735222 C34.6525509,27.6749629 34.6918709,26.6735188 34.1013333,26.0266667 L25.9306667,17.4933333 Z" id="Shape"></path>
                    </g>
                </g>
            </g>
        </g>
    </g>
</svg>