<?xml version="1.0" encoding="UTF-8"?>
<svg width="280px" height="699px" viewBox="0 0 280 699" version="1.1" xmlns="http://www.w3.org/2000/svg" xmlns:xlink="http://www.w3.org/1999/xlink">
    <!-- Generator: sketchtool 62 (101010) - https://sketch.com -->
    <title>E14CF797-0492-4FF6-9E92-E8B36669D50B</title>
    <desc>Created with sketchtool.</desc>
    <defs>
        <polygon id="path-1" points="0.372596588 0.620217322 23.203738 0.620217322 23.203738 25 0.372596588 25"></polygon>
        <polygon id="path-3" points="0.353338829 0.142866838 20.2292857 0.142866838 20.2292857 23.5550041 0.353338829 23.5550041"></polygon>
        <polygon id="path-5" points="0.000117791387 0.181991709 79.5292857 0.181991709 79.5292857 57.8571429 0.000117791387 57.8571429"></polygon>
        <polygon id="path-7" points="7.60110567e-05 0.365412215 82.9941379 0.365412215 82.9941379 60.7142857 7.60110567e-05 60.7142857"></polygon>
        <polygon id="path-9" points="0 0.368571429 69.7974792 0.368571429 69.7974792 66.4389065 0 66.4389065"></polygon>
        <polygon id="path-11" points="0.658214286 0.198785714 65.8503571 0.198785714 65.8503571 27.8571429 0.658214286 27.8571429"></polygon>
        <polygon id="path-13" points="0.0547195277 0.268571429 64.3766316 0.268571429 64.3766316 69.2857143 0.0547195277 69.2857143"></polygon>
        <polygon id="path-15" points="0.6675 0.417785714 8.05214286 0.417785714 8.05214286 7.80278571 0.6675 7.80278571"></polygon>
        <polygon id="path-17" points="0 0.282142857 70.2853814 0.282142857 70.2853814 65.7142857 0 65.7142857"></polygon>
        <polygon id="path-19" points="0.547357143 0.586642857 8.59428571 0.586642857 8.59428571 8.63307143 0.547357143 8.63307143"></polygon>
        <polygon id="path-21" points="0 0.563571429 72.5585469 0.563571429 72.5585469 63.1839099 0 63.1839099"></polygon>
        <polygon id="path-23" points="0.568382784 0.0993336054 66.8296794 0.0993336054 66.8296794 77.8571429 0.568382784 77.8571429"></polygon>
        <polygon id="path-25" points="0 0.4985 45.3547143 0.4985 45.3547143 60.5477857 0 60.5477857"></polygon>
        <polygon id="path-27" points="0 78.4721429 71.1157143 78.4721429 71.1157143 0.714285714 0 0.714285714"></polygon>
        <polygon id="path-29" points="0 0.105390992 72.9778571 0.105390992 72.9778571 62.6566139 0 62.6566139"></polygon>
        <path d="M1.59285714,0.919285714 C1.12071429,0.875 0.677142857,0.825 0.258571429,0.776428571 L0.258571429,0.776428571 L5.00357143,11.345 L4.06142857,0.702142857 C3.35785714,0.904285714 2.53571429,1.00857143 1.59285714,0.919285714" id="path-31"></path>
        <linearGradient x1="-9.74083697%" y1="50.0032168%" x2="99.9919479%" y2="50.0032168%" id="linearGradient-33">
            <stop stop-color="#C3CCE9" offset="0%"></stop>
            <stop stop-color="#9CAFDD" offset="100%"></stop>
        </linearGradient>
        <path d="M5.48571429,0.919285714 C4.28785714,1.03285714 3.28357143,0.835714286 2.47285714,0.520714286 L2.47285714,0.520714286 L0.54,11.345 L2.18857143,12.2078571 L9.58,0.484285714 C8.555,0.536428571 7.20214286,0.757142857 5.48571429,0.919285714" id="path-34"></path>
        <linearGradient x1="-0.00454725032%" y1="49.9972491%" x2="108.745642%" y2="49.9972491%" id="linearGradient-36">
            <stop stop-color="#C3CCE9" offset="0%"></stop>
            <stop stop-color="#9CAFDD" offset="100%"></stop>
        </linearGradient>
        <polygon id="path-37" points="0.563611141 0.630785714 46.5148174 0.630785714 46.5148174 50.7142857 0.563611141 50.7142857"></polygon>
        <polygon id="path-39" points="0.0724285714 0.625 5.776 0.625 5.776 8.42235714 0.0724285714 8.42235714"></polygon>
        <polygon id="path-41" points="0.217140197 0.467857143 47.7135714 0.467857143 47.7135714 47.7436293 0.217140197 47.7436293"></polygon>
    </defs>
    <g id="coming-soon-page" stroke="none" stroke-width="1" fill="none" fill-rule="evenodd">
        <g id="m_Coming-Soon-Page-with-Icon" transform="translate(-40.000000, -524.000000)">
            <g id="Image-icon-coming-soon-page-responsive-2" transform="translate(32.000000, 519.000000)">
                <g id="Image-icon-coming-soon-page-responsive">
                    <g id="Konsultasi-Kebugaran" transform="translate(170.000000, 576.000000)">
                        <text font-family="Rajdhani-SemiBold, Rajdhani" font-size="16" font-weight="500" line-spacing="24" letter-spacing="-0.00571428571" fill="#2E6B87">
                            <tspan x="36.2485714" y="99">Konsultasi </tspan>
                            <tspan x="34.7977143" y="123">Kebugaran</tspan>
                        </text>
                        <g id="ic_konsultasikebugaran-2" transform="translate(21.000000, 0.000000)">
                            <g id="ic_konsultasikebugaran">
                                <g id="Group-21" transform="translate(3.571429, 5.714286)">
                                    <path d="M83.0777143,57.7125 C95.052,49.1625 95.5477143,29.8832143 87.1498571,22.3060714 C78.752,14.7282143 41.7562857,-8.2425 19.0405714,6.17392857 C3.03842857,16.3289286 12.887,50.8046429 25.817,59.0789286 C38.747,67.3532143 68.0427143,68.4482143 83.0777143,57.7125" id="Fill-1" fill="#E3EEFF"></path>
                                    <path d="M72.6033571,56.9528571 C72.6033571,58.2592857 71.5462143,59.3192857 70.2383571,59.3192857 C68.9305,59.3192857 67.8712143,58.2592857 67.8712143,56.9528571 C67.8712143,55.6464286 68.9305,54.5864286 70.2383571,54.5864286 C71.5462143,54.5864286 72.6033571,55.6464286 72.6033571,56.9528571" id="Fill-3" fill="#FFD522"></path>
                                    <polygon id="Fill-5" fill="#FBB040" points="64.9736429 34.6146429 63.6686429 32.2275 62.3629286 34.6146429 59.9750714 35.9196429 62.3629286 37.2253571 63.6686429 39.6125 64.9736429 37.2253571 67.3600714 35.9196429"></polygon>
                                    <polygon id="Fill-7" fill="#70594F" points="43.8711429 59.2819286 15.4511429 41.2247857 19.6447143 34.6205 48.0668571 52.6769286"></polygon>
                                    <path d="M14.1345,44.8567143 C13.2702143,46.2202857 11.4480714,46.6274286 10.0845,45.7624286 L1.35878571,40.2167143 C-0.00335714286,39.3524286 -0.4105,37.5288571 0.4545,36.1667143 L8.69807143,23.1952857 C9.56164286,21.8324286 11.3823571,21.4252857 12.7480714,22.291 L21.4737857,27.8367143 C22.8359286,28.701 23.2423571,30.5245714 22.3759286,31.8867143 L14.1345,44.8567143 Z" id="Fill-9" fill="#CFAD55"></path>
                                    <g id="Group-13" transform="translate(35.714286, 44.142786)">
                                        <mask id="mask-2" fill="white">
                                            <use xlink:href="#path-1"></use>
                                        </mask>
                                        <g id="Clip-12"></g>
                                        <path d="M0.827428571,14.9508571 C-0.0375714286,16.313 0.368142857,18.1358571 1.731,19.0008571 L10.4588571,24.5444286 C11.821,25.4108571 13.6417143,25.0044286 14.5074286,23.6415714 L22.7481429,10.6701429 C23.6138571,9.30728571 23.2088571,7.48585714 21.8467143,6.61942857 L13.1195714,1.07442857 C11.7567143,0.209428571 9.93528571,0.617285714 9.06885714,1.98014286 L0.827428571,14.9508571 Z" id="Fill-11" fill="#CFAD55" mask="url(#mask-2)"></path>
                                    </g>
                                    <polygon id="Fill-14" fill="#70594F" points="82.4227143 16.6717143 49.9312857 25.5102857 47.877 17.9595714 80.3691429 9.12314286"></polygon>
                                    <path d="M51.729,28.929 C52.1532857,30.4861429 51.2261429,32.1054286 49.6697143,32.5304286 L39.6925714,35.244 C38.1354286,35.6675714 36.514,34.7418571 36.0911429,33.1811429 L32.0582857,18.3525714 C31.634,16.7961429 32.5597143,15.1761429 34.1168571,14.7511429 L44.0954286,12.0375714 C45.654,11.6147143 47.2732857,12.5418571 47.6961429,14.1004286 L51.729,28.929 Z" id="Fill-16" fill="#CFAD55"></path>
                                    <g id="Group-20" transform="translate(72.857143, 0.571357)">
                                        <mask id="mask-4" fill="white">
                                            <use xlink:href="#path-3"></use>
                                        </mask>
                                        <g id="Clip-19"></g>
                                        <path d="M4.4895,21.3905714 C4.91235714,22.9484286 6.53164286,23.8755714 8.08878571,23.4527143 L18.0666429,20.7384286 C19.6252143,20.3148571 20.5495,18.6948571 20.1273571,17.137 L16.0937857,2.30842857 C15.6702143,0.749857143 14.0502143,-0.177285714 12.4923571,0.244857143 L2.51664286,2.95914286 C0.9595,3.382 0.0323571429,5.00414286 0.455928571,6.56128571 L4.4895,21.3905714 Z" id="Fill-18" fill="#CFAD55" mask="url(#mask-4)"></path>
                                    </g>
                                </g>
                            </g>
                        </g>
                    </g>
                    <g id="Layanan-Jasa-Hukum" transform="translate(169.000000, 420.000000)">
                        <text font-family="Rajdhani-SemiBold, Rajdhani" font-size="16" font-weight="500" line-spacing="24" letter-spacing="-0.00571428571" fill="#2E6B87">
                            <tspan x="24.4582857" y="99">Layanan Jasa </tspan>
                            <tspan x="47.2062857" y="123">Hukum</tspan>
                        </text>
                        <g id="ic_layananjasahukum-2" transform="translate(20.000000, 0.000000)">
                            <g id="ic_layananjasahukum">
                                <g id="Group-26" transform="translate(10.000000, 7.857143)">
                                    <g id="Group-3" transform="translate(0.000000, 6.394143)">
                                        <mask id="mask-6" fill="white">
                                            <use xlink:href="#path-5"></use>
                                        </mask>
                                        <g id="Clip-2"></g>
                                        <path d="M78.7193571,11.708 C83.8779286,23.3901429 63.2900714,58.468 48.5272143,57.8494286 C33.7650714,57.2294286 -5.82421429,36.4772857 0.725071429,16.6444286 C7.27435714,-3.18771429 71.1522143,-5.42985714 78.7193571,11.708" id="Fill-1" fill="#C4DCFF" mask="url(#mask-6)"></path>
                                    </g>
                                    <path d="M23.1320714,14.3130714 C23.1320714,14.5052143 22.9763571,14.6609286 22.7842143,14.6609286 C22.5927857,14.6609286 22.4363571,14.5052143 22.4363571,14.3130714 C22.4363571,14.1209286 22.5927857,13.9659286 22.7842143,13.9659286 C22.9763571,13.9659286 23.1320714,14.1209286 23.1320714,14.3130714" id="Fill-4" fill="#65251A"></path>
                                    <path d="M22.7843571,34.8906429 L18.1686429,34.8906429 L22.7843571,16.1977857 L27.4000714,34.8906429 L22.7843571,34.8906429 Z M28.3215,35.2020714 L23.1822143,14.3899286 C23.1372143,14.2070714 22.9729286,14.0785 22.7843571,14.0785 C22.5957857,14.0785 22.4315,14.2070714 22.3865,14.3899286 L17.2472143,35.2020714 C17.2172143,35.3242143 17.2450714,35.4535 17.3222143,35.5527857 C17.4000714,35.6520714 17.5186429,35.7099286 17.6450714,35.7099286 L22.7843571,35.7099286 L27.9236429,35.7099286 C28.0500714,35.7099286 28.1686429,35.6520714 28.2465,35.5527857 C28.3243571,35.4535 28.3515,35.3242143 28.3215,35.2020714 L28.3215,35.2020714 Z" id="Fill-6" fill="#303030"></path>
                                    <path d="M29.0964286,34.8906429 L22.7842857,34.8906429 L16.4728571,34.8906429 C16.1164286,34.8906429 15.8464286,35.3520714 15.9114286,35.8535 C16.3657143,39.3606429 19.27,42.0656429 22.7842857,42.0656429 C26.2985714,42.0656429 29.2028571,39.3606429 29.6578571,35.8535 C29.7221429,35.3520714 29.4521429,34.8906429 29.0964286,34.8906429" id="Fill-8" fill="#F09800"></path>
                                    <path d="M29.1926429,34.1979286 L22.7840714,34.1979286 L16.3762143,34.1979286 C16.1855,34.1979286 16.0297857,34.3536429 16.0297857,34.5436429 C16.0297857,34.7343571 16.1855,34.8907857 16.3762143,34.8907857 L22.7840714,34.8907857 L29.1926429,34.8907857 C29.3833571,34.8907857 29.5390714,34.7343571 29.5390714,34.5436429 C29.5390714,34.3536429 29.3833571,34.1979286 29.1926429,34.1979286" id="Fill-10" fill="#65251A"></path>
                                    <path d="M59.5732143,14.3130714 C59.5732143,14.5052143 59.7289286,14.6609286 59.9210714,14.6609286 C60.1132143,14.6609286 60.2689286,14.5052143 60.2689286,14.3130714 C60.2689286,14.1209286 60.1132143,13.9659286 59.9210714,13.9659286 C59.7289286,13.9659286 59.5732143,14.1209286 59.5732143,14.3130714" id="Fill-12" fill="#65251A"></path>
                                    <path d="M59.9209286,34.8906429 L55.3052143,34.8906429 L59.9209286,16.1977857 L64.5366429,34.8906429 L59.9209286,34.8906429 Z M65.4580714,35.2020714 L60.3187857,14.3899286 C60.2737857,14.2070714 60.1095,14.0785 59.9209286,14.0785 C59.7323571,14.0785 59.5680714,14.2070714 59.5230714,14.3899286 L54.3837857,35.2020714 C54.3537857,35.3242143 54.3816429,35.4535 54.4587857,35.5527857 C54.5366429,35.6520714 54.6552143,35.7099286 54.7816429,35.7099286 L59.9209286,35.7099286 L65.0602143,35.7099286 C65.1866429,35.7099286 65.3052143,35.6520714 65.3830714,35.5527857 C65.4602143,35.4535 65.4880714,35.3242143 65.4580714,35.2020714 L65.4580714,35.2020714 Z" id="Fill-14" fill="#303030"></path>
                                    <path d="M66.2326429,34.8906429 L59.9212143,34.8906429 L53.6090714,34.8906429 C53.2533571,34.8906429 52.9826429,35.3520714 53.0476429,35.8535 C53.5026429,39.3606429 56.4062143,42.0656429 59.9212143,42.0656429 C63.4355,42.0656429 66.3390714,39.3606429 66.7940714,35.8535 C66.8590714,35.3520714 66.5890714,34.8906429 66.2326429,34.8906429" id="Fill-16" fill="#FFC200"></path>
                                    <path d="M66.3292143,34.1979286 L59.9206429,34.1979286 L53.5127857,34.1979286 C53.3220714,34.1979286 53.1663571,34.3536429 53.1663571,34.5436429 C53.1663571,34.7343571 53.3220714,34.8907857 53.5127857,34.8907857 L59.9206429,34.8907857 L66.3292143,34.8907857 C66.5199286,34.8907857 66.6756429,34.7343571 66.6756429,34.5436429 C66.6756429,34.3536429 66.5199286,34.1979286 66.3292143,34.1979286" id="Fill-18" fill="#65251A"></path>
                                    <path d="M42.8470714,19.8243571 L42.8470714,15.6900714 C43.4585,15.7272143 44.1585,15.8143571 44.9399286,15.9722143 C44.9656429,16.1465 44.9820714,16.3222143 44.9820714,16.5029286 C44.9820714,17.9765 44.1042143,19.2429286 42.8470714,19.8243571 M37.6492143,16.5029286 C37.6492143,16.3272143 37.6649286,16.1565 37.6885,15.9886429 C38.4792143,15.8243571 39.1885,15.7322143 39.8085,15.6929286 L39.8085,19.8365 C38.5385,19.2593571 37.6492143,17.9857857 37.6492143,16.5029286 M60.1970714,13.5722143 C60.1806429,13.5700714 60.1649286,13.5679286 60.1477857,13.5650714 C58.5049286,13.3450714 56.6477857,16.5600714 52.5756429,15.8450714 C49.6392143,15.3300714 46.0927857,13.3943571 43.1027857,12.7586429 C43.4470714,12.2236429 44.0156429,12.2322143 44.0156429,12.2322143 L45.5877857,12.2322143 C45.9149286,12.2322143 46.1806429,11.9665 46.1806429,11.6393571 C46.1806429,11.3122143 45.9149286,11.0465 45.5877857,11.0465 L44.1949286,11.0465 L42.8470714,4.92078571 L41.3156429,4.92078571 L41.3277857,4.92078571 L45.5756429,4.92078571 C45.9035,4.92078571 46.1685,4.65578571 46.1685,4.32792857 C46.1685,4.00078571 45.9035,3.73507143 45.5756429,3.73507143 L42.5085,3.73507143 C43.0370714,3.36292857 43.3835,2.7515 43.3835,2.05578571 C43.3835,0.920071429 42.4635,7.14285714e-05 41.3277857,7.14285714e-05 C40.1920714,7.14285714e-05 39.2713571,0.920071429 39.2713571,2.05578571 C39.2713571,2.7515 39.6185,3.36292857 40.1463571,3.73507143 L37.0563571,3.73507143 C36.7285,3.73507143 36.4627857,4.00078571 36.4627857,4.32792857 C36.4627857,4.65578571 36.7285,4.92078571 37.0563571,4.92078571 L39.8170714,4.92078571 L38.4363571,11.0465 L37.0677857,11.0465 C36.7406429,11.0465 36.4749286,11.3122143 36.4749286,11.6393571 C36.4749286,11.9665 36.7406429,12.2322143 37.0677857,12.2322143 L38.6463571,12.2322143 C38.6463571,12.2322143 39.2206429,12.2229286 39.5642143,12.7665 C36.5820714,13.4107857 33.0542143,15.3322143 30.1299286,15.8450714 C26.0577857,16.5600714 24.2006429,13.3450714 22.5570714,13.5650714 C22.5406429,13.5679286 22.5242143,13.5700714 22.5085,13.5722143 C21.6477857,13.7036429 21.7006429,14.9515 22.5685,15.0143571 C23.3206429,15.0686429 24.1592143,15.4100714 24.9806429,16.1972143 C27.6006429,18.7057857 30.8392143,18.1807857 35.3642143,16.6257857 C35.7442143,16.4957857 36.1077857,16.3857857 36.4627857,16.2857857 C36.4592143,16.3586429 36.4413571,16.4286429 36.4413571,16.5029286 C36.4413571,18.6607857 37.8613571,20.4750714 39.8085,21.1143571 L39.8085,30.3143571 L39.8085,32.6129286 L39.8085,32.6357857 C39.8013571,32.6450714 39.7927857,32.6572143 39.7813571,32.6736429 C39.3542143,33.2943571 35.9070714,38.6629286 39.7813571,44.9857857 C39.7963571,45.0086429 39.8099286,45.0315 39.8242143,45.0543571 L28.0063571,45.0543571 C27.2713571,45.0543571 26.6692143,45.6565 26.6692143,46.3915 L26.6692143,47.2722143 L26.6692143,47.6000714 L26.6692143,47.9693571 L26.7506429,47.9693571 C26.0956429,47.9693571 25.5585,48.5715 25.5585,49.3065 L25.5585,50.5157857 L41.3720714,50.5157857 L57.1463571,50.5157857 L57.1463571,49.3065 C57.1463571,48.5715 56.6099286,47.9693571 55.9542143,47.9693571 L55.9863571,47.9693571 L55.9863571,47.6000714 L55.9863571,47.2722143 L55.9863571,46.3915 C55.9863571,45.6565 55.3842143,45.0543571 54.6485,45.0543571 L42.8470714,45.0543571 L42.8470714,45.0286429 C42.8699286,44.9907857 42.8927857,44.9536429 42.9156429,44.9157857 C46.6163571,38.7993571 43.4849286,33.5900714 42.9156429,32.7357857 C42.8842143,32.6893571 42.8613571,32.6557857 42.8470714,32.6357857 L42.8470714,32.6129286 L42.8470714,30.3143571 L42.8470714,21.1065 C44.7820714,20.4600714 46.1899286,18.6522143 46.1899286,16.5029286 C46.1899286,16.4215 46.1720714,16.3457857 46.1685,16.2665 C46.5463571,16.3707857 46.9342143,16.4857857 47.3413571,16.6257857 C51.8656429,18.1807857 55.1049286,18.7057857 57.7242143,16.1972143 C58.5463571,15.4100714 59.3849286,15.0686429 60.1370714,15.0143571 C61.0042143,14.9515 61.0570714,13.7036429 60.1970714,13.5722143" id="Fill-20" fill="#65251A"></path>
                                    <path d="M17.235,8.76335714 C17.235,10.9855 15.4342857,12.7869286 13.2107143,12.7869286 C10.9892857,12.7869286 9.18857143,10.9855 9.18857143,8.76335714 C9.18857143,6.54121429 10.9892857,4.73978571 13.2107143,4.73978571 C15.4342857,4.73978571 17.235,6.54121429 17.235,8.76335714" id="Fill-22" fill="#0E314E"></path>
                                    <path d="M70.3174286,49.0382143 C70.3174286,50.3446429 69.2602857,51.4046429 67.9524286,51.4046429 C66.6452857,51.4046429 65.5852857,50.3446429 65.5852857,49.0382143 C65.5852857,47.7317857 66.6452857,46.6717857 67.9524286,46.6717857 C69.2602857,46.6717857 70.3174286,47.7317857 70.3174286,49.0382143" id="Fill-24" fill="#FFD522"></path>
                                </g>
                            </g>
                        </g>
                    </g>
                    <g id="Konsultasi-Percintaan" transform="translate(170.000000, 264.000000)">
                        <text id="Konsultasi-Percintaa" font-family="Rajdhani-SemiBold, Rajdhani" font-size="16" font-weight="500" line-spacing="24" letter-spacing="-0.00571428571" fill="#2E6B87">
                            <tspan x="36.2485714" y="99">Konsultasi </tspan>
                            <tspan x="35.3045714" y="123">Percintaan</tspan>
                        </text>
                        <g id="ic_konsultasipercintaan-2" transform="translate(21.000000, 0.000000)">
                            <g id="ic_konsultasipercintaan">
                                <g id="Group-34" transform="translate(8.571429, 5.714286)">
                                    <g id="Group-3" transform="translate(0.000000, 7.207500)">
                                        <mask id="mask-8" fill="white">
                                            <use xlink:href="#path-7"></use>
                                        </mask>
                                        <g id="Clip-2"></g>
                                        <path d="M3.80742857,21.3031429 C-4.33471429,33.1331429 1.626,51.0274286 11.8552857,55.2131429 C22.0838571,59.3988571 63.6795714,68.2631429 79.7274286,47.4788571 C91.0324286,32.836 70.5188571,4.39528571 55.9002857,1.071 C41.2802857,-2.25328571 14.0317143,6.44742857 3.80742857,21.3031429" id="Fill-1" fill="#E3EEFF" mask="url(#mask-8)"></path>
                                    </g>
                                    <path d="M62.4988571,49.0868571 C62.4988571,53.9354286 58.5695714,57.8711429 53.7174286,57.8711429 L29.2938571,57.8711429 C24.4395714,57.8711429 20.5102857,53.9354286 20.5102857,49.0868571 L20.5102857,16.8582857 C20.5102857,12.0082857 24.4395714,8.074 29.2938571,8.074 L53.7174286,8.074 C58.5695714,8.074 62.4988571,12.0082857 62.4988571,16.8582857 L62.4988571,49.0868571 Z" id="Fill-4" fill="#FFFFFF"></path>
                                    <path d="M60.9325,38.0956429 C60.9325,35.1256429 58.5310714,32.7227857 55.5639286,32.7227857 C53.5532143,32.7227857 51.7953571,33.8313571 50.8782143,35.4770714 C49.9603571,33.8313571 48.2046429,32.7227857 46.1917857,32.7227857 C44.1760714,32.7227857 42.4267857,33.8313571 41.5039286,35.4770714 C40.5846429,33.8313571 38.8317857,32.7227857 36.8210714,32.7227857 C34.8067857,32.7227857 33.0525,33.8313571 32.1296429,35.4770714 C31.2153571,33.8313571 29.4589286,32.7227857 27.4453571,32.7227857 C24.4796429,32.7227857 22.0767857,35.1256429 22.0767857,38.0956429 C22.0767857,38.1942143 22.0846429,38.2892143 22.0896429,38.3899286 L22.0767857,38.3899286 L22.0767857,47.1413571 C22.0767857,51.6327857 25.7146429,55.2692143 30.2046429,55.2692143 L52.8060714,55.2692143 C57.2960714,55.2692143 60.9325,51.6327857 60.9325,47.1413571 L60.9325,38.3899286 L60.9210714,38.3899286 C60.9260714,38.2892143 60.9325,38.1942143 60.9325,38.0956429" id="Fill-6" fill="#00355A"></path>
                                    <path d="M54.1541429,8.074 L54.1541429,2.80114286 C54.1541429,1.25542857 52.8998571,-0.000285714286 51.3512857,-0.000285714286 L31.6584286,-0.000285714286 C30.1105714,-0.000285714286 28.8541429,1.25542857 28.8541429,2.80114286 L28.8541429,8.074 L54.1541429,8.074 Z" id="Fill-8" fill="#00355A"></path>
                                    <path d="M32.0437143,7.14135714 C31.7187143,7.14135714 31.4544286,6.87707143 31.4544286,6.55564286 L31.4544286,1.68707143 C31.4544286,1.36064286 31.7187143,1.09778571 32.0437143,1.09778571 C32.3722857,1.09778571 32.6365714,1.36064286 32.6365714,1.68707143 L32.6365714,6.55564286 C32.6365714,6.87707143 32.3722857,7.14135714 32.0437143,7.14135714" id="Fill-10" fill="#A894C2"></path>
                                    <path d="M34.7495,7.14135714 C34.4216429,7.14135714 34.1602143,6.87707143 34.1602143,6.55564286 L34.1602143,1.68707143 C34.1602143,1.36064286 34.4216429,1.09778571 34.7495,1.09778571 C35.0773571,1.09778571 35.3409286,1.36064286 35.3409286,1.68707143 L35.3409286,6.55564286 C35.3409286,6.87707143 35.0773571,7.14135714 34.7495,7.14135714" id="Fill-12" fill="#A894C2"></path>
                                    <path d="M37.4535,7.14135714 C37.1249286,7.14135714 36.8620714,6.87707143 36.8620714,6.55564286 L36.8620714,1.68707143 C36.8620714,1.36064286 37.1249286,1.09778571 37.4535,1.09778571 C37.7770714,1.09778571 38.0413571,1.36064286 38.0413571,1.68707143 L38.0413571,6.55564286 C38.0413571,6.87707143 37.7770714,7.14135714 37.4535,7.14135714" id="Fill-14" fill="#A894C2"></path>
                                    <path d="M40.1509286,7.14135714 C39.8295,7.14135714 39.5616429,6.87707143 39.5616429,6.55564286 L39.5616429,1.68707143 C39.5616429,1.36064286 39.8295,1.09778571 40.1509286,1.09778571 C40.4780714,1.09778571 40.7437857,1.36064286 40.7437857,1.68707143 L40.7437857,6.55564286 C40.7437857,6.87707143 40.4780714,7.14135714 40.1509286,7.14135714" id="Fill-16" fill="#A894C2"></path>
                                    <path d="M42.8567143,7.14135714 C42.5317143,7.14135714 42.2674286,6.87707143 42.2674286,6.55564286 L42.2674286,1.68707143 C42.2674286,1.36064286 42.5317143,1.09778571 42.8567143,1.09778571 C43.1817143,1.09778571 43.4467143,1.36064286 43.4467143,1.68707143 L43.4467143,6.55564286 C43.4467143,6.87707143 43.1817143,7.14135714 42.8567143,7.14135714" id="Fill-18" fill="#A894C2"></path>
                                    <path d="M45.5621429,7.14135714 C45.2342857,7.14135714 44.9692857,6.87707143 44.9692857,6.55564286 L44.9692857,1.68707143 C44.9692857,1.36064286 45.2342857,1.09778571 45.5621429,1.09778571 C45.8878571,1.09778571 46.1507143,1.36064286 46.1507143,1.68707143 L46.1507143,6.55564286 C46.1507143,6.87707143 45.8878571,7.14135714 45.5621429,7.14135714" id="Fill-20" fill="#A894C2"></path>
                                    <path d="M48.263,7.14135714 C47.9351429,7.14135714 47.6722857,6.87707143 47.6722857,6.55564286 L47.6722857,1.68707143 C47.6722857,1.36064286 47.9351429,1.09778571 48.263,1.09778571 C48.5865714,1.09778571 48.8515714,1.36064286 48.8515714,1.68707143 L48.8515714,6.55564286 C48.8515714,6.87707143 48.5865714,7.14135714 48.263,7.14135714" id="Fill-22" fill="#A894C2"></path>
                                    <path d="M50.9625,7.14135714 C50.6353571,7.14135714 50.3760714,6.87707143 50.3760714,6.55564286 L50.3760714,1.68707143 C50.3760714,1.36064286 50.6353571,1.09778571 50.9625,1.09778571 C51.2889286,1.09778571 51.5503571,1.36064286 51.5503571,1.68707143 L51.5503571,6.55564286 C51.5503571,6.87707143 51.2889286,7.14135714 50.9625,7.14135714" id="Fill-24" fill="#A894C2"></path>
                                    <path d="M40.7455714,40.8990714 C36.6012857,37.9033571 27.7627143,33.1090714 29.142,26.6655 C30.387,20.9726429 38.9477143,20.2247857 40.7434286,26.2183571 C42.5391429,20.2247857 51.1034286,20.9726429 52.3455714,26.6655 C53.7262857,33.1090714 44.8891429,37.9033571 40.7455714,40.8990714" id="Fill-26" fill="#E84B18"></path>
                                    <path d="M30.7672143,29.4405 C30.2222143,27.7019286 31.3229286,23.6583571 34.2786429,23.9590714 C35.2507857,24.0576429 35.7222143,25.1726429 34.9693571,25.6140714 C32.6629286,26.9605 32.1072143,28.7612143 32.7707857,29.9005 C33.3800714,30.9540714 31.6465,32.2247857 30.7672143,29.4405" id="Fill-28" fill="#FFFFFF"></path>
                                    <polygon id="Fill-30" fill="#FBB040" points="15.5094286 25.7686429 14.2037143 23.3815 12.8987143 25.7686429 10.5108571 27.0743571 12.8987143 28.3793571 14.2037143 30.7665 15.5094286 28.3793571 17.8951429 27.0743571"></polygon>
                                    <polygon id="Fill-32" fill="#FBB040" points="57.5438571 14.9085714 56.2381429 12.5214286 54.9331429 14.9085714 52.5452857 16.2135714 54.9331429 17.5192857 56.2381429 19.9064286 57.5438571 17.5192857 59.9295714 16.2135714"></polygon>
                                </g>
                            </g>
                        </g>
                    </g>
                    <g id="Konsultasi-Gizi" transform="translate(169.000000, 132.000000)">
                        <text font-family="Rajdhani-SemiBold, Rajdhani" font-size="16" font-weight="500" line-spacing="24" letter-spacing="-0.00571428571" fill="#2E6B87">
                            <tspan x="22.8308571" y="99">Konsultasi Gizi</tspan>
                        </text>
                        <g id="ic_konsultasigizi-2" transform="translate(21.000000, 0.000000)">
                            <g id="ic_konsultasigizi">
                                <g id="Group-41" transform="translate(5.000000, 5.714286)">
                                    <g id="Group-3" transform="translate(0.000000, 0.345643)">
                                        <mask id="mask-10" fill="white">
                                            <use xlink:href="#path-9"></use>
                                        </mask>
                                        <g id="Clip-2"></g>
                                        <path d="M69.7039286,21.9900714 C71.9232143,37.9357857 34.1003571,77.1543571 15.4146429,63.6622143 C-3.27107143,50.1686429 -6.18892857,21.3143571 13.4317857,7.4215 C33.0525,-6.47207143 66.7946429,1.08578571 69.7039286,21.9900714" id="Fill-1" fill="#C4DCFF" mask="url(#mask-10)"></path>
                                    </g>
                                    <polygon id="Fill-4" fill="#FBB040" points="40.5124286 14.2497857 39.2067143 11.8626429 37.9017143 14.2497857 35.5138571 15.5547857 37.9017143 16.8605 39.2067143 19.2476429 40.5124286 16.8605 42.8981429 15.5547857"></polygon>
                                    <polygon id="Fill-6" fill="#FBB040" points="16.0174286 25.7565 14.7117143 23.3693571 13.4067143 25.7565 11.0188571 27.0615 13.4067143 28.3672143 14.7117143 30.7536429 16.0174286 28.3672143 18.4031429 27.0615"></polygon>
                                    <path d="M68.3988571,37.3336429 C68.3988571,44.8715 62.2881429,50.9815 54.751,50.9815 C47.2124286,50.9815 41.1017143,44.8715 41.1017143,37.3336429 C41.1017143,29.7957857 47.2124286,23.6857857 54.751,23.6857857 C62.2881429,23.6857857 68.3988571,29.7957857 68.3988571,37.3336429" id="Fill-8" fill="#F4C911"></path>
                                    <path d="M54.7507143,24.5567143 C47.7057143,24.5567143 41.9728571,30.2881429 41.9728571,37.3338571 C41.9728571,44.3788571 47.7057143,50.1102857 54.7507143,50.1102857 C61.7957143,50.1102857 67.5278571,44.3788571 67.5278571,37.3338571 C67.5278571,30.2881429 61.7957143,24.5567143 54.7507143,24.5567143 M54.7507143,51.8538571 C46.7442857,51.8538571 40.23,45.3402857 40.23,37.3338571 C40.23,29.3274286 46.7442857,22.8138571 54.7507143,22.8138571 C62.7564286,22.8138571 69.27,29.3274286 69.27,37.3338571 C69.27,45.3402857 62.7564286,51.8538571 54.7507143,51.8538571" id="Fill-10" fill="#F28B12"></path>
                                    <path d="M55.654,27.5052857 C55.4018571,26.7074286 54.8661429,26.2717143 54.0397143,26.191 C52.5611429,26.046 50.8161429,26.4438571 49.699,27.4688571 C49.2104286,27.9174286 48.8447143,28.5502857 48.9068571,29.2317143 C48.979,30.0302857 49.5668571,30.6417143 50.0454286,31.2367143 C50.6075714,31.9338571 51.1811429,32.621 51.7825714,33.2845714 C51.8761429,33.3645714 51.9747143,33.441 52.0654286,33.5238571 C52.5611429,33.9795714 53.0025714,34.4952857 53.514,34.9338571 C53.5311429,34.9445714 53.5468571,34.9602857 53.564,34.9702857 C53.564,34.9738571 53.5661429,34.9774286 53.5661429,34.9817143 C53.5697143,34.9838571 53.5725714,34.9874286 53.5761429,34.9902857 C53.7782857,35.1588571 53.989,35.3174286 54.1975714,35.4781429 C54.349,35.4474286 54.4818571,35.3431429 54.5268571,35.136 C54.909,33.3752857 55.2497143,31.6031429 55.6011429,29.8367143 C55.7518571,29.0781429 55.8925714,28.2624286 55.654,27.5052857" id="Fill-12" fill="#F28B12"></path>
                                    <path d="M62.0512143,29.2582143 C61.8105,28.6153571 61.2540714,28.1267857 60.7076429,27.7389286 C60.1647857,27.3532143 59.5197857,27.0532143 58.8640714,26.9253571 C58.2040714,26.7967857 57.5126429,26.8796429 57.1090714,27.4760714 C56.7097857,28.0653571 56.6040714,28.9146429 56.4390714,29.5939286 C56.2290714,30.4539286 56.0547857,31.3210714 55.9062143,32.1932143 C55.7862143,32.9060714 55.5983571,33.7346429 55.7269286,34.4725 C55.4533571,34.8103571 55.8847857,35.4196429 56.3669286,35.1753571 C57.6905,34.5075 58.9183571,33.6589286 60.0119286,32.6567857 C60.5533571,32.1596429 61.0997857,31.6346429 61.5797857,31.0760714 C62.0255,30.5582143 62.3055,29.9367857 62.0512143,29.2582143" id="Fill-14" fill="#F28B12"></path>
                                    <path d="M64.8595,32.0372143 C63.7666429,30.7057857 62.0616429,31.9529286 61.0187857,32.6643571 C59.6066429,33.6279286 58.0973571,34.6400714 56.9723571,35.9436429 C56.8516429,36.1072143 56.7309286,36.2707857 56.6102143,36.4336429 C56.5123571,36.5665 56.4152143,36.6986429 56.3187857,36.8329286 C56.3766429,36.9150714 56.4573571,36.9865 56.5823571,37.0193571 C58.1452143,37.4322143 59.7673571,37.6307857 61.3837857,37.5872143 C62.1895,37.5650714 62.9909286,37.4786429 63.7859286,37.3507857 C64.5380714,37.2307857 65.0587857,36.9186429 65.3502143,36.1915 C65.8580714,34.9236429 65.7495,33.1229286 64.8595,32.0372143" id="Fill-16" fill="#F28B12"></path>
                                    <path d="M64.7653571,38.7273571 C64.2846429,38.2723571 63.5553571,38.2766429 62.9375,38.2280714 C61.9360714,38.1480714 60.9353571,38.0645 59.9325,37.9987857 C59.4553571,37.9680714 58.9782143,37.9330714 58.5010714,37.9087857 C58.3553571,37.9023571 58.2217857,37.9123571 58.0839286,37.9166429 C58.0039286,37.9266429 57.9232143,37.9309286 57.8460714,37.9387857 C57.5667857,37.9687857 57.2925,38.0202143 57.0210714,38.0959286 C56.7989286,38.1587857 56.5767857,38.2223571 56.3517857,38.2737857 C56.3675,38.5887857 56.5339286,38.8373571 56.7039286,39.1080714 C56.8996429,39.4195 57.1103571,39.7202143 57.3332143,40.0123571 C57.7675,40.5816429 58.2425,41.1166429 58.7675,41.6037857 C59.2882143,42.0895 59.8525,42.5323571 60.4460714,42.9259286 C61.0196429,43.3059286 61.6889286,43.7666429 62.3832143,43.8659286 C63.1182143,43.9723571 63.6289286,43.5302143 63.9682143,42.9223571 C64.3689286,42.2030714 64.6932143,41.4259286 64.9632143,40.6480714 C65.1839286,40.0137857 65.3110714,39.2423571 64.7653571,38.7273571" id="Fill-18" fill="#F28B12"></path>
                                    <path d="M59.4528571,44.7869286 C59.2557143,44.1176429 58.9014286,43.4719286 58.5814286,42.8547857 C58.1971429,42.1126429 57.7828571,41.3819286 57.3235714,40.6833571 C57.0214286,40.2226429 56.6807143,39.8019286 56.3321429,39.3869286 C56.2457143,39.3326429 56.1585714,39.2805 56.0714286,39.2247857 C55.9278571,39.1340714 55.7907143,39.0390714 55.6521429,38.9440714 C55.6442857,38.9540714 55.6357143,38.9633571 55.6278571,38.9726429 C55.5985714,39.0126429 55.5692857,39.0555 55.5357143,39.0912143 C55.5435714,39.0833571 55.5442857,39.0819286 55.55,39.0755 C55.5714286,39.0497857 55.5964286,39.0255 55.55,39.0755 C55.5464286,39.0805 55.5421429,39.0847857 55.5392857,39.0883571 C55.5107143,39.1283571 55.4835714,39.1697857 55.4578571,39.2119286 C55.34,39.4019286 55.235,39.6019286 55.14,39.8040714 C55.0871429,39.9169286 55.0292857,40.0276429 54.9735714,40.1397857 C54.595,41.2747857 54.2785714,42.4297857 54.0385714,43.6026429 C53.8314286,44.6126429 53.145,46.7847857 54.7042857,47.0712143 C55.4135714,47.2019286 56.2278571,47.0562143 56.935,46.9605 C57.6007143,46.8705 58.4692857,46.8247857 59.0364286,46.4290714 C59.5821429,46.0490714 59.6271429,45.3783571 59.4528571,44.7869286" id="Fill-20" fill="#F28B12"></path>
                                    <path d="M53.6171429,38.1881429 C53.2371429,38.4002857 52.8657143,38.6331429 52.5057143,38.8638571 C52.1071429,39.1195714 51.6914286,39.3488571 51.2685714,39.566 C50.9642857,39.7395714 50.6507143,39.8931429 50.3292857,40.0324286 C50.2428571,40.0745714 50.1564286,40.1167143 50.07,40.1588571 C49.165,40.5995714 48.245,41.006 47.3135714,41.3881429 C47.1742857,41.4452857 47.0342857,41.5031429 46.8942857,41.5602857 C46.5007143,41.8167143 46.1557143,42.146 46.0664286,42.611 C45.9171429,43.391 46.5878571,44.0395714 47.0457143,44.5817143 C47.55,45.1802857 48.1021429,45.751 48.7785714,46.156 C49.4114286,46.5367143 50.1521429,46.7124286 50.7478571,46.166 C51.285,45.6738571 51.5035714,44.8674286 51.76,44.2124286 C52.1357143,43.2567143 52.4892857,42.2924286 52.8235714,41.3217143 C52.9907143,40.836 53.1442857,40.3467143 53.2935714,39.856 C53.3728571,39.5945714 53.4314286,39.3338571 53.4835714,39.071 C53.4864286,39.0695714 53.49,39.0674286 53.4928571,39.066 C53.5471429,38.8295714 53.6142857,38.5917143 53.7192857,38.3867143 C53.6928571,38.346 53.67,38.3017143 53.6328571,38.2717143 C53.6385714,38.2374286 53.625,38.2145714 53.6171429,38.1881429" id="Fill-22" fill="#F28B12"></path>
                                    <path d="M52.875,36.9186429 C52.48,36.1943571 51.8892857,35.5193571 51.3557143,34.8936429 C50.8164286,34.2615 50.2385714,33.6615 49.6192857,33.1072143 C49.31,32.8293571 48.9914286,32.5622143 48.6642857,32.3050714 C48.3664286,32.0707857 48.0557143,31.7857857 47.6835714,31.6765 C46.8485714,31.4307857 46.1678571,32.0807857 45.8642857,32.7929286 C45.5092857,33.6229286 45.2892857,34.5279286 45.1278571,35.4143571 C44.9728571,36.2643571 44.8264286,37.1843571 44.8771429,38.0515 C44.9221429,38.8486429 45.4607143,39.3329286 46.2571429,39.3022143 C46.7207143,39.2850714 47.1828571,39.1479286 47.6335714,39.0500714 C48.1592857,38.9365 48.6842857,38.8186429 49.2071429,38.6957857 C50.11,38.4836429 51.0071429,38.2836429 51.8578571,37.9250714 C52.1064286,37.9515 52.3614286,37.9465 52.5664286,37.8715 C52.9757143,37.7200714 53.0721429,37.2793571 52.875,36.9186429" id="Fill-24" fill="#F28B12"></path>
                                    <path d="M48.7267143,36.2977857 C47.8181429,33.2056429 46.2052857,29.9949286 43.5824286,28.0156429 C42.2867143,27.0385 40.686,26.4349286 39.0538571,26.4334911 C38.2238571,26.4320714 37.4131429,26.6027857 36.6531429,26.9313571 C35.9645714,27.2285 35.3338571,27.6342143 34.6745714,27.9870714 C34.0552857,28.3192143 33.4195714,28.5827857 32.706,28.5627857 C32.5567143,28.5577857 32.4452857,28.6077857 32.3524286,28.6763571 C30.1081429,27.2585 27.1631429,27.0456429 24.6345714,27.7806429 C21.5767143,28.6692143 18.5352857,30.9556429 17.7974286,34.1849286 C17.4124286,35.8685 17.5324286,37.6292143 17.751,39.3270714 C17.9752857,41.0663571 18.3474286,42.7835 18.8881429,44.4520714 C19.9081429,47.6006429 21.4367143,50.9256429 23.936,53.1785 C25.1474286,54.2699286 26.6317143,55.1192143 28.2417143,55.4385 C29.986,55.7842143 31.6288571,55.3563571 33.3295714,54.9949286 C34.2402857,54.8013571 35.1402857,54.7135 36.0717143,54.7470714 C37.0045714,54.7799286 37.9331429,54.8935 38.8652857,54.9449286 C40.551,55.0385 42.1745714,54.8242143 43.6874286,54.0456429 C49.8838571,50.8556429 50.4702857,42.2313571 48.7267143,36.2977857" id="Fill-26" fill="#E84B18"></path>
                                    <polygon id="Fill-28" fill="#489300" points="32.0417857 28.5787857 30.5967857 22.3173571 33.5832143 22.5102143 33.2939286 28.9645"></polygon>
                                    <path d="M77.5373571,52.9858571 C78.8087857,51.913 79.6895,50.4894286 80.4909286,49.0515714 C81.1709286,47.8308571 81.7723571,46.5601429 82.2102143,45.2322857 C82.6395,43.9337143 82.9152143,42.5908571 82.9273571,41.2208571 C82.9395,39.7458571 82.5902143,38.3237143 81.9323571,37.0044286 C81.2009286,35.5372857 80.2530714,34.1937143 79.7495,32.6194286 C79.2987857,31.2122857 79.1580714,29.7001429 79.3359286,28.2337143 C79.4952143,26.913 80.0409286,25.4144286 79.4487857,24.1265714 C78.8145,22.7458571 77.1995,22.4222857 75.8602143,22.8815714 C75.4037857,23.038 74.9930714,23.2715714 74.6037857,23.5387143 C72.3109286,24.6387143 70.5552143,26.8008571 68.8245,28.5987143 C68.2159286,29.2308571 67.5887857,29.8437143 66.9016429,30.3894286 C66.2145,30.9351429 65.4816429,31.4194286 64.7387857,31.8851429 C63.3259286,32.7715714 61.8573571,33.5937143 60.5702143,34.6651429 C59.3895,35.6494286 58.3973571,36.8451429 57.8173571,38.2801429 C57.2902143,39.5815714 57.0923571,41.0037143 57.1716429,42.403 C57.3552143,45.6108571 59.0723571,48.4958571 61.3059286,50.7215714 C63.4409286,52.8508571 66.1616429,54.4965714 69.1545,55.033 C72.0523571,55.553 75.2566429,54.9087143 77.5373571,52.9858571" id="Fill-30" fill="#5CB211"></path>
                                    <path d="M89.367,25.1977857 C89.397,25.1685 89.4205714,25.1335 89.4262857,25.0892143 C89.4762857,24.6656429 89.1291429,24.2213571 88.8862857,23.9020714 C88.597,23.5192143 88.2712857,23.1663571 87.9191429,22.8420714 C87.2162857,22.1956429 86.3912857,21.6649286 85.5084286,21.3013571 C83.7048571,20.5592143 81.7027143,20.5199286 79.8541429,21.1220714 C78.8227143,21.4577857 77.8255714,22.0013571 77.0191429,22.7292143 C76.5891429,23.1170714 77.1084286,23.8406429 77.567,23.4606429 C78.8591429,22.3906429 80.402,21.7435 82.0755714,21.6413571 C82.5012857,21.6449286 82.927,21.6792143 83.3412857,21.7792143 C84.1827143,21.9806429 84.9677143,22.4235 85.652,22.9435 C86.467,23.5642143 87.1705714,24.3142143 87.877,25.0513571 C88.1305714,25.3163571 88.4341429,25.6792143 88.8341429,25.6927857 C89.1441429,25.7027857 89.3691429,25.5027857 89.367,25.1977857" id="Fill-32" fill="#310E07"></path>
                                    <path d="M71.6096429,6.48964286 C71.6096429,6.48964286 68.3139286,20.7496429 81.0667857,21.9253571 C81.0667857,21.9253571 87.2146429,9.6125 71.6096429,6.48964286" id="Fill-34" fill="#00A14B"></path>
                                    <g id="Group-38" transform="translate(17.142857, 41.059929)">
                                        <mask id="mask-12" fill="white">
                                            <use xlink:href="#path-11"></use>
                                        </mask>
                                        <g id="Clip-37"></g>
                                        <path d="M0.658214286,0.198785714 L0.658214286,0.198785714 C0.658214286,15.4745 15.2517857,27.8573571 33.2546429,27.8573571 C51.2567857,27.8573571 65.8503571,15.4745 65.8503571,0.198785714 C65.8503571,0.198785714 41.2332143,17.8409286 0.658214286,0.198785714" id="Fill-36" fill="#FFFFFF" mask="url(#mask-12)"></path>
                                    </g>
                                    <path d="M20.6463571,52.5568571 C30.9706429,57.4454286 40.9127857,59.0997143 49.6113571,59.0997143 C55.3692143,59.0997143 60.5842143,58.3804286 65.0042143,57.4047143 C71.1535,56.049 76.3449286,54.1147143 80.2535,52.3582857 C80.8635,51.179 81.3770714,49.9561429 81.7906429,48.6982857 C77.8420714,50.6632857 71.7870714,53.2125714 64.3599286,54.8404286 C53.1156429,57.304 36.5292143,58.044 19.0420714,48.8132857 C19.4727857,50.1018571 20.0092143,51.3518571 20.6463571,52.5568571" id="Fill-39" fill="#000000"></path>
                                </g>
                            </g>
                        </g>
                    </g>
                    <g id="Desain-Interior" transform="translate(167.000000, 0.000000)">
                        <text font-family="Rajdhani-SemiBold, Rajdhani" font-size="16" font-weight="500" line-spacing="24" letter-spacing="-0.00571428571" fill="#2E6B87">
                            <tspan x="22.5108571" y="99">Desain Interior</tspan>
                        </text>
                        <g id="ic_desaininterior-2" transform="translate(21.000000, 0.000000)">
                            <g id="ic_desaininterior">
                                <g id="group" transform="translate(10.714286, 5.000000)">
                                    <g id="Group-3" transform="translate(7.857143, 0.445929)">
                                        <mask id="mask-14" fill="white">
                                            <use xlink:href="#path-13"></use>
                                        </mask>
                                        <g id="Clip-2"></g>
                                        <path d="M49.4446429,67.5949286 C61.2967857,63.0863571 67.3125,45.2927857 62.9625,35.8277857 C58.6132143,26.3627857 36.4125,-5.64864286 14.4546429,1.22778571 C-1.01321429,6.07207143 -3.38178571,40.9770714 4.30535714,52.3942143 C11.9925,63.8106429 34.5632143,73.2577857 49.4446429,67.5949286" id="Fill-1" fill="#E3EEFF" mask="url(#mask-14)"></path>
                                    </g>
                                    <g id="Group-6" transform="translate(70.714286, 24.017357)">
                                        <mask id="mask-16" fill="white">
                                            <use xlink:href="#path-15"></use>
                                        </mask>
                                        <g id="Clip-5"></g>
                                        <polygon id="Fill-4" fill="#FBB040" mask="url(#mask-16)" points="5.66607143 2.80492857 4.36107143 0.417785714 3.05535714 2.80492857 0.6675 4.10992857 3.05535714 5.41564286 4.36107143 7.80278571 5.66607143 5.41564286 8.0525 4.10992857"></polygon>
                                    </g>
                                    <path d="M33.6306429,44.4443571 C34.4299286,45.6200714 36.4777857,45.6272143 38.1970714,44.4593571 L68.6235,23.7915 C70.3420714,22.6236429 71.0906429,20.7165 70.2913571,19.5407857 L60.3327857,4.87935714 C59.5342143,3.70364286 57.4849286,3.69721429 55.7663571,4.86435714 L25.3399286,25.5329286 C23.6213571,26.7007857 22.8727857,28.6072143 23.6713571,29.7836429 L33.6306429,44.4443571 Z" id="Fill-7" fill="#FFF7E6"></path>
                                    <path d="M41.5219286,38.6198571 C41.8219286,39.0605714 42.4776429,39.1405714 42.9826429,38.797 L46.8976429,36.137 C47.4040714,35.7927143 47.5726429,35.1541429 47.2733571,34.7127143 L37.7455,20.6877143 C37.4455,20.2462857 36.7897857,20.167 36.2840714,20.5105714 L32.3683571,23.1705714 C31.8633571,23.5148571 31.6947857,24.1527143 31.9947857,24.5941429 L41.5219286,38.6198571 Z" id="Fill-9" fill="#E77800"></path>
                                    <path d="M48.5295,33.8597857 C48.8287857,34.3005 49.4845,34.3805 49.9902143,34.0369286 L53.9052143,31.3769286 C54.4116429,31.0333571 54.5802143,30.3940714 54.2802143,29.9526429 L44.7530714,15.9276429 C44.4530714,15.4862143 43.7973571,15.4069286 43.2909286,15.7512143 L39.3759286,18.4112143 C38.8702143,18.7547857 38.7023571,19.3926429 39.0016429,19.8340714 L48.5295,33.8597857 Z" id="Fill-11" fill="#E77800"></path>
                                    <path d="M55.5362857,29.0997143 C55.8362857,29.5404286 56.492,29.6204286 56.997,29.2768571 L60.9127143,26.6168571 C61.4184286,26.2732857 61.587,25.634 61.2877143,25.1925714 L51.7598571,11.1682857 C51.4605714,10.7261429 50.8048571,10.6475714 50.2984286,10.9911429 L46.3827143,13.6511429 C45.8777143,13.9947143 45.7091429,14.6325714 46.0091429,15.074 L55.5362857,29.0997143 Z" id="Fill-13" fill="#E77800"></path>
                                    <path d="M62.5438571,24.3397143 C62.8431429,24.7811429 63.4988571,24.8604286 64.0045714,24.5168571 L67.9195714,21.8568571 C68.426,21.5132857 68.5945714,20.874 68.2945714,20.4332857 L58.7674286,6.40828571 C58.4674286,5.96614286 57.8117143,5.88757143 57.3052857,6.23114286 L53.3902857,8.89114286 C52.8852857,9.23471429 52.7167143,9.87328571 53.016,10.314 L62.5438571,24.3397143 Z" id="Fill-15" fill="#E77800"></path>
                                    <path d="M20.0040714,42.0503571 C19.7905,43.4567857 21.2876429,44.8539286 23.3419286,45.1667857 L59.7062143,50.6996429 C61.7605,51.0125 63.6055,50.1239286 63.8197857,48.7182143 L66.4855,31.1960714 C66.6990714,29.7903571 65.2019286,28.3925 63.1476429,28.0796429 L26.7840714,22.5460714 C24.7297857,22.2339286 22.8840714,23.1232143 22.6705,24.5289286 L20.0040714,42.0503571 Z" id="Fill-17" fill="#FFB5A6"></path>
                                    <path d="M29.7512143,43.1455 C29.6712143,43.6726429 30.0976429,44.1762143 30.7019286,44.2683571 L35.3812143,44.9805 C35.9862143,45.0726429 36.5440714,44.7183571 36.6247857,44.1912143 L39.1747857,27.4283571 C39.2555,26.9012143 38.8283571,26.3976429 38.2226429,26.3055 L33.5433571,25.5933571 C32.9397857,25.5019286 32.3819286,25.8555 32.3019286,26.3826429 L29.7512143,43.1455 Z" id="Fill-19" fill="#E77800"></path>
                                    <path d="M38.1259286,44.4199286 C38.0459286,44.9470714 38.4723571,45.4506429 39.0766429,45.5427857 L43.7559286,46.2542143 C44.3609286,46.3470714 44.9187857,45.9927857 44.9995,45.4656429 L47.5495,28.7027857 C47.6295,28.1756429 47.2030714,27.6720714 46.5980714,27.5799286 L41.9180714,26.8677857 C41.3145,26.7756429 40.7566429,27.1299286 40.6766429,27.6570714 L38.1259286,44.4199286 Z" id="Fill-21" fill="#E77800"></path>
                                    <path d="M46.5002857,45.6943571 C46.4202857,46.2207857 46.8467143,46.7250714 47.451,46.8172143 L52.131,47.5286429 C52.7352857,47.6207857 53.2938571,47.2672143 53.3738571,46.7400714 L55.9238571,29.9772143 C56.0045714,29.4500714 55.5774286,28.9465 54.9717143,28.8543571 L50.2931429,28.1422143 C49.6888571,28.0500714 49.1317143,28.4043571 49.051,28.9315 L46.5002857,45.6943571 Z" id="Fill-23" fill="#E77800"></path>
                                    <path d="M54.875,46.9680714 C54.795,47.4952143 55.2214286,47.9995 55.8257143,48.0909286 L60.505,48.8030714 C61.11,48.8952143 61.6678571,48.5416429 61.7478571,48.0145 L64.2985714,31.2516429 C64.3792857,30.7245 63.9521429,30.2209286 63.3464286,30.1287857 L58.6678571,29.4166429 C58.0635714,29.3245 57.5064286,29.6787857 57.4257143,30.2059286 L54.875,46.9680714 Z" id="Fill-25" fill="#E77800"></path>
                                    <path d="M12.8671429,32.2470714 C11.7157143,33.0813571 11.7707143,35.1292143 12.99,36.8120714 L34.5692857,66.5992143 C35.7885714,68.2820714 37.7171429,68.9720714 38.8685714,68.1385 L53.2214286,57.7399286 C54.3728571,56.9056429 54.3178571,54.8585 53.0985714,53.1756429 L31.5185714,23.3885 C30.3,21.7056429 28.3714286,21.0149286 27.22,21.8492143 L12.8671429,32.2470714 Z" id="Fill-27" fill="#FFF399"></path>
                                    <path d="M18.9281429,39.9591429 C18.496,40.2712857 18.4367143,40.9291429 18.7952857,41.4248571 L21.5724286,45.2577143 C21.9317143,45.7534286 22.5745714,45.902 23.0067143,45.5891429 L36.7374286,35.6412857 C37.1695714,35.3291429 37.2288571,34.6712857 36.8695714,34.1748571 L34.0924286,30.342 C33.7345714,29.8477143 33.091,29.6991429 32.6588571,30.0112857 L18.9281429,39.9591429 Z" id="Fill-29" fill="#E77800"></path>
                                    <path d="M23.8977857,46.8187857 C23.4663571,47.1316429 23.4070714,47.7895 23.7649286,48.2845 L26.5420714,52.1173571 C26.9013571,52.6130714 27.5442143,52.7616429 27.9763571,52.4495 L41.7077857,42.5016429 C42.1392143,42.1887857 42.1985,41.5309286 41.8392143,41.0352143 L39.0620714,37.2016429 C38.7042143,36.7073571 38.0606429,36.5587857 37.6285,36.8716429 L23.8977857,46.8187857 Z" id="Fill-31" fill="#E77800"></path>
                                    <path d="M28.8674286,53.6791429 C28.436,53.9912857 28.3767143,54.6491429 28.7345714,55.1448571 L31.5117143,58.9777143 C31.871,59.4734286 32.5145714,59.622 32.946,59.3091429 L46.6767143,49.3612857 C47.1095714,49.0491429 47.1688571,48.3912857 46.8095714,47.8948571 L44.0324286,44.062 C43.6738571,43.5677143 43.0302857,43.4191429 42.5981429,43.7312857 L28.8674286,53.6791429 Z" id="Fill-33" fill="#E77800"></path>
                                    <path d="M33.8374286,60.5387857 C33.4052857,60.8516429 33.346,61.5095 33.7045714,62.0045 L36.4817143,65.8373571 C36.841,66.3330714 37.4838571,66.4816429 37.916,66.1695 L51.6467143,56.2216429 C52.0788571,55.9087857 52.1381429,55.2509286 51.7795714,54.7552143 L49.0017143,50.9216429 C48.6438571,50.4273571 48.0002857,50.2787857 47.5681429,50.5916429 L33.8374286,60.5387857 Z" id="Fill-35" fill="#E77800"></path>
                                    <path d="M15.5262143,18.5075 C14.1769286,18.0589286 12.5455,19.2975 11.8897857,21.2689286 L0.274071429,56.1696429 C-0.382357143,58.1410714 0.181214286,60.1103571 1.5305,60.5596429 L18.3469286,66.1560714 C19.6962143,66.6053571 21.3276429,65.3667857 21.9840714,63.3953571 L33.5990714,28.4939286 C34.2555,26.5232143 33.6919286,24.5539286 32.3426429,24.1046429 L15.5262143,18.5075 Z" id="Fill-37" fill="#FFF7E6"></path>
                                    <path d="M12.7956429,27.9285714 C12.2899286,27.76 11.7206429,28.095 11.5277857,28.675 L10.0327857,33.1664286 C9.83921429,33.7471429 10.0942143,34.3564286 10.5999286,34.5242857 L26.6877857,39.8792857 C27.1942143,40.0478571 27.7627857,39.7121429 27.9563571,39.1314286 L29.4506429,34.64 C29.6435,34.0607143 29.3892143,33.4507143 28.8827857,33.2828571 L12.7956429,27.9285714 Z" id="Fill-39" fill="#E77800"></path>
                                    <path d="M10.1205714,35.9656429 C9.61485714,35.7977857 9.04557143,36.1327857 8.85271429,36.7127857 L7.35771429,41.2035 C7.16414286,41.7842143 7.41914286,42.3942143 7.92485714,42.5620714 L24.0127143,47.9163571 C24.5191429,48.0856429 25.0877143,47.7499286 25.2812857,47.1692143 L26.7755714,42.6777857 C26.9684286,42.0985 26.7141429,41.4885 26.2077143,41.3199286 L10.1205714,35.9656429 Z" id="Fill-41" fill="#E77800"></path>
                                    <path d="M7.4455,44.0035 C6.93978571,43.8356429 6.3705,44.1699286 6.17764286,44.7499286 L4.68264286,49.2413571 C4.48907143,49.8220714 4.74407143,50.4313571 5.24978571,50.5999286 L21.3376429,55.9542143 C21.8440714,56.1227857 22.4126429,55.7870714 22.6062143,55.2070714 L24.1005,50.7149286 C24.2933571,50.1356429 24.0390714,49.5263571 23.5326429,49.3577857 L7.4455,44.0035 Z" id="Fill-43" fill="#E77800"></path>
                                    <path d="M4.77042857,52.0412857 C4.26471429,51.8727143 3.69542857,52.2077143 3.50257143,52.7877143 L2.00757143,57.2791429 C1.814,57.8598571 2.069,58.4691429 2.57471429,58.637 L18.6625714,63.9912857 C19.169,64.1605714 19.7375714,63.8248571 19.9311429,63.2441429 L21.4254286,58.7527143 C21.6182857,58.1734286 21.364,57.5634286 20.8575714,57.3955714 L4.77042857,52.0412857 Z" id="Fill-45" fill="#E77800"></path>
                                    <path d="M31.0252857,27.3698571 C30.7495714,28.1984286 29.8538571,28.647 29.0252857,28.3705714 C28.1974286,28.0955714 27.7488571,27.1998571 28.0245714,26.3712857 C28.3002857,25.542 29.1952857,25.0941429 30.0245714,25.3698571 C30.8531429,25.6462857 31.301,26.5412857 31.0252857,27.3698571" id="Fill-47" fill="#231F20"></path>
                                </g>
                            </g>
                        </g>
                    </g>
                    <g id="Konseling-Psikologi" transform="translate(2.000000, 577.000000)">
                        <text font-family="Rajdhani-SemiBold, Rajdhani" font-size="16" font-weight="500" line-spacing="24" letter-spacing="-0.00571428571" fill="#2E6B87">
                            <tspan x="7.07828571" y="99">Konseling Psikologi</tspan>
                        </text>
                        <g id="ic_konselingpsikologi-2" transform="translate(20.000000, 0.000000)">
                            <g id="ic_konselingpsikologi">
                                <g id="Group-15" transform="translate(12.857143, 7.142857)">
                                    <g id="Group-3" transform="translate(0.000000, 0.432000)">
                                        <mask id="mask-18" fill="white">
                                            <use xlink:href="#path-17"></use>
                                        </mask>
                                        <g id="Clip-2"></g>
                                        <path d="M0.0366428571,42.4143571 C-1.3755,26.3757857 38.3780714,-10.8842143 56.3595,3.53364286 C74.3402143,17.9522143 75.7980714,46.9179286 55.5016429,59.8029286 C35.2052143,72.6886429 1.88735714,63.4386429 0.0366428571,42.4143571" id="Fill-1" fill="#C4DCFF" mask="url(#mask-18)"></path>
                                    </g>
                                    <path d="M55.9661429,28.5041429 C56.1304286,24.1348571 55.3182857,20.5212857 53.4068571,17.567 C49.4847143,11.5062857 43.9947143,8.74557143 37.6118571,8.23271429 C34.3382857,7.96985714 31.1611429,8.86771429 28.1404286,10.4162857 C27.4797143,10.7548571 26.8304286,11.1248571 26.1868571,11.5062857 C21.6697143,14.1805714 19.1561429,18.2877143 19.3697143,24.3055714 C19.489,27.6834286 18.0511429,30.1412857 15.9268571,32.207 C15.4625714,32.6577143 15.0011429,33.1048571 14.6582857,33.6898571 C14.0747143,34.6877143 14.1947143,35.4305714 15.0668571,36.0591429 C15.6254286,36.462 16.2147143,36.8077143 16.704,37.3291429 C17.4511429,38.127 17.499,38.597 16.929,39.5834286 C16.2875714,40.6927143 16.2911429,40.7384286 17.2768571,41.5262857 C17.5411429,41.7384286 17.8218571,41.8977143 17.4497143,42.2984286 C16.9032857,42.8877143 17.0982857,43.462 17.5697143,43.892 C18.2304286,44.4948571 18.3304286,45.2677143 18.2061429,46.1327143 C18.0975714,46.8862857 17.9375714,47.6312857 17.8025714,48.3805714 C17.439,50.402 17.9454286,51.3412857 19.6925714,51.872 C21.5161429,52.4262857 23.3311429,51.9462857 25.149,51.7634286 C26.3675714,51.6398571 27.5675714,51.197 28.8147143,51.5191429 C29.6247143,51.7284286 30.0711429,52.2462857 30.1754286,53.1941429 C30.3268571,54.577 30.7204286,55.8984286 30.9454286,57.2584286 C31.129,58.3684286 31.5904286,58.7141429 32.5461429,58.6691429 C36.4454286,58.487 47.7868571,58.6398571 49.5554286,58.5405714 C50.6968571,58.4755714 50.694,58.4377143 50.3311429,57.2148571 C49.6782857,55.0177143 48.9347143,52.8584286 48.389,50.6162857 C47.6768571,47.6898571 48.0397143,44.4762857 49.5704286,41.9677143 C50.2875714,40.792 51.1461429,39.7648571 51.979,38.7062857 C54.4254286,35.597 55.7575714,31.9448571 55.9661429,28.5041429" id="Fill-4" fill="#00355A"></path>
                                    <path d="M39.4273571,37.9126429 C39.5237857,35.2483571 39.8802143,32.8540714 37.4923571,31.1912143 C35.8252143,30.0305 33.4837857,30.3440714 31.5816429,30.0062143 C27.6073571,29.2990714 21.8459286,30.2469286 22.0887857,23.9440714 C22.1895,21.3405 23.4237857,20.5690714 24.7795,18.6533571 C26.0737857,16.8262143 26.4480714,15.2690714 28.6337857,14.3183571 C29.5780714,13.9069286 30.4830714,13.8033571 31.4252143,13.3676429 C32.7873571,12.7383571 33.0523571,12.0883571 34.8016429,12.2162143 C35.7159286,12.2840714 36.3859286,12.6083571 37.2845,12.5112143 C38.4595,12.3855 38.9659286,11.5769286 40.3259286,11.7819286 C41.2380714,11.9183571 41.8223571,12.6262143 42.6280714,12.8919286 C43.4766429,13.1712143 44.3923571,13.0947857 45.2102143,13.3640714 C47.4495,14.1005 47.7459286,15.1319286 49.2566429,16.8176429 C51.0416429,18.8083571 51.7887857,19.3790714 52.2152143,22.2955 C52.5830714,24.8076429 53.4766429,27.3026429 52.5323571,29.7290714 C51.8095,31.5855 50.8045,34.0633571 49.5237857,35.5476429 C48.1787857,37.1076429 46.3073571,37.6626429 45.3323571,39.6319286 C44.3809286,41.5540714 44.6945,43.1919286 42.1916429,41.9940714 C40.6937857,41.2776429 39.3680714,39.5676429 39.4273571,37.9126429" id="Fill-6" fill="#A6D6CA"></path>
                                    <g id="Group-10" transform="translate(65.714286, 19.717714)">
                                        <mask id="mask-20" fill="white">
                                            <use xlink:href="#path-19"></use>
                                        </mask>
                                        <g id="Clip-9"></g>
                                        <path d="M8.5945,4.61021429 C8.5945,6.83164286 6.79378571,8.63307143 4.57021429,8.63307143 C2.34878571,8.63307143 0.547357143,6.83164286 0.547357143,4.61021429 C0.547357143,2.38807143 2.34878571,0.586642857 4.57021429,0.586642857 C6.79378571,0.586642857 8.5945,2.38807143 8.5945,4.61021429" id="Fill-8" fill="#0E314E" mask="url(#mask-20)"></path>
                                    </g>
                                    <path d="M61.4087143,44.1165714 C61.4087143,45.423 60.3515714,46.483 59.0437143,46.483 C57.7358571,46.483 56.6765714,45.423 56.6765714,44.1165714 C56.6765714,42.8101429 57.7358571,41.7501429 59.0437143,41.7501429 C60.3515714,41.7501429 61.4087143,42.8101429 61.4087143,44.1165714" id="Fill-11" fill="#FFD522"></path>
                                    <polygon id="Fill-13" fill="#0E314E" points="53.0845714 6.88164286 51.7788571 4.4945 50.4731429 6.88164286 48.0852857 8.18735714 50.4731429 9.49235714 51.7788571 11.8795 53.0845714 9.49235714 55.4702857 8.18735714"></polygon>
                                </g>
                            </g>
                        </g>
                    </g>
                    <g id="Konsultasi-Tumbuh-Kembang-Anak" transform="translate(2.000000, 421.000000)">
                        <text id="Konsultasi-Tumbuh-Ke" font-family="Rajdhani-SemiBold, Rajdhani" font-size="16" font-weight="500" line-spacing="24" letter-spacing="-0.00571428571" fill="#2E6B87">
                            <tspan x="8.04457143" y="99">Konsultasi Tumbuh </tspan>
                            <tspan x="21.2542857" y="123">Kembang Anak</tspan>
                        </text>
                        <g id="ic_konsultasitumbuhkembanganak-2" transform="translate(21.000000, 0.000000)">
                            <g id="ic_konsultasitumbuhkembanganak">
                                <g id="Group-22" transform="translate(13.571429, 5.714286)">
                                    <g id="Group-3" transform="translate(0.000000, 0.150929)">
                                        <mask id="mask-22" fill="white">
                                            <use xlink:href="#path-21"></use>
                                        </mask>
                                        <g id="Clip-2"></g>
                                        <path d="M69.4311429,48.3537857 C76.074,35.9430714 73.7311429,6.24521429 46.6018571,1.18307143 C19.4732857,-3.87764286 2.12685714,23.3380714 0.954,35.9837857 C-0.219571429,48.6295 -1.02314286,50.2523571 3.00542857,55.1587857 C7.03328571,60.0659286 55.9354286,73.5673571 69.4311429,48.3537857" id="Fill-1" fill="#C4DCFF" mask="url(#mask-22)"></path>
                                    </g>
                                    <path d="M16.1164286,16.0130714 C16.1164286,18.2352143 14.315,20.0366429 12.0914286,20.0366429 C9.87071429,20.0366429 8.06928571,18.2352143 8.06928571,16.0130714 C8.06928571,13.7916429 9.87071429,11.9895 12.0914286,11.9895 C14.315,11.9895 16.1164286,13.7916429 16.1164286,16.0130714" id="Fill-4" fill="#0E314E"></path>
                                    <polygon id="Fill-6" fill="#FBB040" points="61.7720714 24.3577857 60.4670714 21.9706429 59.1613571 24.3577857 56.7735 25.6627857 59.1613571 26.9685 60.4670714 29.3549286 61.7720714 26.9685 64.1585 25.6627857"></polygon>
                                    <polygon id="Fill-8" fill="#FBB040" points="9.376 38.5284286 8.07028571 36.1412857 6.76528571 38.5284286 4.37742857 39.8334286 6.76528571 41.1391429 8.07028571 43.5262857 9.376 41.1391429 11.7617143 39.8334286"></polygon>
                                    <path d="M40.1795714,64.3871429 C40.1795714,66.5414286 38.4338571,68.2878571 36.2788571,68.2878571 C34.1252857,68.2878571 32.3788571,66.5414286 32.3788571,64.3871429 L32.3788571,17.2071429 C32.3788571,15.0535714 34.1252857,13.3071429 36.2788571,13.3071429 C38.4338571,13.3071429 40.1795714,15.0535714 40.1795714,17.2071429 L40.1795714,64.3871429 Z" id="Fill-10" fill="#FFF7E6"></path>
                                    <path d="M50.0415,23.1587143 C50.0415,25.8344286 47.8722143,28.0044286 45.1957857,28.0044286 L27.3629286,28.0044286 C24.6865,28.0044286 22.5172143,25.8344286 22.5172143,23.1587143 C22.5172143,20.4822857 24.6865,18.313 27.3629286,18.313 L45.1957857,18.313 C47.8722143,18.313 50.0415,20.4822857 50.0415,23.1587143" id="Fill-12" fill="#FFD522"></path>
                                    <path d="M53.5166429,33.338 C53.5166429,36.0144286 51.3466429,38.1837143 48.6709286,38.1837143 L23.8880714,38.1837143 C21.2116429,38.1837143 19.0416429,36.0144286 19.0416429,33.338 C19.0416429,30.6615714 21.2116429,28.4922857 23.8880714,28.4922857 L48.6709286,28.4922857 C51.3466429,28.4922857 53.5166429,30.6615714 53.5166429,33.338" id="Fill-14" fill="#C7674A"></path>
                                    <path d="M56.9911429,43.5172857 C56.9911429,46.1937143 54.8211429,48.3637143 52.1454286,48.3637143 L20.4132857,48.3637143 C17.7368571,48.3637143 15.5675714,46.1937143 15.5675714,43.5172857 C15.5675714,40.8408571 17.7368571,38.6715714 20.4132857,38.6715714 L52.1454286,38.6715714 C54.8211429,38.6715714 56.9911429,40.8408571 56.9911429,43.5172857" id="Fill-16" fill="#E84B18"></path>
                                    <path d="M60.4655714,53.6972143 C60.4655714,56.3729286 58.2962857,58.5429286 55.6198571,58.5429286 L16.9384286,58.5429286 C14.262,58.5429286 12.0927143,56.3729286 12.0927143,53.6972143 C12.0927143,51.0207857 14.262,48.8515 16.9384286,48.8515 L55.6198571,48.8515 C58.2962857,48.8515 60.4655714,51.0207857 60.4655714,53.6972143" id="Fill-18" fill="#3C478E"></path>
                                    <path d="M63.9407857,63.8765 C63.9407857,66.5529286 61.7707857,68.7222143 59.0950714,68.7222143 L13.4636429,68.7222143 C10.7872143,68.7222143 8.61792857,66.5529286 8.61792857,63.8765 C8.61792857,61.2000714 10.7872143,59.0307857 13.4636429,59.0307857 L59.0950714,59.0307857 C61.7707857,59.0307857 63.9407857,61.2000714 63.9407857,63.8765" id="Fill-20" fill="#00355A"></path>
                                </g>
                            </g>
                        </g>
                    </g>
                    <g id="Konsultasi-Pajak" transform="translate(2.000000, 289.000000)">
                        <text font-family="Rajdhani-SemiBold, Rajdhani" font-size="16" font-weight="500" line-spacing="24" letter-spacing="-0.00571428571" fill="#2E6B87">
                            <tspan x="16.4337143" y="99">Konsultasi Pajak</tspan>
                        </text>
                        <g id="ic_konsultasipajak-2" transform="translate(21.000000, 0.000000)">
                            <g id="ic_konsultasipajak">
                                <g id="Group-24" transform="translate(15.000000, 0.714286)">
                                    <g id="Group-3" transform="translate(4.285714, 0.615000)">
                                        <mask id="mask-24" fill="white">
                                            <use xlink:href="#path-23"></use>
                                        </mask>
                                        <g id="Clip-2"></g>
                                        <path d="M63.3425,13.4142857 C57.1853571,0.44 38.7125,-3.36857143 29.9646429,3.38571429 C21.2167857,10.14 -7.29892857,41.6935714 2.64607143,65.9971429 C9.65178571,83.1178571 44.5432143,79.6185714 54.7460714,68.6335714 C64.9489286,57.6478571 71.0739286,29.7071429 63.3425,13.4142857" id="Fill-1" fill="#E3EEFF" mask="url(#mask-24)"></path>
                                    </g>
                                    <g id="Group-6" transform="translate(0.000000, 5.615000)">
                                        <mask id="mask-26" fill="white">
                                            <use xlink:href="#path-25"></use>
                                        </mask>
                                        <g id="Clip-5"></g>
                                        <path d="M5.11114286,0.4985 C2.29257143,0.4985 -0.000285714286,2.78921429 -0.000285714286,5.60421429 L-0.000285714286,55.4420714 C-0.000285714286,58.2570714 2.29257143,60.5477857 5.11114286,60.5477857 L40.2432857,60.5477857 C43.0618571,60.5477857 45.3547143,58.2570714 45.3547143,55.4420714 L45.3547143,5.60421429 C45.3547143,2.78921429 43.0618571,0.4985 40.2432857,0.4985 L5.11114286,0.4985 Z" id="Fill-4" fill="#FFD522" mask="url(#mask-26)"></path>
                                    </g>
                                    <path d="M5.8725,10.2276429 C4.81535714,10.2276429 3.95464286,11.0862143 3.95464286,12.1412143 L3.95464286,20.3083571 C3.95464286,21.3647857 4.81535714,22.2240714 5.8725,22.2240714 L39.4817857,22.2240714 C40.5396429,22.2240714 41.3996429,21.3647857 41.3996429,20.3083571 L41.3996429,12.1412143 C41.3996429,11.0862143 40.5396429,10.2276429 39.4817857,10.2276429 L5.8725,10.2276429 Z" id="Fill-7" fill="#E77800"></path>
                                    <mask id="mask-28" fill="white">
                                        <use xlink:href="#path-27"></use>
                                    </mask>
                                    <g id="Clip-10"></g>
                                    <polygon id="Fill-9" fill="#00355A" mask="url(#mask-28)" points="3.61357143 36.9892857 10.4578571 36.9892857 10.4578571 30.1092857 3.61357143 30.1092857"></polygon>
                                    <polygon id="Fill-11" fill="#00355A" mask="url(#mask-28)" points="14.0421429 36.9892857 20.8842857 36.9892857 20.8842857 30.1092857 14.0421429 30.1092857"></polygon>
                                    <polygon id="Fill-12" fill="#00355A" mask="url(#mask-28)" points="24.47 36.9892857 31.3121429 36.9892857 31.3121429 30.1092857 24.47 30.1092857"></polygon>
                                    <polygon id="Fill-13" fill="#00355A" mask="url(#mask-28)" points="34.8957143 36.9892857 41.74 36.9892857 41.74 30.1092857 34.8957143 30.1092857"></polygon>
                                    <polygon id="Fill-14" fill="#00355A" mask="url(#mask-28)" points="3.61357143 47.5264286 10.4578571 47.5264286 10.4578571 40.6457143 3.61357143 40.6457143"></polygon>
                                    <polygon id="Fill-15" fill="#00355A" mask="url(#mask-28)" points="14.0421429 47.5264286 20.8842857 47.5264286 20.8842857 40.6457143 14.0421429 40.6457143"></polygon>
                                    <polygon id="Fill-16" fill="#00355A" mask="url(#mask-28)" points="24.47 47.5264286 31.3121429 47.5264286 31.3121429 40.6457143 24.47 40.6457143"></polygon>
                                    <polygon id="Fill-17" fill="#00355A" mask="url(#mask-28)" points="34.8957143 47.5264286 41.74 47.5264286 41.74 40.6457143 34.8957143 40.6457143"></polygon>
                                    <polygon id="Fill-18" fill="#00355A" mask="url(#mask-28)" points="3.61357143 58.0635714 10.4578571 58.0635714 10.4578571 51.1835714 3.61357143 51.1835714"></polygon>
                                    <polygon id="Fill-19" fill="#00355A" mask="url(#mask-28)" points="14.0421429 58.0635714 20.8842857 58.0635714 20.8842857 51.1835714 14.0421429 51.1835714"></polygon>
                                    <polygon id="Fill-20" fill="#00355A" mask="url(#mask-28)" points="24.47 58.0635714 31.3121429 58.0635714 31.3121429 51.1835714 24.47 51.1835714"></polygon>
                                    <polygon id="Fill-21" fill="#00355A" mask="url(#mask-28)" points="34.8957143 58.0635714 41.74 58.0635714 41.74 51.1835714 34.8957143 51.1835714"></polygon>
                                    <polygon id="Fill-22" fill="#FBB040" mask="url(#mask-28)" points="57.8890714 9.96957143 56.5833571 7.58242857 55.2783571 9.96957143 52.8905 11.2745714 55.2783571 12.5802857 56.5833571 14.9674286 57.8890714 12.5802857 60.2747857 11.2745714"></polygon>
                                    <polygon id="Fill-23" fill="#FBB040" mask="url(#mask-28)" points="52.3868571 20.1592857 51.0811429 17.7721429 49.7761429 20.1592857 47.3882857 21.4642857 49.7761429 22.77 51.0811429 25.1564286 52.3868571 22.77 54.7725714 21.4642857"></polygon>
                                </g>
                            </g>
                        </g>
                    </g>
                    <g id="Perencanaan-Keuangan" transform="translate(0.000000, 132.000000)">
                        <text font-family="Rajdhani-SemiBold, Rajdhani" font-size="16" font-weight="500" line-spacing="24" letter-spacing="-0.00571428571" fill="#2E6B87">
                            <tspan x="27.8034286" y="100">Perencanaan </tspan>
                            <tspan x="37.4828571" y="124">Keuangan</tspan>
                        </text>
                        <g id="ic_perencanaankeuangan-2" transform="translate(21.000000, 0.000000)">
                            <g id="ic_perencanaankeuangan">
                                <g id="Group-30" transform="translate(13.571429, 3.571429)">
                                    <g id="Group-6" transform="translate(0.000000, 2.232143)">
                                        <g id="Group-3">
                                            <mask id="mask-30" fill="white">
                                                <use xlink:href="#path-29"></use>
                                            </mask>
                                            <g id="Clip-2"></g>
                                            <path d="M3.6015,13.9385714 C-3.43278571,26.1321429 -2.03278571,55.8892857 24.9215,61.8107143 C51.8757857,67.7307143 70.0772143,41.0785714 71.6515,28.4771429 C73.2257857,15.875 74.0800714,14.2785714 70.2093571,9.24571429 C66.3393571,4.21357143 17.8907857,-10.8335714 3.6015,13.9385714" id="Fill-1" fill="#E3EEFF" mask="url(#mask-30)"></path>
                                        </g>
                                        <path d="M51.9141429,10.2052857 C49.627,10.4217143 48.0398571,9.50885714 47.1734286,8.79742857 C46.7141429,8.42028571 46.0791429,8.42028571 45.6191429,8.79742857 C44.7534286,9.50885714 43.1655714,10.4217143 40.8784286,10.2052857 C37.227,9.86028571 35.1984286,9.23957143 34.5491429,10.5738571 L42.0955714,23.5081429 L46.3962857,27.2617143 L50.697,23.5081429 L58.2434286,10.5738571 C57.5941429,9.23957143 55.5655714,9.86028571 51.9141429,10.2052857" id="Fill-4" fill="#FBB040"></path>
                                    </g>
                                    <g id="Group-9" transform="translate(39.285714, 11.517857)">
                                        <mask id="mask-32" fill="white">
                                            <use xlink:href="#path-31"></use>
                                        </mask>
                                        <g id="Clip-8"></g>
                                        <path d="M1.59285714,0.919285714 C1.12071429,0.875 0.677142857,0.825 0.258571429,0.776428571 L0.258571429,0.776428571 L5.00357143,11.345 L4.06142857,0.702142857 C3.35785714,0.904285714 2.53571429,1.00857143 1.59285714,0.919285714" id="Fill-7" fill="url(#linearGradient-33)" mask="url(#mask-32)"></path>
                                    </g>
                                    <path d="M43.3469286,12.2205 C42.6433571,12.4219286 41.8219286,12.5262143 40.8783571,12.4376429 C40.4062143,12.3926429 39.9626429,12.3433571 39.5440714,12.2947857 L44.2890714,22.8626429 L43.3469286,12.2205 Z" id="Fill-10" fill="#F09800"></path>
                                    <g id="Group-14" transform="translate(46.428571, 11.517857)">
                                        <mask id="mask-35" fill="white">
                                            <use xlink:href="#path-34"></use>
                                        </mask>
                                        <g id="Clip-13"></g>
                                        <path d="M5.48571429,0.919285714 C4.28785714,1.03285714 3.28357143,0.835714286 2.47285714,0.520714286 L2.47285714,0.520714286 L0.54,11.345 L2.18857143,12.2078571 L9.58,0.484285714 C8.555,0.536428571 7.20214286,0.757142857 5.48571429,0.919285714" id="Fill-12" fill="url(#linearGradient-36)" mask="url(#mask-35)"></path>
                                    </g>
                                    <g id="Group-29" transform="translate(22.857143, 0.089286)">
                                        <path d="M25.7604286,23.6357857 L33.1511429,11.9129286 C32.1261429,11.9650714 30.7732857,12.1857857 29.0568571,12.3479286 C27.859,12.4607857 26.8554286,12.2636429 26.044,11.9493571 L24.1111429,22.7736429 L25.7604286,23.6357857 Z" id="Fill-15" fill="#F09800"></path>
                                        <g id="Group-19" transform="translate(0.000000, 22.142857)">
                                            <mask id="mask-38" fill="white">
                                                <use xlink:href="#path-37"></use>
                                            </mask>
                                            <g id="Clip-18"></g>
                                            <path d="M28.4438571,1.49292857 L28.3045714,1.48007143 L28.3045714,0.630785714 L23.5395714,1.05578571 L18.7738571,0.630785714 L18.7738571,1.48007143 L18.6345714,1.49292857 C18.6345714,1.49292857 -1.95114286,17.6536429 0.820285714,41.8022143 C0.820285714,41.8022143 0.246,51.0686429 23.5395714,50.7043571 C46.8324286,51.0686429 46.2581429,41.8022143 46.2581429,41.8022143 C49.0295714,17.6536429 28.4438571,1.49292857 28.4438571,1.49292857" id="Fill-17" fill="#FBB040" mask="url(#mask-38)"></path>
                                        </g>
                                        <path d="M17.7756429,24.6256429 C17.2620714,24.6256429 16.8277857,24.2285 16.7899286,23.7085 C16.7492143,23.1635 17.1592143,22.6892143 17.7042143,22.6485 L29.3827857,21.7863571 C29.9192143,21.7449286 30.4020714,22.1556429 30.4420714,22.7013571 C30.4827857,23.2456429 30.0727857,23.7199286 29.5277857,23.7606429 L17.8499286,24.6227857 C17.8249286,24.6249286 17.8006429,24.6256429 17.7756429,24.6256429" id="Fill-20" fill="#FFFFFF"></path>
                                        <path d="M29.3939286,25.8407857 L29.3746429,25.8407857 L17.6660714,25.6179286 C17.1196429,25.6072143 16.6853571,25.1557857 16.6953571,24.6086429 C16.7060714,24.0693571 17.1467857,23.6379286 17.6846429,23.6379286 L17.7039286,23.6379286 L29.4125,23.8615 C29.9589286,23.8715 30.3932143,24.3229286 30.3832143,24.8700714 C30.3725,25.4093571 29.9310714,25.8407857 29.3939286,25.8407857" id="Fill-22" fill="#FFFFFF"></path>
                                        <path d="M6.904,3.1545 C6.51757143,6.87664286 4.45971429,9.74807143 1.92685714,9.95878571 C4.45971429,10.1695 6.51757143,13.0423571 6.904,16.7637857 C7.29042857,13.0423571 9.34828571,10.1695 11.8804286,9.95878571 C9.34828571,9.74807143 7.29042857,6.87664286 6.904,3.1545" id="Fill-24" fill="#FBB040"></path>
                                        <g id="Group-28" transform="translate(10.000000, 0.000000)">
                                            <mask id="mask-40" fill="white">
                                                <use xlink:href="#path-39"></use>
                                            </mask>
                                            <g id="Clip-27"></g>
                                            <path d="M2.92385714,0.6245 C2.70242857,2.75664286 1.52314286,4.40307143 0.0724285714,4.52378571 C1.52314286,4.6445 2.70242857,6.29021429 2.92385714,8.42235714 C3.14528571,6.29021429 4.32457143,4.6445 5.776,4.52378571 C4.32457143,4.40307143 3.14528571,2.75664286 2.92385714,0.6245" id="Fill-26" fill="#FBB040" mask="url(#mask-40)"></path>
                                        </g>
                                    </g>
                                </g>
                            </g>
                        </g>
                    </g>
                    <g id="Penerjemah-Bahasa" transform="translate(2.000000, 0.000000)">
                        <text font-family="Rajdhani-SemiBold, Rajdhani" font-size="16" font-weight="500" line-spacing="24" letter-spacing="-0.00571428571" fill="#2E6B87">
                            <tspan x="5.06057143" y="99">Penerjemah Bahasa</tspan>
                        </text>
                        <g id="ic_penerjemahbahasa-2" transform="translate(21.000000, 0.000000)">
                            <g id="ic_penerjemahbahasa">
                                <g id="Group-24" transform="translate(6.428571, 7.857143)">
                                    <path d="M8.41935714,53.0764286 C2.98578571,41.5192857 22.7379286,5.965 37.5115,6.23428571 C52.2843571,6.50428571 92.3529286,26.315 86.2750714,46.2971429 C80.1972143,66.2785714 16.3900714,70.0307143 8.41935714,53.0764286" id="Fill-1" fill="#C4DCFF"></path>
                                    <g id="Group-5" transform="translate(39.285714, 0.246357)">
                                        <mask id="mask-42" fill="white">
                                            <use xlink:href="#path-41"></use>
                                        </mask>
                                        <g id="Clip-4"></g>
                                        <path d="M47.4365,18.5569286 C46.8886429,15.1319286 45.5193571,11.8440714 43.2543571,8.99835714 C36.0929286,0.00407142857 20.6957857,-2.58164286 11.4965,4.65835714 C1.6315,12.4212143 -5.36278571,30.4626429 6.30007143,38.8047857 C7.6115,39.7419286 9.10364286,40.5533571 10.7215,41.2333571 C10.3000714,43.1962143 9.34078571,46.4826429 7.48007143,47.7276429 C7.48007143,47.7276429 14.4750714,48.2647857 17.1065,43.1119286 C27.4865,45.0397857 39.8086429,42.4497857 44.5929286,33.8847857 C47.2272143,29.1690714 48.2615,23.7097857 47.4365,18.5569286" id="Fill-3" fill="#FBB040" mask="url(#mask-42)"></path>
                                    </g>
                                    <path d="M64.7555,36.7217857 C60.1676429,36.1403571 55.7647857,34.2425 53.0476429,30.3646429 C50.2740714,26.4060714 49.1990714,21.3732143 49.5097857,16.5910714 C49.8040714,12.0496429 51.0962143,7.42321429 54.5147857,4.2325 C55.7926429,3.03892857 57.2226429,2.06392857 58.7405,1.23964286 C55.8462143,1.8675 53.1147857,3.06892857 50.7826429,4.90464286 C40.9169286,12.6675 33.9226429,30.7089286 45.5855,39.0510714 C46.8969286,39.9882143 48.3890714,40.7996429 50.0069286,41.4796429 C49.5855,43.4425 48.6262143,46.7289286 46.7655,47.9739286 C46.7655,47.9739286 53.7612143,48.5110714 56.3919286,43.3582143 C66.7719286,45.2860714 79.0940714,42.6960714 83.8783571,34.1310714 C84.3526429,33.2839286 84.7726429,32.4103571 85.1419286,31.5203571 C79.5840714,36.0553571 71.7597857,37.6110714 64.7555,36.7217857" id="Fill-6" fill="#F28B12"></path>
                                    <path d="M58.3938571,23.6714286 C58.3938571,25.1664286 57.1817143,26.3785714 55.6867143,26.3785714 C54.191,26.3785714 52.9795714,25.1664286 52.9795714,23.6714286 C52.9795714,22.1757143 54.191,20.9642857 55.6867143,20.9642857 C57.1817143,20.9642857 58.3938571,22.1757143 58.3938571,23.6714286" id="Fill-8" fill="#FFFFFF"></path>
                                    <path d="M66.9520714,23.2975714 C66.9520714,24.7925714 65.7399286,26.004 64.2442143,26.004 C62.7499286,26.004 61.5377857,24.7925714 61.5377857,23.2975714 C61.5377857,21.8011429 62.7499286,20.5897143 64.2442143,20.5897143 C65.7399286,20.5897143 66.9520714,21.8011429 66.9520714,23.2975714" id="Fill-10" fill="#FFFFFF"></path>
                                    <path d="M75.5098571,22.9222857 C75.5098571,24.4172857 74.2984286,25.6294286 72.8027143,25.6294286 C71.3077143,25.6294286 70.0955714,24.4172857 70.0955714,22.9222857 C70.0955714,21.4265714 71.3077143,20.2151429 72.8027143,20.2151429 C74.2984286,20.2151429 75.5098571,21.4265714 75.5098571,22.9222857" id="Fill-12" fill="#FFFFFF"></path>
                                    <path d="M0.210285714,34.934 C0.626,32.3375714 1.66314286,29.8447143 3.38028571,27.6875714 C8.81028571,20.8704286 20.4824286,18.909 27.456,24.3975714 C34.9352857,30.2825714 40.2374286,43.9597143 31.396,50.284 C30.4017143,50.9947143 29.2702857,51.6097143 28.0438571,52.1247143 C28.3638571,53.6132857 29.0902857,56.1047143 30.5017143,57.0482857 C30.5017143,57.0482857 25.1981429,57.4554286 23.2031429,53.5497143 C15.3345714,55.0104286 5.99314286,53.0468571 2.366,46.5547143 C0.368857143,42.9797143 -0.414714286,38.8404286 0.210285714,34.934" id="Fill-14" fill="#FFD522"></path>
                                    <path d="M16.8631429,48.5187143 C20.3417143,48.0772857 23.6788571,46.6387143 25.7388571,43.6987143 C27.8417143,40.698 28.6567143,36.883 28.421,33.2572857 C28.1974286,29.8137143 27.2181429,26.3072857 24.6267143,23.8887143 C23.6581429,22.9837143 22.5738571,22.2451429 21.4231429,21.6194286 C23.6174286,22.0958571 25.6874286,23.0058571 27.456,24.3972857 C34.9352857,30.283 40.2374286,43.9594286 31.396,50.2844286 C30.4017143,50.9951429 29.2702857,51.6094286 28.0438571,52.1251429 C28.3638571,53.6137143 29.0902857,56.1044286 30.5017143,57.048 C30.5017143,57.048 25.1981429,57.4558571 23.2031429,53.5494286 C15.3345714,55.0108571 5.99314286,53.0472857 2.366,46.5544286 C2.00671429,45.9115714 1.68814286,45.2501429 1.40814286,44.5751429 C5.62171429,48.013 11.5531429,49.1922857 16.8631429,48.5187143" id="Fill-16" fill="#F09800"></path>
                                    <path d="M21.6859286,38.6247143 C21.6859286,39.7582857 22.6052143,40.6768571 23.7380714,40.6768571 C24.8716429,40.6768571 25.7902143,39.7582857 25.7902143,38.6247143 C25.7902143,37.4911429 24.8716429,36.5725714 23.7380714,36.5725714 C22.6052143,36.5725714 21.6859286,37.4911429 21.6859286,38.6247143" id="Fill-18" fill="#FFFFFF"></path>
                                    <path d="M15.1980714,38.3415 C15.1980714,39.4743571 16.1166429,40.3936429 17.2509286,40.3936429 C18.3837857,40.3936429 19.3023571,39.4743571 19.3023571,38.3415 C19.3023571,37.2072143 18.3837857,36.2886429 17.2509286,36.2886429 C16.1166429,36.2886429 15.1980714,37.2072143 15.1980714,38.3415" id="Fill-20" fill="#FFFFFF"></path>
                                    <path d="M8.71021429,38.0569286 C8.71021429,39.1905 9.62878571,40.1090714 10.7623571,40.1090714 C11.8959286,40.1090714 12.8145,39.1905 12.8145,38.0569286 C12.8145,36.9233571 11.8959286,36.0047857 10.7623571,36.0047857 C9.62878571,36.0047857 8.71021429,36.9233571 8.71021429,38.0569286" id="Fill-22" fill="#FFFFFF"></path>
                                </g>
                            </g>
                        </g>
                    </g>
                </g>
            </g>
        </g>
    </g>
</svg>