<?xml version="1.0" encoding="UTF-8"?>
<svg width="32px" height="32px" viewBox="0 0 32 32" version="1.1" xmlns="http://www.w3.org/2000/svg" xmlns:xlink="http://www.w3.org/1999/xlink">
    <!-- Generator: sketchtool 62 (101010) - https://sketch.com -->
    <title>11150BBE-9A7F-4405-A058-567D98FF4594</title>
    <desc>Created with sketchtool.</desc>
    <g id="home" stroke="none" stroke-width="1" fill="none" fill-rule="evenodd">
        <g id="t_i_home_p2" transform="translate(-392.000000, -1063.000000)" fill="#C8DDE7">
            <g id="Footer-tablet" transform="translate(0.000000, 980.000000)">
                <g id="Footer-IN">
                    <g id="Media-Social" transform="translate(296.000000, 83.000000)">
                        <path d="M120.268,19.874 C120.268,22.175 118.402,24.04 116.101,24.04 L108.095,24.04 C105.793,24.04 103.928,22.175 103.928,19.874 L103.928,11.867 C103.928,9.566 105.793,7.701 108.095,7.701 L116.101,7.701 C118.402,7.701 120.268,9.566 120.268,11.867 L120.268,19.874 Z M122.167,11.867 C122.167,8.517 119.452,5.801 116.101,5.801 L108.095,5.801 C104.745,5.801 102.029,8.517 102.029,11.867 L102.029,19.874 C102.029,23.224 104.745,25.94 108.095,25.94 L116.101,25.94 C119.452,25.94 122.167,23.224 122.167,19.874 L122.167,11.867 Z M112.132,19.186 C110.375,19.186 108.947,17.757 108.947,16 C108.947,14.244 110.375,12.814 112.132,12.814 C113.889,12.814 115.318,14.244 115.318,16 C115.318,17.757 113.889,19.186 112.132,19.186 L112.132,19.186 Z M112.132,11.027 C109.39,11.027 107.159,13.258 107.159,16 C107.159,18.743 109.39,20.974 112.132,20.974 C114.874,20.974 117.106,18.743 117.106,16 C117.106,13.258 114.874,11.027 112.132,11.027 L112.132,11.027 Z M117.396,9.509 C116.742,9.509 116.211,10.039 116.211,10.692 C116.211,11.347 116.742,11.876 117.396,11.876 C118.049,11.876 118.58,11.347 118.58,10.692 C118.58,10.039 118.049,9.509 117.396,9.509 L117.396,9.509 Z M112,32 C103.178,32 96,24.822 96,16 C96,7.178 103.178,0 112,0 C120.823,0 128,7.178 128,16 C128,24.822 120.823,32 112,32 L112,32 Z" id="ic_insta"></path>
                    </g>
                </g>
            </g>
        </g>
    </g>
</svg>