<?xml version="1.0" encoding="UTF-8"?>
<svg width="120px" height="100px" viewBox="0 0 120 100" version="1.1" xmlns="http://www.w3.org/2000/svg" xmlns:xlink="http://www.w3.org/1999/xlink">
    <!-- Generator: sketchtool 62 (101010) - https://sketch.com -->
    <title>F8405108-0C6E-4CDB-BE3B-AC08E70BF77B</title>
    <desc>Created with sketchtool.</desc>
    <defs>
        <path d="M5.92,4.705 L3.069,36.386 L0.22,68.044 C-0.033,70.847 2.025,73.346 4.793,73.595 L4.793,73.595 L19.89,74.954 L35.021,76.316 C37.771,76.545 40.221,74.465 40.478,71.677 L40.478,71.677 L43.328,40.01 L46.176,8.353 C46.429,5.549 44.371,3.05 41.604,2.801 L41.604,2.801 L29.224,1.687 L11.363,0.079 C11.229,0.068 11.095,0.063 10.963,0.063 L10.963,0.063 C8.389,0.063 6.17,2.064 5.92,4.705" id="path-1"></path>
        <linearGradient x1="49.1400213%" y1="65.8648921%" x2="53.2509352%" y2="-9.95670734%" id="linearGradient-3">
            <stop stop-color="#022FA0" offset="0%"></stop>
            <stop stop-color="#23A1FB" offset="100%"></stop>
        </linearGradient>
        <path d="M5.936,3.065 L0.4,64.581 C0.272,65.996 1.348,67.27 2.787,67.427 L2.787,67.427 L33.55,70.196 C34.999,70.304 36.289,69.24 36.416,67.824 L36.416,67.824 L41.954,6.307 C42.081,4.89 41.002,3.614 39.557,3.461 L39.557,3.461 L33.603,2.925 L13.548,1.119 L13.466,1.112 L11.308,0.918 L8.844,0.696 C8.762,0.689 8.681,0.686 8.6,0.686 L8.6,0.686 C7.236,0.686 6.057,1.715 5.936,3.065" id="path-4"></path>
        <polygon id="path-6" points="19.226 0.208 13.996 14.102 0.628 19.694 0.628 19.694 12.225 28.961 13.413 43.402 25.81 35.238 39.911 38.57 35.976 24.256 43.505 11.876 43.505 11.875 28.675 11.195 19.227 0.208"></polygon>
        <linearGradient x1="63.0149067%" y1="112.179628%" x2="46.9768616%" y2="19.1479013%" id="linearGradient-8">
            <stop stop-color="#FFBF44" offset="0%"></stop>
            <stop stop-color="#E96200" offset="100%"></stop>
        </linearGradient>
    </defs>
    <g id="How-It-Works" stroke="none" stroke-width="1" fill="none" fill-rule="evenodd">
        <g id="w_i_HIW_P" transform="translate(-843.000000, -868.000000)">
            <g id="Form" transform="translate(323.000000, 276.000000)">
                <g id="Group-4-Copy-4" transform="translate(80.000000, 592.000000)">
                    <g id="img_hiw_p5-2" transform="translate(440.000000, 0.000000)">
                        <g id="img_hiw_p5">
                            <g id="Group-60" transform="translate(18.000000, 8.000000)">
                                <path d="M36.6016,0.6504 L66.7956,3.3684 C69.5646,3.6174 71.6226,6.1154 71.3706,8.9204 L65.6706,72.2334 C65.4186,75.0384 62.9486,77.1294 60.1796,76.8794 L29.9856,74.1624 C27.2176,73.9134 25.1606,71.4154 25.4126,68.6104 L31.1106,5.2964 C31.3636,2.4924 33.8336,0.4014 36.6016,0.6504" id="Fill-1" fill="#092979"></path>
                                <g id="Group-5" transform="translate(23.000000, 0.369800)">
                                    <mask id="mask-2" fill="white">
                                        <use xlink:href="#path-1"></use>
                                    </mask>
                                    <g id="Clip-4"></g>
                                    <path d="M5.92,4.705 L3.069,36.386 L0.22,68.044 C-0.033,70.847 2.025,73.346 4.793,73.595 L4.793,73.595 L19.89,74.954 L35.021,76.316 C37.771,76.545 40.221,74.465 40.478,71.677 L40.478,71.677 L43.328,40.01 L46.176,8.353 C46.429,5.549 44.371,3.05 41.604,2.801 L41.604,2.801 L29.224,1.687 L11.363,0.079 C11.229,0.068 11.095,0.063 10.963,0.063 L10.963,0.063 C8.389,0.063 6.17,2.064 5.92,4.705" id="Fill-3" fill="url(#linearGradient-3)" mask="url(#mask-2)"></path>
                                </g>
                                <g id="Group-8" transform="translate(25.000000, 3.369800)">
                                    <mask id="mask-5" fill="white">
                                        <use xlink:href="#path-4"></use>
                                    </mask>
                                    <g id="Clip-7"></g>
                                    <path d="M5.936,3.065 L0.4,64.581 C0.272,65.996 1.348,67.27 2.787,67.427 L2.787,67.427 L33.55,70.196 C34.999,70.304 36.289,69.24 36.416,67.824 L36.416,67.824 L41.954,6.307 C42.081,4.89 41.002,3.614 39.557,3.461 L39.557,3.461 L33.603,2.925 L13.548,1.119 L13.466,1.112 L11.308,0.918 L8.844,0.696 C8.762,0.689 8.681,0.686 8.6,0.686 L8.6,0.686 C7.236,0.686 6.057,1.715 5.936,3.065" id="Fill-6" fill="#FFFFFF" mask="url(#mask-5)"></path>
                                </g>
                                <g id="Group-23" transform="translate(3.000000, 2.369800)">
                                    <path d="M30.8447,1.6966 C29.3787,1.5646 28.0647,2.6346 27.9367,4.0646 L27.7477,6.1596 L63.7647,9.4006 L63.9527,7.3066 C64.0817,5.8766 62.9797,4.5886 61.5137,4.4566 L59.4717,4.2726 L56.8117,4.0336 L35.5477,2.1196 L35.0927,2.0786 L30.8447,1.6966 Z" id="Fill-9" fill="#CAF0FF"></path>
                                    <path d="M49.4063,1.1185 L42.0853,0.4595 C41.8733,0.4405 41.6833,0.5975 41.6653,0.8095 L41.6643,0.8095 C41.6453,1.0215 41.8033,1.2105 42.0153,1.2295 L49.3373,1.8895 C49.5493,1.9075 49.7373,1.7505 49.7573,1.5385 C49.7763,1.3265 49.6183,1.1385 49.4063,1.1185" id="Fill-11" fill="#1E2187"></path>
                                    <path d="M33.4111,3.7845 L42.9941,4.6475 C43.3491,4.6795 43.6141,4.9965 43.5821,5.3515 C43.5501,5.7075 43.2321,5.9725 42.8771,5.9395 L33.2951,5.0775 C32.9391,5.0455 32.6751,4.7285 32.7071,4.3735 C32.7381,4.0175 33.0561,3.7535 33.4111,3.7845" id="Fill-13" fill="#B1DFF7"></path>
                                    <path d="M30.542,3.2308 C31.027,3.2748 31.386,3.7038 31.342,4.1888 C31.298,4.6748 30.869,5.0328 30.384,4.9898 C29.898,4.9458 29.54,4.5168 29.584,4.0308 C29.628,3.5448 30.057,3.1878 30.542,3.2308" id="Fill-15" fill="#B1DFF7"></path>
                                    <path d="M61.1855,5.7025 C61.8285,5.7605 62.3015,6.3285 62.2445,6.9715 C62.1865,7.6125 61.6185,8.0875 60.9755,8.0295 C60.3325,7.9715 59.8595,7.4035 59.9165,6.7615 C59.9745,6.1185 60.5425,5.6445 61.1855,5.7025" id="Fill-17" fill="#B1DFF7"></path>
                                    <path d="M66.8457,9.4085 L67.0707,9.4295 C67.1937,9.4395 67.2847,9.5505 67.2737,9.6735 L66.5667,17.5325 C66.5557,17.6555 66.4457,17.7475 66.3227,17.7365 L66.0977,17.7165 L66.8457,9.4085 Z" id="Fill-19" fill="#1B83E1"></path>
                                    <polygon id="Fill-21" fill="#DD6909" points="18.7178 7.7991 28.1668 18.7851 41.3698 19.3921 42.9958 19.4661 35.4678 31.8471 38.9718 44.5921 39.4038 46.1611 36.9108 46.5701 25.3008 42.8281 14.2628 50.0991 12.9038 50.9931 10.4118 51.4031 11.7158 36.5521 1.3908 28.3001 0.1188 27.2841 13.4878 21.6931 16.2268 8.2081"></polygon>
                                </g>
                                <g id="Group-26" transform="translate(0.000000, 10.369800)">
                                    <mask id="mask-7" fill="white">
                                        <use xlink:href="#path-6"></use>
                                    </mask>
                                    <g id="Clip-25"></g>
                                    <polygon id="Fill-24" fill="url(#linearGradient-8)" mask="url(#mask-7)" points="19.226 0.208 13.996 14.102 0.628 19.694 0.628 19.694 12.225 28.961 13.413 43.402 25.81 35.238 39.911 38.57 35.976 24.256 43.505 11.876 43.505 11.875 28.675 11.195 19.227 0.208"></polygon>
                                </g>
                                <g id="Group-59" transform="translate(45.000000, 29.369800)">
                                    <path d="M22.4385,44.0824 C24.4695,39.0714 22.0545,33.3614 17.0435,31.3304 C12.0325,29.2984 6.3235,31.7144 4.2925,36.7254 C2.2595,41.7354 4.6745,47.4454 9.6865,49.4774 C14.6975,51.5094 20.4065,49.0944 22.4385,44.0824" id="Fill-27" fill="#3C9B14"></path>
                                    <path d="M21.3545,34.5579 C22.0605,32.7839 21.1945,30.7719 19.4195,30.0659 C17.6455,29.3599 15.6345,30.2269 14.9285,32.0009 C14.2225,33.7759 15.0885,35.7869 16.8635,36.4929 C18.6375,37.1989 20.6485,36.3319 21.3545,34.5579" id="Fill-29" fill="#3C9B14"></path>
                                    <path d="M1.5,42.6663 C0.362,35.9173 4.91,29.5233 11.66,28.3853 C18.408,27.2473 24.803,31.7963 25.94,38.5453 C27.078,45.2943 22.529,51.6873 15.78,52.8253 C9.031,53.9633 2.638,49.4143 1.5,42.6663" id="Fill-31" fill="#E58927"></path>
                                    <path d="M0.6299,41.9212 C-0.5081,35.1732 4.0399,28.7792 10.7889,27.6412 C17.5379,26.5032 23.9319,31.0522 25.0689,37.8012 C26.2079,44.5502 21.6589,50.9432 14.9099,52.0812 C8.1609,53.2202 1.7679,48.6712 0.6299,41.9212" id="Fill-33" fill="#FFEF95"></path>
                                    <path d="M1.0859,42.2659 C-0.0521,35.5169 4.4969,29.1229 11.2459,27.9859 C17.9949,26.8469 24.3889,31.3959 25.5259,38.1449 C26.6639,44.8939 22.1149,51.2869 15.3669,52.4249 C8.6169,53.5639 2.2249,49.0149 1.0859,42.2659" id="Fill-35" fill="#FBCA0D"></path>
                                    <path d="M2.9346,41.9534 C1.9696,36.2254 5.8306,30.8004 11.5576,29.8344 C17.2856,28.8684 22.7116,32.7284 23.6776,38.4564 C24.6426,44.1834 20.7836,49.6104 15.0546,50.5764 C9.3276,51.5424 3.9016,47.6824 2.9346,41.9534" id="Fill-37" fill="#FCA700"></path>
                                    <path d="M17.2402,30.4388 C19.7072,32.4328 21.0602,34.9278 21.4072,36.9858 C23.0782,46.8938 14.0272,50.6998 5.5072,47.2528 C7.8352,49.8198 11.3822,51.1828 15.0522,50.5638 C20.7802,49.5978 24.6412,44.1718 23.6752,38.4448 C23.0452,34.7058 20.5132,31.7628 17.2402,30.4388" id="Fill-39" fill="#EC830E"></path>
                                    <path d="M4.9121,42.596 C4.0591,37.54 7.4671,32.75 12.5231,31.898 C15.4781,31.4 18.3431,32.357 20.3831,34.248 C18.3391,31.771 15.0641,30.423 11.6701,30.995 C6.6141,31.848 3.2061,36.638 4.0581,41.694 C4.4131,43.794 5.4471,45.61 6.8981,46.954 C5.8971,45.742 5.1921,44.258 4.9121,42.596" id="Fill-41" fill="#FFD915"></path>
                                    <path d="M35.9834,16.9632 C38.0154,11.9522 35.5994,6.2432 30.5884,4.2112 C25.5784,2.1792 19.8694,4.5952 17.8374,9.6062 C15.8054,14.6162 18.2204,20.3262 23.2314,22.3582 C28.2434,24.3902 33.9524,21.9752 35.9834,16.9632" id="Fill-43" fill="#3C9B14"></path>
                                    <path d="M34.9004,7.4388 C35.6054,5.6648 34.7404,3.6528 32.9654,2.9468 C31.1904,2.2408 29.1794,3.1078 28.4734,4.8818 C27.7674,6.6568 28.6334,8.6678 30.4084,9.3738 C32.1824,10.0798 34.1944,9.2128 34.9004,7.4388" id="Fill-45" fill="#3C9B14"></path>
                                    <path d="M15.0449,15.5472 C13.9069,8.7982 18.4559,2.4042 25.2049,1.2662 C31.9539,0.1282 38.3479,4.6772 39.4849,11.4262 C40.6239,18.1752 36.0749,24.5682 29.3259,25.7062 C22.5769,26.8442 16.1839,22.2952 15.0449,15.5472" id="Fill-47" fill="#E58927"></path>
                                    <path d="M14.1748,14.8021 C13.0368,8.0541 17.5858,1.6601 24.3338,0.5221 C31.0838,-0.6159 37.4778,3.9331 38.6148,10.6821 C39.7528,17.4311 35.2048,23.8241 28.4548,24.9621 C21.7058,26.1011 15.3128,21.5521 14.1748,14.8021" id="Fill-49" fill="#FFEF95"></path>
                                    <path d="M14.6318,15.1468 C13.4928,8.3978 18.0418,2.0038 24.7908,0.8668 C31.5398,-0.2722 37.9338,4.2768 39.0708,11.0258 C40.2098,17.7748 35.6608,24.1678 28.9118,25.3058 C22.1628,26.4448 15.7698,21.8958 14.6318,15.1468" id="Fill-51" fill="#FBCA0D"></path>
                                    <path d="M16.4805,14.8343 C15.5145,9.1063 19.3755,3.6813 25.1025,2.7153 C30.8305,1.7493 36.2565,5.6093 37.2225,11.3373 C38.1885,17.0643 34.3285,22.4913 28.6005,23.4573 C22.8735,24.4233 17.4465,20.5633 16.4805,14.8343" id="Fill-53" fill="#FCA700"></path>
                                    <path d="M30.7852,3.3197 C33.2522,5.3137 34.6052,7.8087 34.9522,9.8667 C36.6232,19.7747 27.5722,23.5807 19.0522,20.1337 C21.3802,22.7007 24.9282,24.0637 28.5982,23.4447 C34.3262,22.4787 38.1862,17.0527 37.2212,11.3257 C36.5902,7.5867 34.0592,4.6437 30.7852,3.3197" id="Fill-55" fill="#EC830E"></path>
                                    <path d="M18.457,15.4769 C17.604,10.4209 21.013,5.6309 26.068,4.7789 C29.023,4.2809 31.888,5.2379 33.929,7.1289 C31.885,4.6519 28.61,3.3039 25.216,3.8759 C20.159,4.7289 16.752,9.5189 17.604,14.5749 C17.958,16.6749 18.993,18.4909 20.443,19.8349 C19.443,18.6229 18.737,17.1389 18.457,15.4769" id="Fill-57" fill="#FFD915"></path>
                                </g>
                            </g>
                        </g>
                    </g>
                </g>
            </g>
        </g>
    </g>
</svg>