<?xml version="1.0" encoding="UTF-8"?>
<svg width="120px" height="100px" viewBox="0 0 120 100" version="1.1" xmlns="http://www.w3.org/2000/svg" xmlns:xlink="http://www.w3.org/1999/xlink">
    <!-- Generator: sketchtool 62 (101010) - https://sketch.com -->
    <title>8BE5E98D-6F1F-4646-8259-3BF13FA5D1DA</title>
    <desc>Created with sketchtool.</desc>
    <defs>
        <path d="M8.042,0.779 L7.966,0.779 L7.965,0.779 L7.887,0.779 L7.887,0.779 L7.809,0.779 L7.808,0.779 L7.731,0.779 L7.73,0.779 L7.654,0.779 L7.652,0.779 L7.575,0.779 L7.573,0.779 L7.498,0.779 L7.496,0.779 L7.419,0.779 L7.418,0.779 L7.341,0.779 L7.339,0.779 L7.263,0.779 L7.261,0.779 L7.186,0.779 L7.183,0.779 L7.107,0.779 L7.105,0.779 L7.029,0.779 L7.027,0.779 L6.951,0.779 L6.949,0.779 L6.872,0.779 L6.87,0.779 L6.795,0.779 L6.794,0.779 L6.717,0.779 L6.715,0.779 L6.638,0.779 L6.637,0.779 L6.56,0.779 L6.559,0.779 L6.482,0.779 L6.481,0.779 L6.404,0.779 L6.402,0.779 L6.326,0.779 L6.325,0.779 L6.248,0.779 L6.247,0.779 L6.169,0.779 L6.169,0.779 L6.091,0.779 L6.09,0.779 L6.014,0.779 L6.012,0.779 L5.935,0.779 L5.934,0.779 L5.858,0.779 L5.856,0.779 L5.78,0.779 L5.778,0.779 L5.701,0.779 L5.7,0.779 L5.624,0.779 L5.621,0.779 L5.546,0.779 L5.544,0.779 L5.467,0.779 L5.466,0.779 L5.389,0.779 L5.387,0.779 L5.311,0.779 L5.309,0.779 L5.233,0.779 L5.231,0.779 L5.155,0.779 L5.154,0.779 L5.077,0.779 L5.075,0.779 L4.999,0.779 L4.998,0.779 L4.92,0.779 L4.919,0.779 L4.843,0.779 L4.841,0.779 L4.764,0.779 L4.764,0.779 L4.686,0.779 L4.685,0.779 L4.608,0.779 L4.607,0.779 L4.53,0.779 L4.529,0.779 L4.452,0.779 L4.45,0.779 L4.375,0.779 L4.373,0.779 L4.296,0.779 L4.295,0.779 L4.218,0.779 L4.216,0.779 L4.14,0.779 L4.138,0.779 L4.063,0.779 L4.06,0.779 L3.984,0.779 L3.982,0.779 L3.906,0.779 L3.904,0.779 L3.828,0.779 L3.826,0.779 L3.749,0.779 L3.747,0.779 L3.672,0.779 L3.67,0.779 L3.594,0.779 L3.593,0.779 L3.515,0.779 L3.046,0.779 C2.776,6.43 3.237,13.257 0.382,15.711 L0.382,15.711 C0.195,15.872 0.245,16.472 0.209,16.686 L0.209,16.686 L11.398,16.686 C11.363,16.472 11.361,15.872 11.176,15.711 L11.176,15.711 C8.321,13.257 8.782,6.43 8.512,0.779 L8.512,0.779 L8.042,0.779 Z" id="path-1"></path>
        <linearGradient x1="48.6383006%" y1="80.3985774%" x2="52.2715758%" y2="-2.57495505%" id="linearGradient-3">
            <stop stop-color="#FFBF44" offset="0%"></stop>
            <stop stop-color="#E96200" offset="100%"></stop>
        </linearGradient>
        <path d="M5.878,1.244 C4.808,1.773 3.806,2.584 2.973,3.626 L2.973,3.626 C2.146,4.659 1.486,5.918 1.092,7.351 L1.092,7.351 C-1.11022302e-16,11.318 0.923,16.626 6.052,22.062 L6.052,22.062 C7.923,24.047 11.276,26.492 13.798,28.333 L13.798,28.333 C14.645,28.95 15.403,29.504 15.831,29.83 L15.831,29.83 C15.951,29.922 16.105,30.037 16.265,30.156 L16.265,30.156 C17.119,30.792 18.213,31.608 18.542,32.649 L18.542,32.649 C18.701,33.156 18.49,34.353 18.174,34.972 L18.174,34.972 C17.774,35.752 18.028,36.74 18.74,37.176 L18.74,37.176 C19.452,37.613 20.353,37.336 20.751,36.556 L20.751,36.556 C23.047,32.082 20.118,29.121 17.919,27.483 L17.919,27.483 C17.788,27.386 17.663,27.292 17.518,27.182 L17.518,27.182 C16.845,26.668 16.177,26.179 15.429,25.633 L15.429,25.633 C12.985,23.851 9.738,21.482 8.098,19.743 L8.098,19.743 C3.926,15.32 3.111,11.232 3.924,8.276 L3.924,8.276 C4.193,7.3 4.639,6.448 5.192,5.755 L5.192,5.755 C5.739,5.072 6.394,4.541 7.091,4.197 L7.091,4.197 C8.492,3.505 10.063,3.606 11.178,4.818 L11.178,4.818 C11.657,5.339 11.896,5.874 11.968,6.367 L11.968,6.367 C12.021,6.728 11.989,7.072 11.9,7.374 L11.9,7.374 C11.818,7.654 11.691,7.889 11.542,8.053 L11.542,8.053 C11.462,8.141 11.403,8.193 11.373,8.198 L11.373,8.198 C10.569,8.338 10.02,9.166 10.148,10.048 L10.148,10.048 C10.276,10.93 11.032,11.531 11.837,11.391 L11.837,11.391 C12.499,11.274 13.125,10.897 13.634,10.335 L13.634,10.335 C14.098,9.822 14.481,9.14 14.71,8.363 L14.71,8.363 C14.932,7.607 15.012,6.751 14.882,5.861 L14.882,5.861 C14.718,4.736 14.223,3.573 13.26,2.526 L13.26,2.526 C11.988,1.143 10.437,0.516 8.86,0.516 L8.86,0.516 C7.855,0.516 6.839,0.77 5.878,1.244" id="path-4"></path>
        <linearGradient x1="49.3216193%" y1="64.9546838%" x2="54.8269676%" y2="-1.13348796%" id="linearGradient-6">
            <stop stop-color="#FFBF44" offset="0%"></stop>
            <stop stop-color="#E96200" offset="100%"></stop>
        </linearGradient>
        <path d="M8.31,2.526 C7.347,3.573 6.852,4.736 6.687,5.861 L6.687,5.861 C6.556,6.751 6.637,7.607 6.859,8.363 L6.859,8.363 C7.087,9.14 7.47,9.822 7.934,10.335 L7.934,10.335 C8.444,10.897 9.069,11.274 9.733,11.391 L9.733,11.391 C10.538,11.531 11.292,10.93 11.421,10.048 L11.421,10.048 C11.549,9.166 11,8.338 10.195,8.198 L10.195,8.198 C10.165,8.193 10.106,8.141 10.027,8.053 L10.027,8.053 C9.878,7.889 9.751,7.654 9.669,7.374 L9.669,7.374 C9.579,7.072 9.547,6.728 9.6,6.367 L9.6,6.367 C9.672,5.874 9.912,5.339 10.39,4.818 L10.39,4.818 C11.506,3.606 13.077,3.505 14.477,4.197 L14.477,4.197 C15.176,4.541 15.831,5.072 16.376,5.755 L16.376,5.755 C16.932,6.448 17.375,7.3 17.644,8.276 L17.644,8.276 C18.458,11.232 17.644,15.32 13.47,19.743 L13.47,19.743 C11.831,21.482 8.583,23.851 6.141,25.633 L6.141,25.633 C5.392,26.179 4.724,26.668 4.051,27.182 L4.051,27.182 C3.906,27.292 3.78,27.386 3.65,27.483 L3.65,27.483 C1.451,29.121 -1.397,32.011 0.899,36.485 L0.899,36.485 C1.299,37.265 2.199,37.542 2.911,37.106 L2.911,37.106 C3.622,36.669 3.876,35.681 3.478,34.901 L3.478,34.901 C3.219,34.399 2.886,33.369 2.957,32.943 L2.957,32.943 C3.153,31.759 4.37,30.851 5.304,30.156 L5.304,30.156 C5.464,30.037 5.618,29.922 5.738,29.83 L5.738,29.83 C6.166,29.504 6.924,28.95 7.771,28.333 L7.771,28.333 C10.292,26.492 13.646,24.047 15.517,22.062 L15.517,22.062 C20.645,16.626 21.569,11.318 20.478,7.351 L20.478,7.351 C20.083,5.918 19.423,4.659 18.597,3.626 L18.597,3.626 C17.762,2.584 16.761,1.773 15.691,1.244 L15.691,1.244 C14.73,0.77 13.714,0.516 12.71,0.516 L12.71,0.516 C11.131,0.516 9.58,1.143 8.31,2.526" id="path-7"></path>
        <linearGradient x1="50.6515889%" y1="64.9291728%" x2="41.2066254%" y2="-51.6414891%" id="linearGradient-9">
            <stop stop-color="#FFBF44" offset="0%"></stop>
            <stop stop-color="#E96200" offset="100%"></stop>
        </linearGradient>
        <path d="M1.421,0.83 C1.126,0.83 0.885,1.071 0.885,1.366 L0.885,1.366 L0.885,1.9 C0.885,23.516 9.794,41.04 20.785,41.04 L20.785,41.04 C31.774,41.04 40.683,23.516 40.683,1.9 L40.683,1.9 L40.677,1.9 L40.677,1.366 C40.677,1.071 40.438,0.83 40.142,0.83 L40.142,0.83 L1.421,0.83 Z" id="path-10"></path>
        <linearGradient x1="49.876573%" y1="72.1730617%" x2="50.2981982%" y2="-3.15771773%" id="linearGradient-12">
            <stop stop-color="#FFBF44" offset="0%"></stop>
            <stop stop-color="#E96200" offset="100%"></stop>
        </linearGradient>
        <path d="M18.475,0.83 C18.299,13.554 14.002,35.448 0.144,39.967 L0.144,39.967 C1.632,40.667 3.186,41.04 4.785,41.04 L4.785,41.04 C15.774,41.04 24.683,23.516 24.683,1.9 L24.683,1.9 L24.677,1.9 L24.677,1.366 C24.677,1.071 24.438,0.83 24.142,0.83 L24.142,0.83 L18.475,0.83 Z" id="path-13"></path>
        <linearGradient x1="48.7979826%" y1="64.8333129%" x2="58.2673582%" y2="-52.0578247%" id="linearGradient-15">
            <stop stop-color="#FFBF44" offset="0%"></stop>
            <stop stop-color="#E96200" offset="100%"></stop>
        </linearGradient>
        <polygon id="path-16" points="0 71 84.003 71 84.003 0.336 0 0.336"></polygon>
        <path d="M3.072,0.975 C1.698,0.975 0.574,2.098 0.574,3.472 L0.574,3.472 L0.574,9.158 L29.033,9.158 L29.033,3.472 C29.033,2.099 27.909,0.975 26.536,0.975 L26.536,0.975 L3.072,0.975 Z" id="path-18"></path>
        <linearGradient x1="49.8892586%" y1="52.5219486%" x2="50.3585924%" y2="41.8443006%" id="linearGradient-20">
            <stop stop-color="#FFBF44" offset="0%"></stop>
            <stop stop-color="#E96200" offset="100%"></stop>
        </linearGradient>
        <polygon id="path-21" points="11.7 13.424 0.413 19.308 11.249 26.562 13.358 39.115 23.605 31.051 36.196 32.925 31.692 20.687 37.366 9.292 24.335 9.793 15.251 0.876"></polygon>
        <linearGradient x1="68.6751937%" y1="109.270451%" x2="45.7242097%" y2="18.6367591%" id="linearGradient-23">
            <stop stop-color="#FFBF44" offset="0%"></stop>
            <stop stop-color="#E96200" offset="100%"></stop>
        </linearGradient>
    </defs>
    <g id="How-It-Works" stroke="none" stroke-width="1" fill="none" fill-rule="evenodd">
        <g id="w_i_HIW_P" transform="translate(-403.000000, -440.000000)">
            <g id="Form" transform="translate(323.000000, 276.000000)">
                <g id="Group-4-Copy" transform="translate(80.000000, 164.000000)">
                    <g id="img_hiw_p2-2">
                        <g id="img_hiw_p2">
                            <g id="Group-44" transform="translate(18.000000, 14.000000)">
                                <g id="Group-3" transform="translate(28.000000, 43.663700)">
                                    <mask id="mask-2" fill="white">
                                        <use xlink:href="#path-1"></use>
                                    </mask>
                                    <g id="Clip-2"></g>
                                    <path d="M8.042,0.779 L7.966,0.779 L7.965,0.779 L7.887,0.779 L7.887,0.779 L7.809,0.779 L7.808,0.779 L7.731,0.779 L7.73,0.779 L7.654,0.779 L7.652,0.779 L7.575,0.779 L7.573,0.779 L7.498,0.779 L7.496,0.779 L7.419,0.779 L7.418,0.779 L7.341,0.779 L7.339,0.779 L7.263,0.779 L7.261,0.779 L7.186,0.779 L7.183,0.779 L7.107,0.779 L7.105,0.779 L7.029,0.779 L7.027,0.779 L6.951,0.779 L6.949,0.779 L6.872,0.779 L6.87,0.779 L6.795,0.779 L6.794,0.779 L6.717,0.779 L6.715,0.779 L6.638,0.779 L6.637,0.779 L6.56,0.779 L6.559,0.779 L6.482,0.779 L6.481,0.779 L6.404,0.779 L6.402,0.779 L6.326,0.779 L6.325,0.779 L6.248,0.779 L6.247,0.779 L6.169,0.779 L6.169,0.779 L6.091,0.779 L6.09,0.779 L6.014,0.779 L6.012,0.779 L5.935,0.779 L5.934,0.779 L5.858,0.779 L5.856,0.779 L5.78,0.779 L5.778,0.779 L5.701,0.779 L5.7,0.779 L5.624,0.779 L5.621,0.779 L5.546,0.779 L5.544,0.779 L5.467,0.779 L5.466,0.779 L5.389,0.779 L5.387,0.779 L5.311,0.779 L5.309,0.779 L5.233,0.779 L5.231,0.779 L5.155,0.779 L5.154,0.779 L5.077,0.779 L5.075,0.779 L4.999,0.779 L4.998,0.779 L4.92,0.779 L4.919,0.779 L4.843,0.779 L4.841,0.779 L4.764,0.779 L4.764,0.779 L4.686,0.779 L4.685,0.779 L4.608,0.779 L4.607,0.779 L4.53,0.779 L4.529,0.779 L4.452,0.779 L4.45,0.779 L4.375,0.779 L4.373,0.779 L4.296,0.779 L4.295,0.779 L4.218,0.779 L4.216,0.779 L4.14,0.779 L4.138,0.779 L4.063,0.779 L4.06,0.779 L3.984,0.779 L3.982,0.779 L3.906,0.779 L3.904,0.779 L3.828,0.779 L3.826,0.779 L3.749,0.779 L3.747,0.779 L3.672,0.779 L3.67,0.779 L3.594,0.779 L3.593,0.779 L3.515,0.779 L3.046,0.779 C2.776,6.43 3.237,13.257 0.382,15.711 L0.382,15.711 C0.195,15.872 0.245,16.472 0.209,16.686 L0.209,16.686 L11.398,16.686 C11.363,16.472 11.361,15.872 11.176,15.711 L11.176,15.711 C8.321,13.257 8.782,6.43 8.512,0.779 L8.512,0.779 L8.042,0.779 Z" id="Fill-1" fill="url(#linearGradient-3)" mask="url(#mask-2)"></path>
                                </g>
                                <path d="M36.0426,44.4423 L35.9656,44.4423 L35.9646,44.4423 L35.8876,44.4423 L35.8866,44.4423 L35.8096,44.4423 L35.8086,44.4423 L35.7306,44.4423 L35.7306,44.4423 L35.6536,44.4423 L35.6516,44.4423 L35.5746,44.4423 L35.5736,44.4423 L35.4976,44.4423 L35.4956,44.4423 L35.4196,44.4423 L35.4176,44.4423 L35.3416,44.4423 L35.3396,44.4423 L35.2636,44.4423 L35.2616,44.4423 L35.1856,44.4423 L35.1836,44.4423 L35.1066,44.4423 L35.1056,44.4423 L35.0286,44.4423 L35.0266,44.4423 L34.9506,44.4423 L34.9486,44.4423 L34.8726,44.4423 L34.8706,44.4423 L34.7946,44.4423 L34.7936,44.4423 L34.7166,44.4423 L34.7146,44.4423 L34.6386,44.4423 L34.6376,44.4423 L34.5606,44.4423 L34.5596,44.4423 L34.4816,44.4423 L34.4806,44.4423 L34.4036,44.4423 L34.4026,44.4423 L34.3256,44.4423 L34.3246,44.4423 L34.2476,44.4423 L34.2466,44.4423 L34.1696,44.4423 L34.1686,44.4423 L34.0916,44.4423 L34.0906,44.4423 L34.0136,44.4423 L34.0126,44.4423 L33.9366,44.4423 L33.9346,44.4423 L33.8576,44.4423 L33.8556,44.4423 L33.7796,44.4423 L33.7776,44.4423 L33.7016,44.4423 L33.6996,44.4423 L33.6236,44.4423 L33.6216,44.4423 L33.5456,44.4423 L33.5436,44.4423 L33.4676,44.4423 L33.4656,44.4423 L33.3896,44.4423 L33.3876,44.4423 L33.3116,44.4423 L33.3096,44.4423 L33.2326,44.4423 L33.2306,44.4423 L33.1546,44.4423 L33.1536,44.4423 L33.0766,44.4423 L33.0746,44.4423 L32.9986,44.4423 L32.9976,44.4423 L32.9206,44.4423 L32.9196,44.4423 L32.8426,44.4423 L32.8416,44.4423 L32.7646,44.4423 L32.7636,44.4423 L32.6866,44.4423 L32.6856,44.4423 L32.6076,44.4423 L32.6066,44.4423 L32.5296,44.4423 L32.5286,44.4423 L32.4516,44.4423 L32.4506,44.4423 L32.3746,44.4423 L32.3726,44.4423 L32.2966,44.4423 L32.2946,44.4423 L32.2186,44.4423 L32.2166,44.4423 L32.1406,44.4423 L32.1386,44.4423 L32.0626,44.4423 L32.0606,44.4423 L31.9836,44.4423 L31.9816,44.4423 L31.9056,44.4423 L31.9036,44.4423 L31.8276,44.4423 L31.8256,44.4423 L31.7496,44.4423 L31.7476,44.4423 L31.6716,44.4423 L31.6706,44.4423 L31.5936,44.4423 L31.5926,44.4423 L31.5156,44.4423 L31.0636,44.4423 L31.0446,44.4583 C31.0066,45.2583 30.9826,46.0843 30.9636,46.9163 C31.4066,47.5673 32.1376,48.2153 33.3376,48.5153 C34.5016,48.8063 35.6656,48.8103 36.6386,48.7123 C36.6006,47.2723 36.5776,45.8223 36.5126,44.4423 L36.0426,44.4423 Z" id="Fill-4" fill="#C65708"></path>
                                <g id="Group-8" transform="translate(0.000000, 1.663700)">
                                    <mask id="mask-5" fill="white">
                                        <use xlink:href="#path-4"></use>
                                    </mask>
                                    <g id="Clip-7"></g>
                                    <path d="M5.878,1.244 C4.808,1.773 3.806,2.584 2.973,3.626 L2.973,3.626 C2.146,4.659 1.486,5.918 1.092,7.351 L1.092,7.351 C-1.11022302e-16,11.318 0.923,16.626 6.052,22.062 L6.052,22.062 C7.923,24.047 11.276,26.492 13.798,28.333 L13.798,28.333 C14.645,28.95 15.403,29.504 15.831,29.83 L15.831,29.83 C15.951,29.922 16.105,30.037 16.265,30.156 L16.265,30.156 C17.119,30.792 18.213,31.608 18.542,32.649 L18.542,32.649 C18.701,33.156 18.49,34.353 18.174,34.972 L18.174,34.972 C17.774,35.752 18.028,36.74 18.74,37.176 L18.74,37.176 C19.452,37.613 20.353,37.336 20.751,36.556 L20.751,36.556 C23.047,32.082 20.118,29.121 17.919,27.483 L17.919,27.483 C17.788,27.386 17.663,27.292 17.518,27.182 L17.518,27.182 C16.845,26.668 16.177,26.179 15.429,25.633 L15.429,25.633 C12.985,23.851 9.738,21.482 8.098,19.743 L8.098,19.743 C3.926,15.32 3.111,11.232 3.924,8.276 L3.924,8.276 C4.193,7.3 4.639,6.448 5.192,5.755 L5.192,5.755 C5.739,5.072 6.394,4.541 7.091,4.197 L7.091,4.197 C8.492,3.505 10.063,3.606 11.178,4.818 L11.178,4.818 C11.657,5.339 11.896,5.874 11.968,6.367 L11.968,6.367 C12.021,6.728 11.989,7.072 11.9,7.374 L11.9,7.374 C11.818,7.654 11.691,7.889 11.542,8.053 L11.542,8.053 C11.462,8.141 11.403,8.193 11.373,8.198 L11.373,8.198 C10.569,8.338 10.02,9.166 10.148,10.048 L10.148,10.048 C10.276,10.93 11.032,11.531 11.837,11.391 L11.837,11.391 C12.499,11.274 13.125,10.897 13.634,10.335 L13.634,10.335 C14.098,9.822 14.481,9.14 14.71,8.363 L14.71,8.363 C14.932,7.607 15.012,6.751 14.882,5.861 L14.882,5.861 C14.718,4.736 14.223,3.573 13.26,2.526 L13.26,2.526 C11.988,1.143 10.437,0.516 8.86,0.516 L8.86,0.516 C7.855,0.516 6.839,0.77 5.878,1.244" id="Fill-6" fill="url(#linearGradient-6)" mask="url(#mask-5)"></path>
                                </g>
                                <g id="Group-11" transform="translate(46.000000, 1.663700)">
                                    <mask id="mask-8" fill="white">
                                        <use xlink:href="#path-7"></use>
                                    </mask>
                                    <g id="Clip-10"></g>
                                    <path d="M8.31,2.526 C7.347,3.573 6.852,4.736 6.687,5.861 L6.687,5.861 C6.556,6.751 6.637,7.607 6.859,8.363 L6.859,8.363 C7.087,9.14 7.47,9.822 7.934,10.335 L7.934,10.335 C8.444,10.897 9.069,11.274 9.733,11.391 L9.733,11.391 C10.538,11.531 11.292,10.93 11.421,10.048 L11.421,10.048 C11.549,9.166 11,8.338 10.195,8.198 L10.195,8.198 C10.165,8.193 10.106,8.141 10.027,8.053 L10.027,8.053 C9.878,7.889 9.751,7.654 9.669,7.374 L9.669,7.374 C9.579,7.072 9.547,6.728 9.6,6.367 L9.6,6.367 C9.672,5.874 9.912,5.339 10.39,4.818 L10.39,4.818 C11.506,3.606 13.077,3.505 14.477,4.197 L14.477,4.197 C15.176,4.541 15.831,5.072 16.376,5.755 L16.376,5.755 C16.932,6.448 17.375,7.3 17.644,8.276 L17.644,8.276 C18.458,11.232 17.644,15.32 13.47,19.743 L13.47,19.743 C11.831,21.482 8.583,23.851 6.141,25.633 L6.141,25.633 C5.392,26.179 4.724,26.668 4.051,27.182 L4.051,27.182 C3.906,27.292 3.78,27.386 3.65,27.483 L3.65,27.483 C1.451,29.121 -1.397,32.011 0.899,36.485 L0.899,36.485 C1.299,37.265 2.199,37.542 2.911,37.106 L2.911,37.106 C3.622,36.669 3.876,35.681 3.478,34.901 L3.478,34.901 C3.219,34.399 2.886,33.369 2.957,32.943 L2.957,32.943 C3.153,31.759 4.37,30.851 5.304,30.156 L5.304,30.156 C5.464,30.037 5.618,29.922 5.738,29.83 L5.738,29.83 C6.166,29.504 6.924,28.95 7.771,28.333 L7.771,28.333 C10.292,26.492 13.646,24.047 15.517,22.062 L15.517,22.062 C20.645,16.626 21.569,11.318 20.478,7.351 L20.478,7.351 C20.083,5.918 19.423,4.659 18.597,3.626 L18.597,3.626 C17.762,2.584 16.761,1.773 15.691,1.244 L15.691,1.244 C14.73,0.77 13.714,0.516 12.71,0.516 L12.71,0.516 C11.131,0.516 9.58,1.143 8.31,2.526" id="Fill-9" fill="url(#linearGradient-9)" mask="url(#mask-8)"></path>
                                </g>
                                <g id="Group-14" transform="translate(13.000000, 4.663700)">
                                    <mask id="mask-11" fill="white">
                                        <use xlink:href="#path-10"></use>
                                    </mask>
                                    <g id="Clip-13"></g>
                                    <path d="M1.421,0.83 C1.126,0.83 0.885,1.071 0.885,1.366 L0.885,1.366 L0.885,1.9 C0.885,23.516 9.794,41.04 20.785,41.04 L20.785,41.04 C31.774,41.04 40.683,23.516 40.683,1.9 L40.683,1.9 L40.677,1.9 L40.677,1.366 C40.677,1.071 40.438,0.83 40.142,0.83 L40.142,0.83 L1.421,0.83 Z" id="Fill-12" fill="url(#linearGradient-12)" mask="url(#mask-11)"></path>
                                </g>
                                <g id="Group-17" transform="translate(29.000000, 4.663700)">
                                    <mask id="mask-14" fill="white">
                                        <use xlink:href="#path-13"></use>
                                    </mask>
                                    <g id="Clip-16"></g>
                                    <path d="M18.475,0.83 C18.299,13.554 14.002,35.448 0.144,39.967 L0.144,39.967 C1.632,40.667 3.186,41.04 4.785,41.04 L4.785,41.04 C15.774,41.04 24.683,23.516 24.683,1.9 L24.683,1.9 L24.677,1.9 L24.677,1.366 C24.677,1.071 24.438,0.83 24.142,0.83 L24.142,0.83 L18.475,0.83 Z" id="Fill-15" fill="url(#linearGradient-15)" mask="url(#mask-14)"></path>
                                </g>
                                <g id="Group-22" transform="translate(22.000000, 59.663700)" fill="#C65708">
                                    <path d="M1.1842,0.6858 L22.4232,0.6858 C23.0522,0.6858 23.5682,1.2008 23.5682,1.8308 L23.5682,2.9748 L0.0392,2.9748 L0.0392,1.8308 C0.0392,1.2008 0.5542,0.6858 1.1842,0.6858" id="Fill-18"></path>
                                    <path d="M7.8619,0.6858 L22.4239,0.6858 C23.0519,0.6858 23.5679,1.2008 23.5679,1.8308 L23.5679,2.9748 L13.8929,2.9748 C10.7209,2.4178 7.8619,0.6858 7.8619,0.6858" id="Fill-20"></path>
                                </g>
                                <g id="Group-35" transform="translate(0.000000, 0.663700)">
                                    <path d="M27.5397,58.5013 L40.0667,58.5013 C40.3937,58.5013 40.6597,58.7673 40.6597,59.0933 L40.6597,59.6863 L26.9477,59.6863 L26.9477,59.0933 C26.9477,58.7673 27.2147,58.5013 27.5397,58.5013" id="Fill-26" fill="#EA6200"></path>
                                    <mask id="mask-17" fill="white">
                                        <use xlink:href="#path-16"></use>
                                    </mask>
                                    <g id="Clip-29"></g>
                                    <polygon id="Fill-28" fill="#F59727" mask="url(#mask-17)" points="12.837 4.041 54.208 4.041 54.208 0.361 12.837 0.361"></polygon>
                                    <polygon id="Fill-30" fill="#FCB53D" mask="url(#mask-17)" points="12.837 4.04 18.079 4.04 18.079 0.36 12.837 0.36"></polygon>
                                    <polygon id="Fill-31" fill="#FDBB41" mask="url(#mask-17)" points="16.647 4.017 21.953 4.017 21.953 0.336 16.647 0.336"></polygon>
                                    <polygon id="Fill-32" fill="#FCB53D" mask="url(#mask-17)" points="21.953 4.041 47.482 4.041 47.482 0.361 21.953 0.361"></polygon>
                                    <polygon id="Fill-33" fill="#F59727" mask="url(#mask-17)" points="47.482 4.041 50.481 4.041 50.481 0.361 47.482 0.361"></polygon>
                                    <polygon id="Fill-34" fill="#EA6200" mask="url(#mask-17)" points="13.335 4.83 53.673 4.83 53.673 4.04 13.335 4.04"></polygon>
                                </g>
                                <g id="Group-38" transform="translate(19.000000, 61.663700)">
                                    <mask id="mask-19" fill="white">
                                        <use xlink:href="#path-18"></use>
                                    </mask>
                                    <g id="Clip-37"></g>
                                    <path d="M3.072,0.975 C1.698,0.975 0.574,2.098 0.574,3.472 L0.574,3.472 L0.574,9.158 L29.033,9.158 L29.033,3.472 C29.033,2.099 27.909,0.975 26.536,0.975 L26.536,0.975 L3.072,0.975 Z" id="Fill-36" fill="url(#linearGradient-20)" mask="url(#mask-19)"></path>
                                </g>
                                <polygon id="Fill-39" fill="#DD6909" points="58.401 30.997 67.485 39.914 79.088 39.469 80.516 39.413 74.842 50.808 78.852 61.704 79.346 63.046 77.196 63.589 66.755 61.172 57.631 68.352 56.508 69.236 54.358 69.778 54.4 56.684 44.752 50.225 43.564 49.429 54.851 43.546 56.251 31.54"></polygon>
                                <g id="Group-43" transform="translate(41.000000, 30.663700)">
                                    <mask id="mask-22" fill="white">
                                        <use xlink:href="#path-21"></use>
                                    </mask>
                                    <g id="Clip-42"></g>
                                    <polygon id="Fill-41" fill="url(#linearGradient-23)" mask="url(#mask-22)" points="11.7 13.424 0.413 19.308 11.249 26.562 13.358 39.115 23.605 31.051 36.196 32.925 31.692 20.687 37.366 9.292 24.335 9.793 15.251 0.876"></polygon>
                                </g>
                            </g>
                        </g>
                    </g>
                </g>
            </g>
        </g>
    </g>
</svg>